%!PS-Adobe-3.0 EPSF-3.0
%%Creator: MATLAB, The MathWorks, Inc. Version 7.14.0.739 (R2012a). Operating System: Linux 2.6.18-194.el5 #1 SMP Fri Apr 2 14:58:14 EDT 2010 x86_64.
%%Title: /ifs/ccb/CCB_SW_Tools/VolumeTools/AnandJoshi/shapeanalysis/bin/main_correspondence.eps
%%CreationDate: 05/07/2013  21:55:27
%%DocumentNeededFonts: Times-Roman
%%DocumentProcessColors: Cyan Magenta Yellow Black
%%LanguageLevel: 2
%%Pages: 1
%%BoundingBox:   -17   154   630   637
%%EndComments

%%BeginProlog
% MathWorks dictionary
/MathWorks 160 dict begin
% definition operators
/bdef {bind def} bind def
/ldef {load def} bind def
/xdef {exch def} bdef
/xstore {exch store} bdef
% operator abbreviations
/c  /clip ldef
/cc /concat ldef
/cp /closepath ldef
/gr /grestore ldef
/gs /gsave ldef
/mt /moveto ldef
/np /newpath ldef
/cm /currentmatrix ldef
/sm /setmatrix ldef
/rm /rmoveto ldef
/rl /rlineto ldef
/s {show newpath} bdef
/sc {setcmykcolor} bdef
/sr /setrgbcolor ldef
/sg /setgray ldef
/w /setlinewidth ldef
/j /setlinejoin ldef
/cap /setlinecap ldef
/rc {rectclip} bdef
/rf {rectfill} bdef
% page state control
/pgsv () def
/bpage {/pgsv save def} bdef
/epage {pgsv restore} bdef
/bplot /gsave ldef
/eplot {stroke grestore} bdef
% orientation switch
/portraitMode 0 def /landscapeMode 1 def /rotateMode 2 def
% coordinate system mappings
/dpi2point 0 def
% font control
/FontSize 0 def
/FMS {/FontSize xstore findfont [FontSize 0 0 FontSize neg 0 0]
  makefont setfont} bdef
/reencode {exch dup where {pop load} {pop StandardEncoding} ifelse
  exch dup 3 1 roll findfont dup length dict begin
  { 1 index /FID ne {def}{pop pop} ifelse } forall
  /Encoding exch def currentdict end definefont pop} bdef
/isroman {findfont /CharStrings get /Agrave known} bdef
/FMSR {3 1 roll 1 index dup isroman {reencode} {pop pop} ifelse
  exch FMS} bdef
/csm {1 dpi2point div -1 dpi2point div scale neg translate
 dup landscapeMode eq {pop -90 rotate}
  {rotateMode eq {90 rotate} if} ifelse} bdef
% line types: solid, dotted, dashed, dotdash
/SO { [] 0 setdash } bdef
/DO { [.5 dpi2point mul 4 dpi2point mul] 0 setdash } bdef
/DA { [6 dpi2point mul] 0 setdash } bdef
/DD { [.5 dpi2point mul 4 dpi2point mul 6 dpi2point mul 4
  dpi2point mul] 0 setdash } bdef
% macros for lines and objects
/L {lineto stroke} bdef
/MP {3 1 roll moveto 1 sub {rlineto} repeat} bdef
/AP {{rlineto} repeat} bdef
/PDlw -1 def
/W {/PDlw currentlinewidth def setlinewidth} def
/PP {closepath eofill} bdef
/DP {closepath stroke} bdef
/MR {4 -2 roll moveto dup  0 exch rlineto exch 0 rlineto
  neg 0 exch rlineto closepath} bdef
/FR {MR stroke} bdef
/PR {MR fill} bdef
/L1i {{currentfile picstr readhexstring pop} image} bdef
/tMatrix matrix def
/MakeOval {newpath tMatrix currentmatrix pop translate scale
0 0 1 0 360 arc tMatrix setmatrix} bdef
/FO {MakeOval stroke} bdef
/PO {MakeOval fill} bdef
/PD {currentlinewidth 2 div 0 360 arc fill
   PDlw -1 eq not {PDlw w /PDlw -1 def} if} def
/FA {newpath tMatrix currentmatrix pop translate scale
  0 0 1 5 -2 roll arc tMatrix setmatrix stroke} bdef
/PA {newpath tMatrix currentmatrix pop	translate 0 0 moveto scale
  0 0 1 5 -2 roll arc closepath tMatrix setmatrix fill} bdef
/FAn {newpath tMatrix currentmatrix pop translate scale
  0 0 1 5 -2 roll arcn tMatrix setmatrix stroke} bdef
/PAn {newpath tMatrix currentmatrix pop translate 0 0 moveto scale
  0 0 1 5 -2 roll arcn closepath tMatrix setmatrix fill} bdef
/vradius 0 def /hradius 0 def /lry 0 def
/lrx 0 def /uly 0 def /ulx 0 def /rad 0 def
/MRR {/vradius xdef /hradius xdef /lry xdef /lrx xdef /uly xdef
  /ulx xdef newpath tMatrix currentmatrix pop ulx hradius add uly
  vradius add translate hradius vradius scale 0 0 1 180 270 arc 
  tMatrix setmatrix lrx hradius sub uly vradius add translate
  hradius vradius scale 0 0 1 270 360 arc tMatrix setmatrix
  lrx hradius sub lry vradius sub translate hradius vradius scale
  0 0 1 0 90 arc tMatrix setmatrix ulx hradius add lry vradius sub
  translate hradius vradius scale 0 0 1 90 180 arc tMatrix setmatrix
  closepath} bdef
/FRR {MRR stroke } bdef
/PRR {MRR fill } bdef
/MlrRR {/lry xdef /lrx xdef /uly xdef /ulx xdef /rad lry uly sub 2 div def
  newpath tMatrix currentmatrix pop ulx rad add uly rad add translate
  rad rad scale 0 0 1 90 270 arc tMatrix setmatrix lrx rad sub lry rad
  sub translate rad rad scale 0 0 1 270 90 arc tMatrix setmatrix
  closepath} bdef
/FlrRR {MlrRR stroke } bdef
/PlrRR {MlrRR fill } bdef
/MtbRR {/lry xdef /lrx xdef /uly xdef /ulx xdef /rad lrx ulx sub 2 div def
  newpath tMatrix currentmatrix pop ulx rad add uly rad add translate
  rad rad scale 0 0 1 180 360 arc tMatrix setmatrix lrx rad sub lry rad
  sub translate rad rad scale 0 0 1 0 180 arc tMatrix setmatrix
  closepath} bdef
/FtbRR {MtbRR stroke } bdef
/PtbRR {MtbRR fill } bdef
/stri 6 array def /dtri 6 array def
/smat 6 array def /dmat 6 array def
/tmat1 6 array def /tmat2 6 array def /dif 3 array def
/asub {/ind2 exch def /ind1 exch def dup dup
  ind1 get exch ind2 get sub exch } bdef
/tri_to_matrix {
  2 0 asub 3 1 asub 4 0 asub 5 1 asub
  dup 0 get exch 1 get 7 -1 roll astore } bdef
/compute_transform {
  dmat dtri tri_to_matrix tmat1 invertmatrix 
  smat stri tri_to_matrix tmat2 concatmatrix } bdef
/ds {stri astore pop} bdef
/dt {dtri astore pop} bdef
/db {2 copy /cols xdef /rows xdef mul dup 3 mul string
  currentfile 
  3 index 0 eq {/ASCIIHexDecode filter}
  {/ASCII85Decode filter 3 index 2 eq {/RunLengthDecode filter} if }
  ifelse exch readstring pop
  dup 0 3 index getinterval /rbmap xdef
  dup 2 index dup getinterval /gbmap xdef
  1 index dup 2 mul exch getinterval /bbmap xdef pop pop}bdef
/it {gs np dtri aload pop moveto lineto lineto cp c
  cols rows 8 compute_transform 
  rbmap gbmap bbmap true 3 colorimage gr}bdef
/il {newpath moveto lineto stroke}bdef
currentdict end def
%%EndProlog

%%BeginSetup
MathWorks begin

0 cap

end
%%EndSetup

%%Page: 1 1
%%BeginPageSetup
%%PageBoundingBox:   -17   154   630   637
MathWorks begin
bpage
%%EndPageSetup

%%BeginObject: obj1
bplot

/dpi2point 12 def
portraitMode -0204 7644 csm

    0     0  7775  5789 rc
85 dict begin %Colortable dictionary
/c0 { 0.000000 0.000000 0.000000 sr} bdef
/c1 { 1.000000 1.000000 1.000000 sr} bdef
/c2 { 0.900000 0.000000 0.000000 sr} bdef
/c3 { 0.000000 0.820000 0.000000 sr} bdef
/c4 { 0.000000 0.000000 0.800000 sr} bdef
/c5 { 0.910000 0.820000 0.320000 sr} bdef
/c6 { 1.000000 0.260000 0.820000 sr} bdef
/c7 { 0.000000 0.820000 0.820000 sr} bdef
c0
1 j
1 sg
   0    0 7776 5790 rf
12 w
0 1303 1749 0 0 -1303 389 1592 4 MP
PP
-1749 0 0 1303 1749 0 0 -1303 389 1592 5 MP stroke
8 w
DO
SO
12 w
0 sg
 389 1592 mt 2138 1592 L
 389  289 mt 2138  289 L
 389 1592 mt  389  289 L
2138 1592 mt 2138  289 L
 389 1592 mt 2138 1592 L
 389 1592 mt  389  289 L
 548 1592 mt  548 1574 L
 548  289 mt  548  306 L
 945 1592 mt  945 1574 L
 945  289 mt  945  306 L
1343 1592 mt 1343 1574 L
1343  289 mt 1343  306 L
1740 1592 mt 1740 1574 L
1740  289 mt 1740  306 L
 389 1510 mt  406 1510 L
2138 1510 mt 2120 1510 L
%%IncludeResource: font Times-Roman
/Times-Roman /ISOLatin1Encoding 144 FMSR

 282 1561 mt 
(5) s
 389 1103 mt  406 1103 L
2138 1103 mt 2120 1103 L
 210 1154 mt 
(10) s
 389  696 mt  406  696 L
2138  696 mt 2120  696 L
 210  747 mt 
(15) s
 389 1592 mt 2138 1592 L
 389  289 mt 2138  289 L
 389 1592 mt  389  289 L
2138 1592 mt 2138  289 L
gs 389 289 1750 1304 rc
gr

 798 1064 mt  870 1064 L
 834 1028 mt  834 1100 L
1041  863 mt 1113  863 L
1077  827 mt 1077  899 L
1130  595 mt 1202  595 L
1166  559 mt 1166  631 L
1126  814 mt 1198  814 L
1162  778 mt 1162  850 L
1136  824 mt 1208  824 L
1172  788 mt 1172  860 L
1067 1118 mt 1139 1118 L
1103 1082 mt 1103 1154 L
1034 1021 mt 1106 1021 L
1070  985 mt 1070 1057 L
1619 1411 mt 1691 1411 L
1655 1375 mt 1655 1447 L
 833 1204 mt  905 1204 L
 869 1168 mt  869 1240 L
1400  579 mt 1472  579 L
1436  543 mt 1436  615 L
 684 1104 mt  756 1104 L
 720 1068 mt  720 1140 L
1067  946 mt 1139  946 L
1103  910 mt 1103  982 L
 549 1274 mt  621 1274 L
 585 1238 mt  585 1310 L
1283  789 mt 1355  789 L
1319  753 mt 1319  825 L
1530  561 mt 1602  561 L
1566  525 mt 1566  597 L
 931  938 mt 1003  938 L
 967  902 mt  967  974 L
1403 1213 mt 1475 1213 L
1439 1177 mt 1439 1249 L
 704 1294 mt  776 1294 L
 740 1258 mt  740 1330 L
 593 1517 mt  665 1517 L
 629 1481 mt  629 1553 L
1057  751 mt 1129  751 L
1093  715 mt 1093  787 L
1300 1037 mt 1372 1037 L
1336 1001 mt 1336 1073 L
 466 1310 mt  538 1310 L
 502 1274 mt  502 1346 L
 884 1046 mt  956 1046 L
 920 1010 mt  920 1082 L
 826 1142 mt  898 1142 L
 862 1106 mt  862 1178 L
 982  907 mt 1054  907 L
1018  871 mt 1018  943 L
2046  420 mt 2118  420 L
2082  384 mt 2082  456 L
 809 1039 mt  859 1089 L
 859 1039 mt  809 1089 L
1052  838 mt 1102  888 L
1102  838 mt 1052  888 L
1141  570 mt 1191  620 L
1191  570 mt 1141  620 L
1137  789 mt 1187  839 L
1187  789 mt 1137  839 L
1147  799 mt 1197  849 L
1197  799 mt 1147  849 L
1078 1093 mt 1128 1143 L
1128 1093 mt 1078 1143 L
1045  996 mt 1095 1046 L
1095  996 mt 1045 1046 L
1630 1386 mt 1680 1436 L
1680 1386 mt 1630 1436 L
 844 1179 mt  894 1229 L
 894 1179 mt  844 1229 L
1411  554 mt 1461  604 L
1461  554 mt 1411  604 L
 695 1079 mt  745 1129 L
 745 1079 mt  695 1129 L
1078  921 mt 1128  971 L
1128  921 mt 1078  971 L
 560 1249 mt  610 1299 L
 610 1249 mt  560 1299 L
1294  764 mt 1344  814 L
1344  764 mt 1294  814 L
1541  536 mt 1591  586 L
1591  536 mt 1541  586 L
 942  913 mt  992  963 L
 992  913 mt  942  963 L
1414 1188 mt 1464 1238 L
1464 1188 mt 1414 1238 L
 715 1269 mt  765 1319 L
 765 1269 mt  715 1319 L
 604 1492 mt  654 1542 L
 654 1492 mt  604 1542 L
1068  726 mt 1118  776 L
1118  726 mt 1068  776 L
1311 1012 mt 1361 1062 L
1361 1012 mt 1311 1062 L
 477 1285 mt  527 1335 L
 527 1285 mt  477 1335 L
 895 1021 mt  945 1071 L
 945 1021 mt  895 1071 L
 837 1117 mt  887 1167 L
 887 1117 mt  837 1167 L
 993  882 mt 1043  932 L
1043  882 mt  993  932 L
2057  395 mt 2107  445 L
2107  395 mt 2057  445 L
gs 389 289 1750 1304 rc
gr

1 sg
0 1303 1749 0 0 -1303 389 2895 4 MP
PP
-1749 0 0 1303 1749 0 0 -1303 389 2895 5 MP stroke
8 w
DO
SO
12 w
0 sg
 389 2895 mt 2138 2895 L
 389 1592 mt 2138 1592 L
 389 2895 mt  389 1592 L
2138 2895 mt 2138 1592 L
 389 2895 mt 2138 2895 L
 389 2895 mt  389 1592 L
 548 2895 mt  548 2877 L
 548 1592 mt  548 1609 L
 945 2895 mt  945 2877 L
 945 1592 mt  945 1609 L
1343 2895 mt 1343 2877 L
1343 1592 mt 1343 1609 L
1740 2895 mt 1740 2877 L
1740 1592 mt 1740 1609 L
 389 2813 mt  406 2813 L
2138 2813 mt 2120 2813 L
 282 2864 mt 
(5) s
 389 2406 mt  406 2406 L
2138 2406 mt 2120 2406 L
 210 2457 mt 
(10) s
 389 1999 mt  406 1999 L
2138 1999 mt 2120 1999 L
 210 2050 mt 
(15) s
 389 2895 mt 2138 2895 L
 389 1592 mt 2138 1592 L
 389 2895 mt  389 1592 L
2138 2895 mt 2138 1592 L
gs 389 1592 1750 1304 rc
gr

 798 2429 mt  870 2429 L
 834 2393 mt  834 2465 L
1041 2104 mt 1113 2104 L
1077 2068 mt 1077 2140 L
1130 1878 mt 1202 1878 L
1166 1842 mt 1166 1914 L
1126 1942 mt 1198 1942 L
1162 1906 mt 1162 1978 L
1136 2204 mt 1208 2204 L
1172 2168 mt 1172 2240 L
1067 2275 mt 1139 2275 L
1103 2239 mt 1103 2311 L
1034 2222 mt 1106 2222 L
1070 2186 mt 1070 2258 L
1619 2356 mt 1691 2356 L
1655 2320 mt 1655 2392 L
 833 2344 mt  905 2344 L
 869 2308 mt  869 2380 L
1400 2074 mt 1472 2074 L
1436 2038 mt 1436 2110 L
 684 2470 mt  756 2470 L
 720 2434 mt  720 2506 L
1067 2248 mt 1139 2248 L
1103 2212 mt 1103 2284 L
 549 2619 mt  621 2619 L
 585 2583 mt  585 2655 L
1283 1757 mt 1355 1757 L
1319 1721 mt 1319 1793 L
1530 2104 mt 1602 2104 L
1566 2068 mt 1566 2140 L
 931 2217 mt 1003 2217 L
 967 2181 mt  967 2253 L
1403 2099 mt 1475 2099 L
1439 2063 mt 1439 2135 L
 704 2508 mt  776 2508 L
 740 2472 mt  740 2544 L
 593 2766 mt  665 2766 L
 629 2730 mt  629 2802 L
1057 2099 mt 1129 2099 L
1093 2063 mt 1093 2135 L
1300 1994 mt 1372 1994 L
1336 1958 mt 1336 2030 L
 466 2678 mt  538 2678 L
 502 2642 mt  502 2714 L
 884 2277 mt  956 2277 L
 920 2241 mt  920 2313 L
 826 2311 mt  898 2311 L
 862 2275 mt  862 2347 L
 982 2128 mt 1054 2128 L
1018 2092 mt 1018 2164 L
2046 2102 mt 2118 2102 L
2082 2066 mt 2082 2138 L
 809 2404 mt  859 2454 L
 859 2404 mt  809 2454 L
1052 2079 mt 1102 2129 L
1102 2079 mt 1052 2129 L
1141 1853 mt 1191 1903 L
1191 1853 mt 1141 1903 L
1137 1917 mt 1187 1967 L
1187 1917 mt 1137 1967 L
1147 2179 mt 1197 2229 L
1197 2179 mt 1147 2229 L
1078 2250 mt 1128 2300 L
1128 2250 mt 1078 2300 L
1045 2197 mt 1095 2247 L
1095 2197 mt 1045 2247 L
1630 2331 mt 1680 2381 L
1680 2331 mt 1630 2381 L
 844 2319 mt  894 2369 L
 894 2319 mt  844 2369 L
1411 2049 mt 1461 2099 L
1461 2049 mt 1411 2099 L
 695 2445 mt  745 2495 L
 745 2445 mt  695 2495 L
1078 2223 mt 1128 2273 L
1128 2223 mt 1078 2273 L
 560 2594 mt  610 2644 L
 610 2594 mt  560 2644 L
1294 1732 mt 1344 1782 L
1344 1732 mt 1294 1782 L
1541 2079 mt 1591 2129 L
1591 2079 mt 1541 2129 L
 942 2192 mt  992 2242 L
 992 2192 mt  942 2242 L
1414 2074 mt 1464 2124 L
1464 2074 mt 1414 2124 L
 715 2483 mt  765 2533 L
 765 2483 mt  715 2533 L
 604 2741 mt  654 2791 L
 654 2741 mt  604 2791 L
1068 2074 mt 1118 2124 L
1118 2074 mt 1068 2124 L
1311 1969 mt 1361 2019 L
1361 1969 mt 1311 2019 L
 477 2653 mt  527 2703 L
 527 2653 mt  477 2703 L
 895 2252 mt  945 2302 L
 945 2252 mt  895 2302 L
 837 2286 mt  887 2336 L
 887 2286 mt  837 2336 L
 993 2103 mt 1043 2153 L
1043 2103 mt  993 2153 L
2057 2077 mt 2107 2127 L
2107 2077 mt 2057 2127 L
gs 389 1592 1750 1304 rc
gr

1 sg
0 1303 1750 0 0 -1303 2138 2895 4 MP
PP
-1750 0 0 1303 1750 0 0 -1303 2138 2895 5 MP stroke
8 w
DO
SO
12 w
0 sg
2138 2895 mt 3888 2895 L
2138 1592 mt 3888 1592 L
2138 2895 mt 2138 1592 L
3888 2895 mt 3888 1592 L
2138 2895 mt 3888 2895 L
2138 2895 mt 2138 1592 L
2247 2895 mt 2247 2877 L
2247 1592 mt 2247 1609 L
2794 2895 mt 2794 2877 L
2794 1592 mt 2794 1609 L
3341 2895 mt 3341 2877 L
3341 1592 mt 3341 1609 L
2138 2813 mt 2155 2813 L
3888 2813 mt 3870 2813 L
2138 2406 mt 2155 2406 L
3888 2406 mt 3870 2406 L
2138 1999 mt 2155 1999 L
3888 1999 mt 3870 1999 L
2138 2895 mt 3888 2895 L
2138 1592 mt 3888 1592 L
2138 2895 mt 2138 1592 L
3888 2895 mt 3888 1592 L
gs 2138 1592 1751 1304 rc
gr

2810 2429 mt 2882 2429 L
2846 2393 mt 2846 2465 L
3079 2104 mt 3151 2104 L
3115 2068 mt 3115 2140 L
3440 1878 mt 3512 1878 L
3476 1842 mt 3476 1914 L
3146 1942 mt 3218 1942 L
3182 1906 mt 3182 1978 L
3132 2204 mt 3204 2204 L
3168 2168 mt 3168 2240 L
2737 2275 mt 2809 2275 L
2773 2239 mt 2773 2311 L
2868 2222 mt 2940 2222 L
2904 2186 mt 2904 2258 L
2344 2356 mt 2416 2356 L
2380 2320 mt 2380 2392 L
2623 2344 mt 2695 2344 L
2659 2308 mt 2659 2380 L
3462 2074 mt 3534 2074 L
3498 2038 mt 3498 2110 L
2756 2470 mt 2828 2470 L
2792 2434 mt 2792 2506 L
2969 2248 mt 3041 2248 L
3005 2212 mt 3005 2284 L
2528 2619 mt 2600 2619 L
2564 2583 mt 2564 2655 L
3179 1757 mt 3251 1757 L
3215 1721 mt 3215 1793 L
3486 2104 mt 3558 2104 L
3522 2068 mt 3522 2140 L
2979 2217 mt 3051 2217 L
3015 2181 mt 3015 2253 L
2609 2099 mt 2681 2099 L
2645 2063 mt 2645 2135 L
2501 2508 mt 2573 2508 L
2537 2472 mt 2537 2544 L
2201 2766 mt 2273 2766 L
2237 2730 mt 2237 2802 L
3230 2099 mt 3302 2099 L
3266 2063 mt 3266 2135 L
2846 1994 mt 2918 1994 L
2882 1958 mt 2882 2030 L
2479 2678 mt 2551 2678 L
2515 2642 mt 2515 2714 L
2834 2277 mt 2906 2277 L
2870 2241 mt 2870 2313 L
2706 2311 mt 2778 2311 L
2742 2275 mt 2742 2347 L
3020 2128 mt 3092 2128 L
3056 2092 mt 3056 2164 L
3675 2102 mt 3747 2102 L
3711 2066 mt 3711 2138 L
2821 2404 mt 2871 2454 L
2871 2404 mt 2821 2454 L
3090 2079 mt 3140 2129 L
3140 2079 mt 3090 2129 L
3451 1853 mt 3501 1903 L
3501 1853 mt 3451 1903 L
3157 1917 mt 3207 1967 L
3207 1917 mt 3157 1967 L
3143 2179 mt 3193 2229 L
3193 2179 mt 3143 2229 L
2748 2250 mt 2798 2300 L
2798 2250 mt 2748 2300 L
2879 2197 mt 2929 2247 L
2929 2197 mt 2879 2247 L
2355 2331 mt 2405 2381 L
2405 2331 mt 2355 2381 L
2634 2319 mt 2684 2369 L
2684 2319 mt 2634 2369 L
3473 2049 mt 3523 2099 L
3523 2049 mt 3473 2099 L
2767 2445 mt 2817 2495 L
2817 2445 mt 2767 2495 L
2980 2223 mt 3030 2273 L
3030 2223 mt 2980 2273 L
2539 2594 mt 2589 2644 L
2589 2594 mt 2539 2644 L
3190 1732 mt 3240 1782 L
3240 1732 mt 3190 1782 L
3497 2079 mt 3547 2129 L
3547 2079 mt 3497 2129 L
2990 2192 mt 3040 2242 L
3040 2192 mt 2990 2242 L
2620 2074 mt 2670 2124 L
2670 2074 mt 2620 2124 L
2512 2483 mt 2562 2533 L
2562 2483 mt 2512 2533 L
2212 2741 mt 2262 2791 L
2262 2741 mt 2212 2791 L
3241 2074 mt 3291 2124 L
3291 2074 mt 3241 2124 L
2857 1969 mt 2907 2019 L
2907 1969 mt 2857 2019 L
2490 2653 mt 2540 2703 L
2540 2653 mt 2490 2703 L
2845 2252 mt 2895 2302 L
2895 2252 mt 2845 2302 L
2717 2286 mt 2767 2336 L
2767 2286 mt 2717 2336 L
3031 2103 mt 3081 2153 L
3081 2103 mt 3031 2153 L
3686 2077 mt 3736 2127 L
3736 2077 mt 3686 2127 L
gs 2138 1592 1751 1304 rc
gr

1 sg
0 1302 1749 0 0 -1302 389 4197 4 MP
PP
-1749 0 0 1302 1749 0 0 -1302 389 4197 5 MP stroke
8 w
DO
SO
12 w
0 sg
 389 4197 mt 2138 4197 L
 389 2895 mt 2138 2895 L
 389 4197 mt  389 2895 L
2138 4197 mt 2138 2895 L
 389 4197 mt 2138 4197 L
 389 4197 mt  389 2895 L
 548 4197 mt  548 4179 L
 548 2895 mt  548 2912 L
 945 4197 mt  945 4179 L
 945 2895 mt  945 2912 L
1343 4197 mt 1343 4179 L
1343 2895 mt 1343 2912 L
1740 4197 mt 1740 4179 L
1740 2895 mt 1740 2912 L
 389 3936 mt  406 3936 L
2138 3936 mt 2120 3936 L
 282 3987 mt 
(0) s
 389 3676 mt  406 3676 L
2138 3676 mt 2120 3676 L
 102 3727 mt 
(0.05) s
 389 3415 mt  406 3415 L
2138 3415 mt 2120 3415 L
 174 3466 mt 
(0.1) s
 389 3155 mt  406 3155 L
2138 3155 mt 2120 3155 L
 102 3206 mt 
(0.15) s
 389 4197 mt 2138 4197 L
 389 2895 mt 2138 2895 L
 389 4197 mt  389 2895 L
2138 4197 mt 2138 2895 L
gs 389 2895 1750 1303 rc
gr

 798 3343 mt  870 3343 L
 834 3307 mt  834 3379 L
1041 3976 mt 1113 3976 L
1077 3940 mt 1077 4012 L
1130 4185 mt 1202 4185 L
1166 4149 mt 1166 4221 L
1126 3998 mt 1198 3998 L
1162 3962 mt 1162 4034 L
1136 3519 mt 1208 3519 L
1172 3483 mt 1172 3555 L
1067 3536 mt 1139 3536 L
1103 3500 mt 1103 3572 L
1034 3626 mt 1106 3626 L
1070 3590 mt 1070 3662 L
 809 3318 mt  859 3368 L
 859 3318 mt  809 3368 L
1052 3951 mt 1102 4001 L
1102 3951 mt 1052 4001 L
1141 4160 mt 1191 4210 L
1191 4160 mt 1141 4210 L
1137 3973 mt 1187 4023 L
1187 3973 mt 1137 4023 L
1147 3494 mt 1197 3544 L
1197 3494 mt 1147 3544 L
1078 3511 mt 1128 3561 L
1128 3511 mt 1078 3561 L
1045 3601 mt 1095 3651 L
1095 3601 mt 1045 3651 L
gs 389 2895 1750 1303 rc
gr

 833 3636 mt  905 3636 L
 869 3600 mt  869 3672 L
1400 3984 mt 1472 3984 L
1436 3948 mt 1436 4020 L
 684 3795 mt  756 3795 L
 720 3759 mt  720 3831 L
1067 3854 mt 1139 3854 L
1103 3818 mt 1103 3890 L
 549 3753 mt  621 3753 L
 585 3717 mt  585 3789 L
1283 3662 mt 1355 3662 L
1319 3626 mt 1319 3698 L
1530 3948 mt 1602 3948 L
1566 3912 mt 1566 3984 L
 931 3958 mt 1003 3958 L
 967 3922 mt  967 3994 L
1403 3408 mt 1475 3408 L
1439 3372 mt 1439 3444 L
 704 3938 mt  776 3938 L
 740 3902 mt  740 3974 L
 593 3347 mt  665 3347 L
 629 3311 mt  629 3383 L
1057 3503 mt 1129 3503 L
1093 3467 mt 1093 3539 L
1300 4056 mt 1372 4056 L
1336 4020 mt 1336 4092 L
 466 3961 mt  538 3961 L
 502 3925 mt  502 3997 L
 884 3854 mt  956 3854 L
 920 3818 mt  920 3890 L
 826 3377 mt  898 3377 L
 862 3341 mt  862 3413 L
 844 3611 mt  894 3661 L
 894 3611 mt  844 3661 L
1411 3959 mt 1461 4009 L
1461 3959 mt 1411 4009 L
 695 3770 mt  745 3820 L
 745 3770 mt  695 3820 L
1078 3829 mt 1128 3879 L
1128 3829 mt 1078 3879 L
 560 3728 mt  610 3778 L
 610 3728 mt  560 3778 L
1294 3637 mt 1344 3687 L
1344 3637 mt 1294 3687 L
1541 3923 mt 1591 3973 L
1591 3923 mt 1541 3973 L
 942 3933 mt  992 3983 L
 992 3933 mt  942 3983 L
1414 3383 mt 1464 3433 L
1464 3383 mt 1414 3433 L
 715 3913 mt  765 3963 L
 765 3913 mt  715 3963 L
 604 3322 mt  654 3372 L
 654 3322 mt  604 3372 L
1068 3478 mt 1118 3528 L
1118 3478 mt 1068 3528 L
1311 4031 mt 1361 4081 L
1361 4031 mt 1311 4081 L
 477 3936 mt  527 3986 L
 527 3936 mt  477 3986 L
 895 3829 mt  945 3879 L
 945 3829 mt  895 3879 L
 837 3352 mt  887 3402 L
 887 3352 mt  837 3402 L
gs 389 2895 1750 1303 rc
gr

2046 3866 mt 2118 3866 L
2082 3830 mt 2082 3902 L
2057 3841 mt 2107 3891 L
2107 3841 mt 2057 3891 L
gs 389 2895 1750 1303 rc
gr

1 sg
0 1302 1750 0 0 -1302 2138 4197 4 MP
PP
-1750 0 0 1302 1750 0 0 -1302 2138 4197 5 MP stroke
8 w
DO
SO
12 w
0 sg
2138 4197 mt 3888 4197 L
2138 2895 mt 3888 2895 L
2138 4197 mt 2138 2895 L
3888 4197 mt 3888 2895 L
2138 4197 mt 3888 4197 L
2138 4197 mt 2138 2895 L
2247 4197 mt 2247 4179 L
2247 2895 mt 2247 2912 L
2794 4197 mt 2794 4179 L
2794 2895 mt 2794 2912 L
3341 4197 mt 3341 4179 L
3341 2895 mt 3341 2912 L
2138 3936 mt 2155 3936 L
3888 3936 mt 3870 3936 L
2138 3676 mt 2155 3676 L
3888 3676 mt 3870 3676 L
2138 3415 mt 2155 3415 L
3888 3415 mt 3870 3415 L
2138 3155 mt 2155 3155 L
3888 3155 mt 3870 3155 L
2138 4197 mt 3888 4197 L
2138 2895 mt 3888 2895 L
2138 4197 mt 2138 2895 L
3888 4197 mt 3888 2895 L
gs 2138 2895 1751 1303 rc
gr

2810 3343 mt 2882 3343 L
2846 3307 mt 2846 3379 L
3079 3976 mt 3151 3976 L
3115 3940 mt 3115 4012 L
3440 4185 mt 3512 4185 L
3476 4149 mt 3476 4221 L
3146 3998 mt 3218 3998 L
3182 3962 mt 3182 4034 L
3132 3519 mt 3204 3519 L
3168 3483 mt 3168 3555 L
2737 3536 mt 2809 3536 L
2773 3500 mt 2773 3572 L
2868 3626 mt 2940 3626 L
2904 3590 mt 2904 3662 L
2821 3318 mt 2871 3368 L
2871 3318 mt 2821 3368 L
3090 3951 mt 3140 4001 L
3140 3951 mt 3090 4001 L
3451 4160 mt 3501 4210 L
3501 4160 mt 3451 4210 L
3157 3973 mt 3207 4023 L
3207 3973 mt 3157 4023 L
3143 3494 mt 3193 3544 L
3193 3494 mt 3143 3544 L
2748 3511 mt 2798 3561 L
2798 3511 mt 2748 3561 L
2879 3601 mt 2929 3651 L
2929 3601 mt 2879 3651 L
gs 2138 2895 1751 1303 rc
gr

2623 3636 mt 2695 3636 L
2659 3600 mt 2659 3672 L
3462 3984 mt 3534 3984 L
3498 3948 mt 3498 4020 L
2756 3795 mt 2828 3795 L
2792 3759 mt 2792 3831 L
2969 3854 mt 3041 3854 L
3005 3818 mt 3005 3890 L
2528 3753 mt 2600 3753 L
2564 3717 mt 2564 3789 L
3179 3662 mt 3251 3662 L
3215 3626 mt 3215 3698 L
3486 3948 mt 3558 3948 L
3522 3912 mt 3522 3984 L
2979 3958 mt 3051 3958 L
3015 3922 mt 3015 3994 L
2609 3408 mt 2681 3408 L
2645 3372 mt 2645 3444 L
2501 3938 mt 2573 3938 L
2537 3902 mt 2537 3974 L
2201 3347 mt 2273 3347 L
2237 3311 mt 2237 3383 L
3230 3503 mt 3302 3503 L
3266 3467 mt 3266 3539 L
2846 4056 mt 2918 4056 L
2882 4020 mt 2882 4092 L
2479 3961 mt 2551 3961 L
2515 3925 mt 2515 3997 L
2834 3854 mt 2906 3854 L
2870 3818 mt 2870 3890 L
2706 3377 mt 2778 3377 L
2742 3341 mt 2742 3413 L
2634 3611 mt 2684 3661 L
2684 3611 mt 2634 3661 L
3473 3959 mt 3523 4009 L
3523 3959 mt 3473 4009 L
2767 3770 mt 2817 3820 L
2817 3770 mt 2767 3820 L
2980 3829 mt 3030 3879 L
3030 3829 mt 2980 3879 L
2539 3728 mt 2589 3778 L
2589 3728 mt 2539 3778 L
3190 3637 mt 3240 3687 L
3240 3637 mt 3190 3687 L
3497 3923 mt 3547 3973 L
3547 3923 mt 3497 3973 L
2990 3933 mt 3040 3983 L
3040 3933 mt 2990 3983 L
2620 3383 mt 2670 3433 L
2670 3383 mt 2620 3433 L
2512 3913 mt 2562 3963 L
2562 3913 mt 2512 3963 L
2212 3322 mt 2262 3372 L
2262 3322 mt 2212 3372 L
3241 3478 mt 3291 3528 L
3291 3478 mt 3241 3528 L
2857 4031 mt 2907 4081 L
2907 4031 mt 2857 4081 L
2490 3936 mt 2540 3986 L
2540 3936 mt 2490 3986 L
2845 3829 mt 2895 3879 L
2895 3829 mt 2845 3879 L
2717 3352 mt 2767 3402 L
2767 3352 mt 2717 3402 L
gs 2138 2895 1751 1303 rc
gr

3675 3866 mt 3747 3866 L
3711 3830 mt 3711 3902 L
3686 3841 mt 3736 3891 L
3736 3841 mt 3686 3891 L
gs 2138 2895 1751 1303 rc
gr

1 sg
0 1302 1749 0 0 -1302 3888 4197 4 MP
PP
-1749 0 0 1302 1749 0 0 -1302 3888 4197 5 MP stroke
8 w
DO
SO
12 w
0 sg
3888 4197 mt 5637 4197 L
3888 2895 mt 5637 2895 L
3888 4197 mt 3888 2895 L
5637 4197 mt 5637 2895 L
3888 4197 mt 5637 4197 L
3888 4197 mt 3888 2895 L
3997 4197 mt 3997 4179 L
3997 2895 mt 3997 2912 L
4543 4197 mt 4543 4179 L
4543 2895 mt 4543 2912 L
5090 4197 mt 5090 4179 L
5090 2895 mt 5090 2912 L
3888 4197 mt 5637 4197 L
3888 2895 mt 5637 2895 L
3888 4197 mt 3888 2895 L
5637 4197 mt 5637 2895 L
gs 3888 2895 1750 1303 rc
gr

4477 3343 mt 4549 3343 L
4513 3307 mt 4513 3379 L
4912 3976 mt 4984 3976 L
4948 3940 mt 4948 4012 L
5216 4185 mt 5288 4185 L
5252 4149 mt 5252 4221 L
5130 3998 mt 5202 3998 L
5166 3962 mt 5166 4034 L
4778 3519 mt 4850 3519 L
4814 3483 mt 4814 3555 L
4683 3536 mt 4755 3536 L
4719 3500 mt 4719 3572 L
4754 3626 mt 4826 3626 L
4790 3590 mt 4790 3662 L
4488 3318 mt 4538 3368 L
4538 3318 mt 4488 3368 L
4923 3951 mt 4973 4001 L
4973 3951 mt 4923 4001 L
5227 4160 mt 5277 4210 L
5277 4160 mt 5227 4210 L
5141 3973 mt 5191 4023 L
5191 3973 mt 5141 4023 L
4789 3494 mt 4839 3544 L
4839 3494 mt 4789 3544 L
4694 3511 mt 4744 3561 L
4744 3511 mt 4694 3561 L
4765 3601 mt 4815 3651 L
4815 3601 mt 4765 3651 L
gs 3888 2895 1750 1303 rc
gr

4591 3636 mt 4663 3636 L
4627 3600 mt 4627 3672 L
4952 3984 mt 5024 3984 L
4988 3948 mt 4988 4020 L
4421 3795 mt 4493 3795 L
4457 3759 mt 4457 3831 L
4719 3854 mt 4791 3854 L
4755 3818 mt 4755 3890 L
4221 3753 mt 4293 3753 L
4257 3717 mt 4257 3789 L
5378 3662 mt 5450 3662 L
5414 3626 mt 5414 3698 L
4913 3948 mt 4985 3948 L
4949 3912 mt 4949 3984 L
4760 3958 mt 4832 3958 L
4796 3922 mt 4796 3994 L
4919 3408 mt 4991 3408 L
4955 3372 mt 4955 3444 L
4370 3938 mt 4442 3938 L
4406 3902 mt 4406 3974 L
4025 3347 mt 4097 3347 L
4061 3311 mt 4061 3383 L
4919 3503 mt 4991 3503 L
4955 3467 mt 4955 3539 L
5061 4056 mt 5133 4056 L
5097 4020 mt 5097 4092 L
4142 3961 mt 4214 3961 L
4178 3925 mt 4178 3997 L
4680 3854 mt 4752 3854 L
4716 3818 mt 4716 3890 L
4635 3377 mt 4707 3377 L
4671 3341 mt 4671 3413 L
4602 3611 mt 4652 3661 L
4652 3611 mt 4602 3661 L
4963 3959 mt 5013 4009 L
5013 3959 mt 4963 4009 L
4432 3770 mt 4482 3820 L
4482 3770 mt 4432 3820 L
4730 3829 mt 4780 3879 L
4780 3829 mt 4730 3879 L
4232 3728 mt 4282 3778 L
4282 3728 mt 4232 3778 L
5389 3637 mt 5439 3687 L
5439 3637 mt 5389 3687 L
4924 3923 mt 4974 3973 L
4974 3923 mt 4924 3973 L
4771 3933 mt 4821 3983 L
4821 3933 mt 4771 3983 L
4930 3383 mt 4980 3433 L
4980 3383 mt 4930 3433 L
4381 3913 mt 4431 3963 L
4431 3913 mt 4381 3963 L
4036 3322 mt 4086 3372 L
4086 3322 mt 4036 3372 L
4930 3478 mt 4980 3528 L
4980 3478 mt 4930 3528 L
5072 4031 mt 5122 4081 L
5122 4031 mt 5072 4081 L
4153 3936 mt 4203 3986 L
4203 3936 mt 4153 3986 L
4691 3829 mt 4741 3879 L
4741 3829 mt 4691 3879 L
4646 3352 mt 4696 3402 L
4696 3352 mt 4646 3402 L
gs 3888 2895 1750 1303 rc
gr

4916 3866 mt 4988 3866 L
4952 3830 mt 4952 3902 L
4927 3841 mt 4977 3891 L
4977 3841 mt 4927 3891 L
gs 3888 2895 1750 1303 rc
gr

1 sg
0 1303 1749 0 0 -1303 389 5500 4 MP
PP
-1749 0 0 1303 1749 0 0 -1303 389 5500 5 MP stroke
8 w
DO
SO
12 w
0 sg
 389 5500 mt 2138 5500 L
 389 4197 mt 2138 4197 L
 389 5500 mt  389 4197 L
2138 5500 mt 2138 4197 L
 389 5500 mt 2138 5500 L
 389 5500 mt  389 4197 L
 548 5500 mt  548 5482 L
 548 4197 mt  548 4214 L
 476 5663 mt 
(10) s
 945 5500 mt  945 5482 L
 945 4197 mt  945 4214 L
 873 5663 mt 
(15) s
1343 5500 mt 1343 5482 L
1343 4197 mt 1343 4214 L
1271 5663 mt 
(20) s
1740 5500 mt 1740 5482 L
1740 4197 mt 1740 4214 L
1668 5663 mt 
(25) s
 389 5239 mt  406 5239 L
2138 5239 mt 2120 5239 L
 282 5290 mt 
(0) s
 389 4978 mt  406 4978 L
2138 4978 mt 2120 4978 L
 102 5029 mt 
(0.05) s
 389 4718 mt  406 4718 L
2138 4718 mt 2120 4718 L
 174 4769 mt 
(0.1) s
 389 4457 mt  406 4457 L
2138 4457 mt 2120 4457 L
 102 4508 mt 
(0.15) s
 389 5500 mt 2138 5500 L
 389 4197 mt 2138 4197 L
 389 5500 mt  389 4197 L
2138 5500 mt 2138 4197 L
gs 389 4197 1750 1304 rc
gr

 798 5197 mt  870 5197 L
 834 5161 mt  834 5233 L
1041 5217 mt 1113 5217 L
1077 5181 mt 1077 5253 L
1130 5213 mt 1202 5213 L
1166 5177 mt 1166 5249 L
1126 5294 mt 1198 5294 L
1162 5258 mt 1162 5330 L
1136 5307 mt 1208 5307 L
1172 5271 mt 1172 5343 L
1067 5420 mt 1139 5420 L
1103 5384 mt 1103 5456 L
1034 5298 mt 1106 5298 L
1070 5262 mt 1070 5334 L
1619 5186 mt 1691 5186 L
1655 5150 mt 1655 5222 L
 809 5172 mt  859 5222 L
 859 5172 mt  809 5222 L
1052 5192 mt 1102 5242 L
1102 5192 mt 1052 5242 L
1141 5188 mt 1191 5238 L
1191 5188 mt 1141 5238 L
1137 5269 mt 1187 5319 L
1187 5269 mt 1137 5319 L
1147 5282 mt 1197 5332 L
1197 5282 mt 1147 5332 L
1078 5395 mt 1128 5445 L
1128 5395 mt 1078 5445 L
1045 5273 mt 1095 5323 L
1095 5273 mt 1045 5323 L
1630 5161 mt 1680 5211 L
1680 5161 mt 1630 5211 L
gs 389 4197 1750 1304 rc
gr

 684 5081 mt  756 5081 L
 720 5045 mt  720 5117 L
1067 5314 mt 1139 5314 L
1103 5278 mt 1103 5350 L
 549 4730 mt  621 4730 L
 585 4694 mt  585 4766 L
1283 5468 mt 1355 5468 L
1319 5432 mt 1319 5504 L
1530 5317 mt 1602 5317 L
1566 5281 mt 1566 5353 L
 931 4879 mt 1003 4879 L
 967 4843 mt  967 4915 L
1403 5304 mt 1475 5304 L
1439 5268 mt 1439 5340 L
 695 5056 mt  745 5106 L
 745 5056 mt  695 5106 L
1078 5289 mt 1128 5339 L
1128 5289 mt 1078 5339 L
 560 4705 mt  610 4755 L
 610 4705 mt  560 4755 L
1294 5443 mt 1344 5493 L
1344 5443 mt 1294 5493 L
1541 5292 mt 1591 5342 L
1591 5292 mt 1541 5342 L
 942 4854 mt  992 4904 L
 992 4854 mt  942 4904 L
1414 5279 mt 1464 5329 L
1464 5279 mt 1414 5329 L
gs 389 4197 1750 1304 rc
gr

 593 5391 mt  665 5391 L
 629 5355 mt  629 5427 L
1057 4728 mt 1129 4728 L
1093 4692 mt 1093 4764 L
1300 5168 mt 1372 5168 L
1336 5132 mt 1336 5204 L
 466 5333 mt  538 5333 L
 502 5297 mt  502 5369 L
 884 5264 mt  956 5264 L
 920 5228 mt  920 5300 L
 826 4914 mt  898 4914 L
 862 4878 mt  862 4950 L
 982 4633 mt 1054 4633 L
1018 4597 mt 1018 4669 L
2046 4732 mt 2118 4732 L
2082 4696 mt 2082 4768 L
 604 5366 mt  654 5416 L
 654 5366 mt  604 5416 L
1068 4703 mt 1118 4753 L
1118 4703 mt 1068 4753 L
1311 5143 mt 1361 5193 L
1361 5143 mt 1311 5193 L
 477 5308 mt  527 5358 L
 527 5308 mt  477 5358 L
 895 5239 mt  945 5289 L
 945 5239 mt  895 5289 L
 837 4889 mt  887 4939 L
 887 4889 mt  837 4939 L
 993 4608 mt 1043 4658 L
1043 4608 mt  993 4658 L
2057 4707 mt 2107 4757 L
2107 4707 mt 2057 4757 L
gs 389 4197 1750 1304 rc
gr

1 sg
0 1303 1750 0 0 -1303 2138 5500 4 MP
PP
-1750 0 0 1303 1750 0 0 -1303 2138 5500 5 MP stroke
8 w
DO
SO
12 w
0 sg
2138 5500 mt 3888 5500 L
2138 4197 mt 3888 4197 L
2138 5500 mt 2138 4197 L
3888 5500 mt 3888 4197 L
2138 5500 mt 3888 5500 L
2138 5500 mt 2138 4197 L
2247 5500 mt 2247 5482 L
2247 4197 mt 2247 4214 L
2211 5663 mt 
(5) s
2794 5500 mt 2794 5482 L
2794 4197 mt 2794 4214 L
2722 5663 mt 
(10) s
3341 5500 mt 3341 5482 L
3341 4197 mt 3341 4214 L
3269 5663 mt 
(15) s
2138 5239 mt 2155 5239 L
3888 5239 mt 3870 5239 L
2138 4978 mt 2155 4978 L
3888 4978 mt 3870 4978 L
2138 4718 mt 2155 4718 L
3888 4718 mt 3870 4718 L
2138 4457 mt 2155 4457 L
3888 4457 mt 3870 4457 L
2138 5500 mt 3888 5500 L
2138 4197 mt 3888 4197 L
2138 5500 mt 2138 4197 L
3888 5500 mt 3888 4197 L
gs 2138 4197 1751 1304 rc
gr

2810 5197 mt 2882 5197 L
2846 5161 mt 2846 5233 L
3079 5217 mt 3151 5217 L
3115 5181 mt 3115 5253 L
3440 5213 mt 3512 5213 L
3476 5177 mt 3476 5249 L
3146 5294 mt 3218 5294 L
3182 5258 mt 3182 5330 L
3132 5307 mt 3204 5307 L
3168 5271 mt 3168 5343 L
2737 5420 mt 2809 5420 L
2773 5384 mt 2773 5456 L
2868 5298 mt 2940 5298 L
2904 5262 mt 2904 5334 L
2344 5186 mt 2416 5186 L
2380 5150 mt 2380 5222 L
2821 5172 mt 2871 5222 L
2871 5172 mt 2821 5222 L
3090 5192 mt 3140 5242 L
3140 5192 mt 3090 5242 L
3451 5188 mt 3501 5238 L
3501 5188 mt 3451 5238 L
3157 5269 mt 3207 5319 L
3207 5269 mt 3157 5319 L
3143 5282 mt 3193 5332 L
3193 5282 mt 3143 5332 L
2748 5395 mt 2798 5445 L
2798 5395 mt 2748 5445 L
2879 5273 mt 2929 5323 L
2929 5273 mt 2879 5323 L
2355 5161 mt 2405 5211 L
2405 5161 mt 2355 5211 L
gs 2138 4197 1751 1304 rc
gr

2756 5081 mt 2828 5081 L
2792 5045 mt 2792 5117 L
2969 5314 mt 3041 5314 L
3005 5278 mt 3005 5350 L
2528 4730 mt 2600 4730 L
2564 4694 mt 2564 4766 L
3179 5468 mt 3251 5468 L
3215 5432 mt 3215 5504 L
3486 5317 mt 3558 5317 L
3522 5281 mt 3522 5353 L
2979 4879 mt 3051 4879 L
3015 4843 mt 3015 4915 L
2609 5304 mt 2681 5304 L
2645 5268 mt 2645 5340 L
2767 5056 mt 2817 5106 L
2817 5056 mt 2767 5106 L
2980 5289 mt 3030 5339 L
3030 5289 mt 2980 5339 L
2539 4705 mt 2589 4755 L
2589 4705 mt 2539 4755 L
3190 5443 mt 3240 5493 L
3240 5443 mt 3190 5493 L
3497 5292 mt 3547 5342 L
3547 5292 mt 3497 5342 L
2990 4854 mt 3040 4904 L
3040 4854 mt 2990 4904 L
2620 5279 mt 2670 5329 L
2670 5279 mt 2620 5329 L
gs 2138 4197 1751 1304 rc
gr

2201 5391 mt 2273 5391 L
2237 5355 mt 2237 5427 L
3230 4728 mt 3302 4728 L
3266 4692 mt 3266 4764 L
2846 5168 mt 2918 5168 L
2882 5132 mt 2882 5204 L
2479 5333 mt 2551 5333 L
2515 5297 mt 2515 5369 L
2834 5264 mt 2906 5264 L
2870 5228 mt 2870 5300 L
2706 4914 mt 2778 4914 L
2742 4878 mt 2742 4950 L
3020 4633 mt 3092 4633 L
3056 4597 mt 3056 4669 L
3675 4732 mt 3747 4732 L
3711 4696 mt 3711 4768 L
2212 5366 mt 2262 5416 L
2262 5366 mt 2212 5416 L
3241 4703 mt 3291 4753 L
3291 4703 mt 3241 4753 L
2857 5143 mt 2907 5193 L
2907 5143 mt 2857 5193 L
2490 5308 mt 2540 5358 L
2540 5308 mt 2490 5358 L
2845 5239 mt 2895 5289 L
2895 5239 mt 2845 5289 L
2717 4889 mt 2767 4939 L
2767 4889 mt 2717 4939 L
3031 4608 mt 3081 4658 L
3081 4608 mt 3031 4658 L
3686 4707 mt 3736 4757 L
3736 4707 mt 3686 4757 L
gs 2138 4197 1751 1304 rc
gr

1 sg
0 1303 1749 0 0 -1303 3888 5500 4 MP
PP
-1749 0 0 1303 1749 0 0 -1303 3888 5500 5 MP stroke
8 w
DO
SO
12 w
0 sg
3888 5500 mt 5637 5500 L
3888 4197 mt 5637 4197 L
3888 5500 mt 3888 4197 L
5637 5500 mt 5637 4197 L
3888 5500 mt 5637 5500 L
3888 5500 mt 3888 4197 L
3997 5500 mt 3997 5482 L
3997 4197 mt 3997 4214 L
3961 5663 mt 
(5) s
4543 5500 mt 4543 5482 L
4543 4197 mt 4543 4214 L
4471 5663 mt 
(10) s
5090 5500 mt 5090 5482 L
5090 4197 mt 5090 4214 L
5018 5663 mt 
(15) s
3888 5239 mt 3905 5239 L
5637 5239 mt 5619 5239 L
3888 4978 mt 3905 4978 L
5637 4978 mt 5619 4978 L
3888 4718 mt 3905 4718 L
5637 4718 mt 5619 4718 L
3888 4457 mt 3905 4457 L
5637 4457 mt 5619 4457 L
3888 5500 mt 5637 5500 L
3888 4197 mt 5637 4197 L
3888 5500 mt 3888 4197 L
5637 5500 mt 5637 4197 L
gs 3888 4197 1750 1304 rc
gr

4477 5197 mt 4549 5197 L
4513 5161 mt 4513 5233 L
4912 5217 mt 4984 5217 L
4948 5181 mt 4948 5253 L
5216 5213 mt 5288 5213 L
5252 5177 mt 5252 5249 L
5130 5294 mt 5202 5294 L
5166 5258 mt 5166 5330 L
4778 5307 mt 4850 5307 L
4814 5271 mt 4814 5343 L
4683 5420 mt 4755 5420 L
4719 5384 mt 4719 5456 L
4754 5298 mt 4826 5298 L
4790 5262 mt 4790 5334 L
4574 5186 mt 4646 5186 L
4610 5150 mt 4610 5222 L
4488 5172 mt 4538 5222 L
4538 5172 mt 4488 5222 L
4923 5192 mt 4973 5242 L
4973 5192 mt 4923 5242 L
5227 5188 mt 5277 5238 L
5277 5188 mt 5227 5238 L
5141 5269 mt 5191 5319 L
5191 5269 mt 5141 5319 L
4789 5282 mt 4839 5332 L
4839 5282 mt 4789 5332 L
4694 5395 mt 4744 5445 L
4744 5395 mt 4694 5445 L
4765 5273 mt 4815 5323 L
4815 5273 mt 4765 5323 L
4585 5161 mt 4635 5211 L
4635 5161 mt 4585 5211 L
gs 3888 4197 1750 1304 rc
gr

4421 5081 mt 4493 5081 L
4457 5045 mt 4457 5117 L
4719 5314 mt 4791 5314 L
4755 5278 mt 4755 5350 L
4221 4730 mt 4293 4730 L
4257 4694 mt 4257 4766 L
5378 5468 mt 5450 5468 L
5414 5432 mt 5414 5504 L
4913 5317 mt 4985 5317 L
4949 5281 mt 4949 5353 L
4760 4879 mt 4832 4879 L
4796 4843 mt 4796 4915 L
4919 5304 mt 4991 5304 L
4955 5268 mt 4955 5340 L
4432 5056 mt 4482 5106 L
4482 5056 mt 4432 5106 L
4730 5289 mt 4780 5339 L
4780 5289 mt 4730 5339 L
4232 4705 mt 4282 4755 L
4282 4705 mt 4232 4755 L
5389 5443 mt 5439 5493 L
5439 5443 mt 5389 5493 L
4924 5292 mt 4974 5342 L
4974 5292 mt 4924 5342 L
4771 4854 mt 4821 4904 L
4821 4854 mt 4771 4904 L
4930 5279 mt 4980 5329 L
4980 5279 mt 4930 5329 L
gs 3888 4197 1750 1304 rc
gr

4025 5391 mt 4097 5391 L
4061 5355 mt 4061 5427 L
4919 4728 mt 4991 4728 L
4955 4692 mt 4955 4764 L
5061 5168 mt 5133 5168 L
5097 5132 mt 5097 5204 L
4142 5333 mt 4214 5333 L
4178 5297 mt 4178 5369 L
4680 5264 mt 4752 5264 L
4716 5228 mt 4716 5300 L
4635 4914 mt 4707 4914 L
4671 4878 mt 4671 4950 L
4881 4633 mt 4953 4633 L
4917 4597 mt 4917 4669 L
4916 4732 mt 4988 4732 L
4952 4696 mt 4952 4768 L
4036 5366 mt 4086 5416 L
4086 5366 mt 4036 5416 L
4930 4703 mt 4980 4753 L
4980 4703 mt 4930 4753 L
5072 5143 mt 5122 5193 L
5122 5143 mt 5072 5193 L
4153 5308 mt 4203 5358 L
4203 5308 mt 4153 5358 L
4691 5239 mt 4741 5289 L
4741 5239 mt 4691 5289 L
4646 4889 mt 4696 4939 L
4696 4889 mt 4646 4939 L
4892 4608 mt 4942 4658 L
4942 4608 mt 4892 4658 L
4927 4707 mt 4977 4757 L
4977 4707 mt 4927 4757 L
gs 3888 4197 1750 1304 rc
gr

1 sg
0 1303 1749 0 0 -1303 5637 5500 4 MP
PP
-1749 0 0 1303 1749 0 0 -1303 5637 5500 5 MP stroke
8 w
DO
SO
12 w
0 sg
5637 5500 mt 7386 5500 L
5637 4197 mt 7386 4197 L
5637 5500 mt 5637 4197 L
7386 5500 mt 7386 4197 L
5637 5500 mt 7386 5500 L
5637 5500 mt 5637 4197 L
5986 5500 mt 5986 5482 L
5986 4197 mt 5986 4214 L
5950 5663 mt 
(0) s
6336 5500 mt 6336 5482 L
6336 4197 mt 6336 4214 L
6210 5663 mt 
(0.05) s
6686 5500 mt 6686 5482 L
6686 4197 mt 6686 4214 L
6596 5663 mt 
(0.1) s
7036 5500 mt 7036 5482 L
7036 4197 mt 7036 4214 L
6910 5663 mt 
(0.15) s
5637 5239 mt 5654 5239 L
7386 5239 mt 7368 5239 L
5637 4978 mt 5654 4978 L
7386 4978 mt 7368 4978 L
5637 4718 mt 5654 4718 L
7386 4718 mt 7368 4718 L
5637 4457 mt 5654 4457 L
7386 4457 mt 7368 4457 L
5637 5500 mt 7386 5500 L
5637 4197 mt 7386 4197 L
5637 5500 mt 5637 4197 L
7386 5500 mt 7386 4197 L
gs 5637 4197 1750 1304 rc
gr

6747 5197 mt 6819 5197 L
6783 5161 mt 6783 5233 L
5896 5217 mt 5968 5217 L
5932 5181 mt 5932 5253 L
5616 5213 mt 5688 5213 L
5652 5177 mt 5652 5249 L
5867 5294 mt 5939 5294 L
5903 5258 mt 5903 5330 L
6511 5307 mt 6583 5307 L
6547 5271 mt 6547 5343 L
6488 5420 mt 6560 5420 L
6524 5384 mt 6524 5456 L
6367 5298 mt 6439 5298 L
6403 5262 mt 6403 5334 L
6758 5172 mt 6808 5222 L
6808 5172 mt 6758 5222 L
5907 5192 mt 5957 5242 L
5957 5192 mt 5907 5242 L
5627 5188 mt 5677 5238 L
5677 5188 mt 5627 5238 L
5878 5269 mt 5928 5319 L
5928 5269 mt 5878 5319 L
6522 5282 mt 6572 5332 L
6572 5282 mt 6522 5332 L
6499 5395 mt 6549 5445 L
6549 5395 mt 6499 5445 L
6378 5273 mt 6428 5323 L
6428 5273 mt 6378 5323 L
gs 5637 4197 1750 1304 rc
gr

gs 5637 4197 1750 1304 rc
gr

6140 5081 mt 6212 5081 L
6176 5045 mt 6176 5117 L
6061 5314 mt 6133 5314 L
6097 5278 mt 6097 5350 L
6196 4730 mt 6268 4730 L
6232 4694 mt 6232 4766 L
6319 5468 mt 6391 5468 L
6355 5432 mt 6355 5504 L
5934 5317 mt 6006 5317 L
5970 5281 mt 5970 5353 L
5921 4879 mt 5993 4879 L
5957 4843 mt 5957 4915 L
6659 5304 mt 6731 5304 L
6695 5268 mt 6695 5340 L
6151 5056 mt 6201 5106 L
6201 5056 mt 6151 5106 L
6072 5289 mt 6122 5339 L
6122 5289 mt 6072 5339 L
6207 4705 mt 6257 4755 L
6257 4705 mt 6207 4755 L
6330 5443 mt 6380 5493 L
6380 5443 mt 6330 5493 L
5945 5292 mt 5995 5342 L
5995 5292 mt 5945 5342 L
5932 4854 mt 5982 4904 L
5982 4854 mt 5932 4904 L
6670 5279 mt 6720 5329 L
6720 5279 mt 6670 5329 L
gs 5637 4197 1750 1304 rc
gr

6741 5391 mt 6813 5391 L
6777 5355 mt 6777 5427 L
6532 4728 mt 6604 4728 L
6568 4692 mt 6568 4764 L
5789 5168 mt 5861 5168 L
5825 5132 mt 5825 5204 L
5917 5333 mt 5989 5333 L
5953 5297 mt 5953 5369 L
6061 5264 mt 6133 5264 L
6097 5228 mt 6097 5300 L
6701 4914 mt 6773 4914 L
6737 4878 mt 6737 4950 L
6752 5366 mt 6802 5416 L
6802 5366 mt 6752 5416 L
6543 4703 mt 6593 4753 L
6593 4703 mt 6543 4753 L
5800 5143 mt 5850 5193 L
5850 5143 mt 5800 5193 L
5928 5308 mt 5978 5358 L
5978 5308 mt 5928 5358 L
6072 5239 mt 6122 5289 L
6122 5239 mt 6072 5289 L
6712 4889 mt 6762 4939 L
6762 4889 mt 6712 4939 L
gs 5637 4197 1750 1304 rc
gr

6044 4732 mt 6116 4732 L
6080 4696 mt 6080 4768 L
6055 4707 mt 6105 4757 L
6105 4707 mt 6055 4757 L
gs 5637 4197 1750 1304 rc
gr


end %%Color Dict

eplot
%%EndObject

epage
end

showpage

%%Trailer
%%EOF
