%!PS-Adobe-3.0 EPSF-3.0
%%Creator: MATLAB, The MathWorks, Inc. Version 7.14.0.739 (R2012a). Operating System: Darwin 12.2.1 Darwin Kernel Version 12.2.1: Thu Oct 18 16:32:48 PDT 2012; root:xnu-2050.20.9~2/RELEASE_X86_64 x86_64.
%%Title: /Users/ajoshi/git_sandbox/svreg-matlab/bin/MeanHist.eps
%%CreationDate: 12/16/2012  21:37:37
%%DocumentNeededFonts: Helvetica
%%DocumentProcessColors: Cyan Magenta Yellow Black
%%LanguageLevel: 2
%%Pages: 1
%%BoundingBox:  -413    23  1026   768
%%EndComments

%%BeginProlog
% MathWorks dictionary
/MathWorks 160 dict begin
% definition operators
/bdef {bind def} bind def
/ldef {load def} bind def
/xdef {exch def} bdef
/xstore {exch store} bdef
% operator abbreviations
/c  /clip ldef
/cc /concat ldef
/cp /closepath ldef
/gr /grestore ldef
/gs /gsave ldef
/mt /moveto ldef
/np /newpath ldef
/cm /currentmatrix ldef
/sm /setmatrix ldef
/rm /rmoveto ldef
/rl /rlineto ldef
/s {show newpath} bdef
/sc {setcmykcolor} bdef
/sr /setrgbcolor ldef
/sg /setgray ldef
/w /setlinewidth ldef
/j /setlinejoin ldef
/cap /setlinecap ldef
/rc {rectclip} bdef
/rf {rectfill} bdef
% page state control
/pgsv () def
/bpage {/pgsv save def} bdef
/epage {pgsv restore} bdef
/bplot /gsave ldef
/eplot {stroke grestore} bdef
% orientation switch
/portraitMode 0 def /landscapeMode 1 def /rotateMode 2 def
% coordinate system mappings
/dpi2point 0 def
% font control
/FontSize 0 def
/FMS {/FontSize xstore findfont [FontSize 0 0 FontSize neg 0 0]
  makefont setfont} bdef
/reencode {exch dup where {pop load} {pop StandardEncoding} ifelse
  exch dup 3 1 roll findfont dup length dict begin
  { 1 index /FID ne {def}{pop pop} ifelse } forall
  /Encoding exch def currentdict end definefont pop} bdef
/isroman {findfont /CharStrings get /Agrave known} bdef
/FMSR {3 1 roll 1 index dup isroman {reencode} {pop pop} ifelse
  exch FMS} bdef
/csm {1 dpi2point div -1 dpi2point div scale neg translate
 dup landscapeMode eq {pop -90 rotate}
  {rotateMode eq {90 rotate} if} ifelse} bdef
% line types: solid, dotted, dashed, dotdash
/SO { [] 0 setdash } bdef
/DO { [.5 dpi2point mul 4 dpi2point mul] 0 setdash } bdef
/DA { [6 dpi2point mul] 0 setdash } bdef
/DD { [.5 dpi2point mul 4 dpi2point mul 6 dpi2point mul 4
  dpi2point mul] 0 setdash } bdef
% macros for lines and objects
/L {lineto stroke} bdef
/MP {3 1 roll moveto 1 sub {rlineto} repeat} bdef
/AP {{rlineto} repeat} bdef
/PDlw -1 def
/W {/PDlw currentlinewidth def setlinewidth} def
/PP {closepath eofill} bdef
/DP {closepath stroke} bdef
/MR {4 -2 roll moveto dup  0 exch rlineto exch 0 rlineto
  neg 0 exch rlineto closepath} bdef
/FR {MR stroke} bdef
/PR {MR fill} bdef
/L1i {{currentfile picstr readhexstring pop} image} bdef
/tMatrix matrix def
/MakeOval {newpath tMatrix currentmatrix pop translate scale
0 0 1 0 360 arc tMatrix setmatrix} bdef
/FO {MakeOval stroke} bdef
/PO {MakeOval fill} bdef
/PD {currentlinewidth 2 div 0 360 arc fill
   PDlw -1 eq not {PDlw w /PDlw -1 def} if} def
/FA {newpath tMatrix currentmatrix pop translate scale
  0 0 1 5 -2 roll arc tMatrix setmatrix stroke} bdef
/PA {newpath tMatrix currentmatrix pop	translate 0 0 moveto scale
  0 0 1 5 -2 roll arc closepath tMatrix setmatrix fill} bdef
/FAn {newpath tMatrix currentmatrix pop translate scale
  0 0 1 5 -2 roll arcn tMatrix setmatrix stroke} bdef
/PAn {newpath tMatrix currentmatrix pop translate 0 0 moveto scale
  0 0 1 5 -2 roll arcn closepath tMatrix setmatrix fill} bdef
/vradius 0 def /hradius 0 def /lry 0 def
/lrx 0 def /uly 0 def /ulx 0 def /rad 0 def
/MRR {/vradius xdef /hradius xdef /lry xdef /lrx xdef /uly xdef
  /ulx xdef newpath tMatrix currentmatrix pop ulx hradius add uly
  vradius add translate hradius vradius scale 0 0 1 180 270 arc 
  tMatrix setmatrix lrx hradius sub uly vradius add translate
  hradius vradius scale 0 0 1 270 360 arc tMatrix setmatrix
  lrx hradius sub lry vradius sub translate hradius vradius scale
  0 0 1 0 90 arc tMatrix setmatrix ulx hradius add lry vradius sub
  translate hradius vradius scale 0 0 1 90 180 arc tMatrix setmatrix
  closepath} bdef
/FRR {MRR stroke } bdef
/PRR {MRR fill } bdef
/MlrRR {/lry xdef /lrx xdef /uly xdef /ulx xdef /rad lry uly sub 2 div def
  newpath tMatrix currentmatrix pop ulx rad add uly rad add translate
  rad rad scale 0 0 1 90 270 arc tMatrix setmatrix lrx rad sub lry rad
  sub translate rad rad scale 0 0 1 270 90 arc tMatrix setmatrix
  closepath} bdef
/FlrRR {MlrRR stroke } bdef
/PlrRR {MlrRR fill } bdef
/MtbRR {/lry xdef /lrx xdef /uly xdef /ulx xdef /rad lrx ulx sub 2 div def
  newpath tMatrix currentmatrix pop ulx rad add uly rad add translate
  rad rad scale 0 0 1 180 360 arc tMatrix setmatrix lrx rad sub lry rad
  sub translate rad rad scale 0 0 1 0 180 arc tMatrix setmatrix
  closepath} bdef
/FtbRR {MtbRR stroke } bdef
/PtbRR {MtbRR fill } bdef
/stri 6 array def /dtri 6 array def
/smat 6 array def /dmat 6 array def
/tmat1 6 array def /tmat2 6 array def /dif 3 array def
/asub {/ind2 exch def /ind1 exch def dup dup
  ind1 get exch ind2 get sub exch } bdef
/tri_to_matrix {
  2 0 asub 3 1 asub 4 0 asub 5 1 asub
  dup 0 get exch 1 get 7 -1 roll astore } bdef
/compute_transform {
  dmat dtri tri_to_matrix tmat1 invertmatrix 
  smat stri tri_to_matrix tmat2 concatmatrix } bdef
/ds {stri astore pop} bdef
/dt {dtri astore pop} bdef
/db {2 copy /cols xdef /rows xdef mul dup 3 mul string
  currentfile 
  3 index 0 eq {/ASCIIHexDecode filter}
  {/ASCII85Decode filter 3 index 2 eq {/RunLengthDecode filter} if }
  ifelse exch readstring pop
  dup 0 3 index getinterval /rbmap xdef
  dup 2 index dup getinterval /gbmap xdef
  1 index dup 2 mul exch getinterval /bbmap xdef pop pop}bdef
/it {gs np dtri aload pop moveto lineto lineto cp c
  cols rows 8 compute_transform 
  rbmap gbmap bbmap true 3 colorimage gr}bdef
/il {newpath moveto lineto stroke}bdef
currentdict end def
%%EndProlog

%%BeginSetup
MathWorks begin

0 cap

end
%%EndSetup

%%Page: 1 1
%%BeginPageSetup
%%PageBoundingBox:  -413    23  1026   768
MathWorks begin
bpage
%%EndPageSetup

%%BeginObject: obj1
bplot

/dpi2point 12 def
portraitMode -4956 9216 csm

    0     0 17279  8929 rc
85 dict begin %Colortable dictionary
/c0 { 0.000000 0.000000 0.000000 sr} bdef
/c1 { 1.000000 1.000000 1.000000 sr} bdef
/c2 { 0.900000 0.000000 0.000000 sr} bdef
/c3 { 0.000000 0.820000 0.000000 sr} bdef
/c4 { 0.000000 0.000000 0.800000 sr} bdef
/c5 { 0.910000 0.820000 0.320000 sr} bdef
/c6 { 1.000000 0.260000 0.820000 sr} bdef
/c7 { 0.000000 0.820000 0.820000 sr} bdef
c0
1 j
1 sg
   0    0 17280 8930 rf
6 w
0 7201 13391 0 0 -7201 2246 7947 4 MP
PP
-13391 0 0 7201 13391 0 0 -7201 2246 7947 5 MP stroke
4 w
DO
SO
6 w
0 sg
2246 7947 mt 15637 7947 L
2246  746 mt 15637  746 L
2246 7947 mt 2246  746 L
15637 7947 mt 15637  746 L
2246 7947 mt 15637 7947 L
2246 7947 mt 2246  746 L
2246 7947 mt 2246 7813 L
2246  746 mt 2246  880 L
%%IncludeResource: font Helvetica
/Helvetica /ISOLatin1Encoding 432 FMSR

2126 8383 mt 
(0) s
4924 7947 mt 4924 7813 L
4924  746 mt 4924  880 L
4624 8383 mt 
(0.1) s
7602 7947 mt 7602 7813 L
7602  746 mt 7602  880 L
7302 8383 mt 
(0.2) s
10280 7947 mt 10280 7813 L
10280  746 mt 10280  880 L
9980 8383 mt 
(0.3) s
12958 7947 mt 12958 7813 L
12958  746 mt 12958  880 L
12658 8383 mt 
(0.4) s
15637 7947 mt 15637 7813 L
15637  746 mt 15637  880 L
15337 8383 mt 
(0.5) s
2246 7947 mt 2379 7947 L
15637 7947 mt 15503 7947 L
1971 8107 mt 
(0) s
2246 6507 mt 2379 6507 L
15637 6507 mt 15503 6507 L
1251 6667 mt 
(1000) s
2246 5067 mt 2379 5067 L
15637 5067 mt 15503 5067 L
1251 5227 mt 
(2000) s
2246 3627 mt 2379 3627 L
15637 3627 mt 15503 3627 L
1251 3787 mt 
(3000) s
2246 2186 mt 2379 2186 L
15637 2186 mt 15503 2186 L
1251 2346 mt 
(4000) s
2246  746 mt 2379  746 L
15637  746 mt 15503  746 L
1251  906 mt 
(5000) s
2246 7947 mt 15637 7947 L
2246  746 mt 15637  746 L
2246 7947 mt 2246  746 L
15637 7947 mt 15637  746 L
gs 2246 747 13392 7201 rc
/c8 { 0.000000 0.000000 0.562500 sr} bdef
c8
0 156 133 0 0 -156 2281 7947 4 MP
PP
0 sg
-133 0 0 156 133 0 0 -156 2281 7947 5 MP stroke
c8
0 628 134 0 0 -628 2414 7947 4 MP
PP
0 sg
-134 0 0 628 134 0 0 -628 2414 7947 5 MP stroke
c8
0 1296 133 0 0 -1296 2548 7947 4 MP
PP
0 sg
-133 0 0 1296 133 0 0 -1296 2548 7947 5 MP stroke
c8
0 2276 134 0 0 -2276 2681 7947 4 MP
PP
0 sg
-134 0 0 2276 134 0 0 -2276 2681 7947 5 MP stroke
c8
0 2814 134 0 0 -2814 2815 7947 4 MP
PP
0 sg
-134 0 0 2814 134 0 0 -2814 2815 7947 5 MP stroke
c8
0 3490 133 0 0 -3490 2949 7947 4 MP
PP
0 sg
-133 0 0 3490 133 0 0 -3490 2949 7947 5 MP stroke
c8
0 4453 134 0 0 -4453 3082 7947 4 MP
PP
0 sg
-134 0 0 4453 134 0 0 -4453 3082 7947 5 MP stroke
c8
0 4728 133 0 0 -4728 3216 7947 4 MP
PP
0 sg
-133 0 0 4728 133 0 0 -4728 3216 7947 5 MP stroke
c8
0 5079 134 0 0 -5079 3349 7947 4 MP
PP
0 sg
-134 0 0 5079 134 0 0 -5079 3349 7947 5 MP stroke
c8
0 5402 133 0 0 -5402 3483 7947 4 MP
PP
0 sg
-133 0 0 5402 133 0 0 -5402 3483 7947 5 MP stroke
c8
0 5624 134 0 0 -5624 3616 7947 4 MP
PP
0 sg
-134 0 0 5624 134 0 0 -5624 3616 7947 5 MP stroke
c8
0 5713 133 0 0 -5713 3750 7947 4 MP
PP
0 sg
-133 0 0 5713 133 0 0 -5713 3750 7947 5 MP stroke
c8
0 5797 134 0 0 -5797 3883 7947 4 MP
PP
0 sg
-134 0 0 5797 134 0 0 -5797 3883 7947 5 MP stroke
c8
0 5894 133 0 0 -5894 4017 7947 4 MP
PP
0 sg
-133 0 0 5894 133 0 0 -5894 4017 7947 5 MP stroke
c8
0 6040 134 0 0 -6040 4150 7947 4 MP
PP
0 sg
-134 0 0 6040 134 0 0 -6040 4150 7947 5 MP stroke
c8
0 5768 134 0 0 -5768 4284 7947 4 MP
PP
0 sg
-134 0 0 5768 134 0 0 -5768 4284 7947 5 MP stroke
c8
0 5814 133 0 0 -5814 4418 7947 4 MP
PP
0 sg
-133 0 0 5814 133 0 0 -5814 4418 7947 5 MP stroke
c8
0 5723 134 0 0 -5723 4551 7947 4 MP
PP
0 sg
-134 0 0 5723 134 0 0 -5723 4551 7947 5 MP stroke
c8
0 5570 133 0 0 -5570 4685 7947 4 MP
PP
0 sg
-133 0 0 5570 133 0 0 -5570 4685 7947 5 MP stroke
c8
0 5473 134 0 0 -5473 4818 7947 4 MP
PP
0 sg
-134 0 0 5473 134 0 0 -5473 4818 7947 5 MP stroke
c8
0 5189 133 0 0 -5189 4952 7947 4 MP
PP
0 sg
-133 0 0 5189 133 0 0 -5189 4952 7947 5 MP stroke
c8
0 5097 134 0 0 -5097 5085 7947 4 MP
PP
0 sg
-134 0 0 5097 134 0 0 -5097 5085 7947 5 MP stroke
c8
0 4859 133 0 0 -4859 5219 7947 4 MP
PP
0 sg
-133 0 0 4859 133 0 0 -4859 5219 7947 5 MP stroke
c8
0 4861 134 0 0 -4861 5352 7947 4 MP
PP
0 sg
-134 0 0 4861 134 0 0 -4861 5352 7947 5 MP stroke
c8
0 4727 133 0 0 -4727 5486 7947 4 MP
PP
0 sg
-133 0 0 4727 133 0 0 -4727 5486 7947 5 MP stroke
c8
0 4597 134 0 0 -4597 5619 7947 4 MP
PP
0 sg
-134 0 0 4597 134 0 0 -4597 5619 7947 5 MP stroke
c8
0 4659 134 0 0 -4659 5753 7947 4 MP
PP
0 sg
-134 0 0 4659 134 0 0 -4659 5753 7947 5 MP stroke
c8
0 4259 133 0 0 -4259 5887 7947 4 MP
PP
0 sg
-133 0 0 4259 133 0 0 -4259 5887 7947 5 MP stroke
c8
0 4185 134 0 0 -4185 6020 7947 4 MP
PP
0 sg
-134 0 0 4185 134 0 0 -4185 6020 7947 5 MP stroke
c8
0 4014 133 0 0 -4014 6154 7947 4 MP
PP
0 sg
-133 0 0 4014 133 0 0 -4014 6154 7947 5 MP stroke
c8
0 3765 134 0 0 -3765 6287 7947 4 MP
PP
0 sg
-134 0 0 3765 134 0 0 -3765 6287 7947 5 MP stroke
c8
0 3668 133 0 0 -3668 6421 7947 4 MP
PP
0 sg
-133 0 0 3668 133 0 0 -3668 6421 7947 5 MP stroke
c8
0 3624 134 0 0 -3624 6554 7947 4 MP
PP
0 sg
-134 0 0 3624 134 0 0 -3624 6554 7947 5 MP stroke
c8
0 3418 133 0 0 -3418 6688 7947 4 MP
PP
0 sg
-133 0 0 3418 133 0 0 -3418 6688 7947 5 MP stroke
c8
0 3410 134 0 0 -3410 6821 7947 4 MP
PP
0 sg
-134 0 0 3410 134 0 0 -3410 6821 7947 5 MP stroke
c8
0 3084 133 0 0 -3084 6955 7947 4 MP
PP
0 sg
-133 0 0 3084 133 0 0 -3084 6955 7947 5 MP stroke
c8
0 3026 134 0 0 -3026 7088 7947 4 MP
PP
0 sg
-134 0 0 3026 134 0 0 -3026 7088 7947 5 MP stroke
c8
0 2915 134 0 0 -2915 7222 7947 4 MP
PP
0 sg
-134 0 0 2915 134 0 0 -2915 7222 7947 5 MP stroke
c8
0 2639 133 0 0 -2639 7356 7947 4 MP
PP
0 sg
-133 0 0 2639 133 0 0 -2639 7356 7947 5 MP stroke
c8
0 2614 134 0 0 -2614 7489 7947 4 MP
PP
0 sg
-134 0 0 2614 134 0 0 -2614 7489 7947 5 MP stroke
c8
0 2446 133 0 0 -2446 7623 7947 4 MP
PP
0 sg
-133 0 0 2446 133 0 0 -2446 7623 7947 5 MP stroke
c8
0 2309 134 0 0 -2309 7756 7947 4 MP
PP
0 sg
-134 0 0 2309 134 0 0 -2309 7756 7947 5 MP stroke
c8
0 2310 133 0 0 -2310 7890 7947 4 MP
PP
0 sg
-133 0 0 2310 133 0 0 -2310 7890 7947 5 MP stroke
c8
0 2145 134 0 0 -2145 8023 7947 4 MP
PP
0 sg
-134 0 0 2145 134 0 0 -2145 8023 7947 5 MP stroke
c8
0 2107 133 0 0 -2107 8157 7947 4 MP
PP
0 sg
-133 0 0 2107 133 0 0 -2107 8157 7947 5 MP stroke
c8
0 1870 134 0 0 -1870 8290 7947 4 MP
PP
0 sg
-134 0 0 1870 134 0 0 -1870 8290 7947 5 MP stroke
c8
0 1858 133 0 0 -1858 8424 7947 4 MP
PP
0 sg
-133 0 0 1858 133 0 0 -1858 8424 7947 5 MP stroke
c8
0 1743 134 0 0 -1743 8557 7947 4 MP
PP
0 sg
-134 0 0 1743 134 0 0 -1743 8557 7947 5 MP stroke
c8
0 1737 133 0 0 -1737 8691 7947 4 MP
PP
0 sg
-133 0 0 1737 133 0 0 -1737 8691 7947 5 MP stroke
c8
0 1556 134 0 0 -1556 8824 7947 4 MP
PP
0 sg
-134 0 0 1556 134 0 0 -1556 8824 7947 5 MP stroke
c8
0 1671 134 0 0 -1671 8958 7947 4 MP
PP
0 sg
-134 0 0 1671 134 0 0 -1671 8958 7947 5 MP stroke
c8
0 1417 133 0 0 -1417 9092 7947 4 MP
PP
0 sg
-133 0 0 1417 133 0 0 -1417 9092 7947 5 MP stroke
c8
0 1389 134 0 0 -1389 9225 7947 4 MP
PP
0 sg
-134 0 0 1389 134 0 0 -1389 9225 7947 5 MP stroke
c8
0 1320 133 0 0 -1320 9359 7947 4 MP
PP
0 sg
-133 0 0 1320 133 0 0 -1320 9359 7947 5 MP stroke
c8
0 1278 134 0 0 -1278 9492 7947 4 MP
PP
0 sg
-134 0 0 1278 134 0 0 -1278 9492 7947 5 MP stroke
c8
0 1223 133 0 0 -1223 9626 7947 4 MP
PP
0 sg
-133 0 0 1223 133 0 0 -1223 9626 7947 5 MP stroke
c8
0 1098 134 0 0 -1098 9759 7947 4 MP
PP
0 sg
-134 0 0 1098 134 0 0 -1098 9759 7947 5 MP stroke
c8
0 1129 133 0 0 -1129 9893 7947 4 MP
PP
0 sg
-133 0 0 1129 133 0 0 -1129 9893 7947 5 MP stroke
c8
0 1044 134 0 0 -1044 10026 7947 4 MP
PP
0 sg
-134 0 0 1044 134 0 0 -1044 10026 7947 5 MP stroke
c8
0 965 133 0 0 -965 10160 7947 4 MP
PP
0 sg
-133 0 0 965 133 0 0 -965 10160 7947 5 MP stroke
c8
0 952 134 0 0 -952 10293 7947 4 MP
PP
0 sg
-134 0 0 952 134 0 0 -952 10293 7947 5 MP stroke
c8
0 911 134 0 0 -911 10427 7947 4 MP
PP
0 sg
-134 0 0 911 134 0 0 -911 10427 7947 5 MP stroke
c8
0 828 133 0 0 -828 10561 7947 4 MP
PP
0 sg
-133 0 0 828 133 0 0 -828 10561 7947 5 MP stroke
c8
0 792 134 0 0 -792 10694 7947 4 MP
PP
0 sg
-134 0 0 792 134 0 0 -792 10694 7947 5 MP stroke
c8
0 801 133 0 0 -801 10828 7947 4 MP
PP
0 sg
-133 0 0 801 133 0 0 -801 10828 7947 5 MP stroke
c8
0 722 134 0 0 -722 10961 7947 4 MP
PP
0 sg
-134 0 0 722 134 0 0 -722 10961 7947 5 MP stroke
c8
0 700 133 0 0 -700 11095 7947 4 MP
PP
0 sg
-133 0 0 700 133 0 0 -700 11095 7947 5 MP stroke
c8
0 735 134 0 0 -735 11228 7947 4 MP
PP
0 sg
-134 0 0 735 134 0 0 -735 11228 7947 5 MP stroke
c8
0 646 133 0 0 -646 11362 7947 4 MP
PP
0 sg
-133 0 0 646 133 0 0 -646 11362 7947 5 MP stroke
c8
0 611 134 0 0 -611 11495 7947 4 MP
PP
0 sg
-134 0 0 611 134 0 0 -611 11495 7947 5 MP stroke
c8
0 545 133 0 0 -545 11629 7947 4 MP
PP
0 sg
-133 0 0 545 133 0 0 -545 11629 7947 5 MP stroke
c8
0 576 134 0 0 -576 11762 7947 4 MP
PP
0 sg
-134 0 0 576 134 0 0 -576 11762 7947 5 MP stroke
c8
0 536 134 0 0 -536 11896 7947 4 MP
PP
0 sg
-134 0 0 536 134 0 0 -536 11896 7947 5 MP stroke
c8
0 538 133 0 0 -538 12030 7947 4 MP
PP
0 sg
-133 0 0 538 133 0 0 -538 12030 7947 5 MP stroke
c8
0 519 134 0 0 -519 12163 7947 4 MP
PP
0 sg
-134 0 0 519 134 0 0 -519 12163 7947 5 MP stroke
c8
0 435 133 0 0 -435 12297 7947 4 MP
PP
0 sg
-133 0 0 435 133 0 0 -435 12297 7947 5 MP stroke
c8
0 466 134 0 0 -466 12430 7947 4 MP
PP
0 sg
-134 0 0 466 134 0 0 -466 12430 7947 5 MP stroke
c8
0 496 133 0 0 -496 12564 7947 4 MP
PP
0 sg
-133 0 0 496 133 0 0 -496 12564 7947 5 MP stroke
c8
0 407 134 0 0 -407 12697 7947 4 MP
PP
0 sg
-134 0 0 407 134 0 0 -407 12697 7947 5 MP stroke
c8
0 451 133 0 0 -451 12831 7947 4 MP
PP
0 sg
-133 0 0 451 133 0 0 -451 12831 7947 5 MP stroke
c8
0 405 134 0 0 -405 12964 7947 4 MP
PP
0 sg
-134 0 0 405 134 0 0 -405 12964 7947 5 MP stroke
c8
0 381 133 0 0 -381 13098 7947 4 MP
PP
0 sg
-133 0 0 381 133 0 0 -381 13098 7947 5 MP stroke
c8
0 394 134 0 0 -394 13231 7947 4 MP
PP
0 sg
-134 0 0 394 134 0 0 -394 13231 7947 5 MP stroke
c8
0 350 134 0 0 -350 13365 7947 4 MP
PP
0 sg
-134 0 0 350 134 0 0 -350 13365 7947 5 MP stroke
c8
0 372 133 0 0 -372 13499 7947 4 MP
PP
0 sg
-133 0 0 372 133 0 0 -372 13499 7947 5 MP stroke
c8
0 320 134 0 0 -320 13632 7947 4 MP
PP
0 sg
-134 0 0 320 134 0 0 -320 13632 7947 5 MP stroke
c8
0 345 133 0 0 -345 13766 7947 4 MP
PP
0 sg
-133 0 0 345 133 0 0 -345 13766 7947 5 MP stroke
c8
0 312 134 0 0 -312 13899 7947 4 MP
PP
0 sg
-134 0 0 312 134 0 0 -312 13899 7947 5 MP stroke
c8
0 300 133 0 0 -300 14033 7947 4 MP
PP
0 sg
-133 0 0 300 133 0 0 -300 14033 7947 5 MP stroke
c8
0 274 134 0 0 -274 14166 7947 4 MP
PP
0 sg
-134 0 0 274 134 0 0 -274 14166 7947 5 MP stroke
c8
0 330 133 0 0 -330 14300 7947 4 MP
PP
0 sg
-133 0 0 330 133 0 0 -330 14300 7947 5 MP stroke
c8
0 237 134 0 0 -237 14433 7947 4 MP
PP
0 sg
-134 0 0 237 134 0 0 -237 14433 7947 5 MP stroke
c8
0 250 133 0 0 -250 14567 7947 4 MP
PP
0 sg
-133 0 0 250 133 0 0 -250 14567 7947 5 MP stroke
c8
0 254 134 0 0 -254 14700 7947 4 MP
PP
0 sg
-134 0 0 254 134 0 0 -254 14700 7947 5 MP stroke
c8
0 276 133 0 0 -276 14834 7947 4 MP
PP
0 sg
-133 0 0 276 133 0 0 -276 14834 7947 5 MP stroke
c8
0 234 134 0 0 -234 14967 7947 4 MP
PP
0 sg
-134 0 0 234 134 0 0 -234 14967 7947 5 MP stroke
c8
0 206 134 0 0 -206 15101 7947 4 MP
PP
0 sg
-134 0 0 206 134 0 0 -206 15101 7947 5 MP stroke
c8
0 225 133 0 0 -225 15235 7947 4 MP
PP
0 sg
-133 0 0 225 133 0 0 -225 15235 7947 5 MP stroke
c8
0 186 134 0 0 -186 15368 7947 4 MP
PP
0 sg
-134 0 0 186 134 0 0 -186 15368 7947 5 MP stroke
c8
0 208 133 0 0 -208 15502 7947 4 MP
PP
0 sg
-133 0 0 208 133 0 0 -208 15502 7947 5 MP stroke
gr

7391  402 mt 
(Mean Curvature) s

end %%Color Dict

eplot
%%EndObject

epage
end

showpage

%%Trailer
%%EOF
