%!PS-Adobe-3.0 EPSF-3.0
%%Creator: MATLAB, The MathWorks, Inc. Version 7.14.0.739 (R2012a). Operating System: Darwin 12.2.1 Darwin Kernel Version 12.2.1: Thu Oct 18 16:32:48 PDT 2012; root:xnu-2050.20.9~2/RELEASE_X86_64 x86_64.
%%Title: /Users/ajoshi/git_sandbox/svreg-matlab/bin/GaussianHist.eps
%%CreationDate: 12/16/2012  21:37:00
%%DocumentNeededFonts: Helvetica
%%DocumentProcessColors: Cyan Magenta Yellow Black
%%LanguageLevel: 2
%%Pages: 1
%%BoundingBox:  -413    23  1026   768
%%EndComments

%%BeginProlog
% MathWorks dictionary
/MathWorks 160 dict begin
% definition operators
/bdef {bind def} bind def
/ldef {load def} bind def
/xdef {exch def} bdef
/xstore {exch store} bdef
% operator abbreviations
/c  /clip ldef
/cc /concat ldef
/cp /closepath ldef
/gr /grestore ldef
/gs /gsave ldef
/mt /moveto ldef
/np /newpath ldef
/cm /currentmatrix ldef
/sm /setmatrix ldef
/rm /rmoveto ldef
/rl /rlineto ldef
/s {show newpath} bdef
/sc {setcmykcolor} bdef
/sr /setrgbcolor ldef
/sg /setgray ldef
/w /setlinewidth ldef
/j /setlinejoin ldef
/cap /setlinecap ldef
/rc {rectclip} bdef
/rf {rectfill} bdef
% page state control
/pgsv () def
/bpage {/pgsv save def} bdef
/epage {pgsv restore} bdef
/bplot /gsave ldef
/eplot {stroke grestore} bdef
% orientation switch
/portraitMode 0 def /landscapeMode 1 def /rotateMode 2 def
% coordinate system mappings
/dpi2point 0 def
% font control
/FontSize 0 def
/FMS {/FontSize xstore findfont [FontSize 0 0 FontSize neg 0 0]
  makefont setfont} bdef
/reencode {exch dup where {pop load} {pop StandardEncoding} ifelse
  exch dup 3 1 roll findfont dup length dict begin
  { 1 index /FID ne {def}{pop pop} ifelse } forall
  /Encoding exch def currentdict end definefont pop} bdef
/isroman {findfont /CharStrings get /Agrave known} bdef
/FMSR {3 1 roll 1 index dup isroman {reencode} {pop pop} ifelse
  exch FMS} bdef
/csm {1 dpi2point div -1 dpi2point div scale neg translate
 dup landscapeMode eq {pop -90 rotate}
  {rotateMode eq {90 rotate} if} ifelse} bdef
% line types: solid, dotted, dashed, dotdash
/SO { [] 0 setdash } bdef
/DO { [.5 dpi2point mul 4 dpi2point mul] 0 setdash } bdef
/DA { [6 dpi2point mul] 0 setdash } bdef
/DD { [.5 dpi2point mul 4 dpi2point mul 6 dpi2point mul 4
  dpi2point mul] 0 setdash } bdef
% macros for lines and objects
/L {lineto stroke} bdef
/MP {3 1 roll moveto 1 sub {rlineto} repeat} bdef
/AP {{rlineto} repeat} bdef
/PDlw -1 def
/W {/PDlw currentlinewidth def setlinewidth} def
/PP {closepath eofill} bdef
/DP {closepath stroke} bdef
/MR {4 -2 roll moveto dup  0 exch rlineto exch 0 rlineto
  neg 0 exch rlineto closepath} bdef
/FR {MR stroke} bdef
/PR {MR fill} bdef
/L1i {{currentfile picstr readhexstring pop} image} bdef
/tMatrix matrix def
/MakeOval {newpath tMatrix currentmatrix pop translate scale
0 0 1 0 360 arc tMatrix setmatrix} bdef
/FO {MakeOval stroke} bdef
/PO {MakeOval fill} bdef
/PD {currentlinewidth 2 div 0 360 arc fill
   PDlw -1 eq not {PDlw w /PDlw -1 def} if} def
/FA {newpath tMatrix currentmatrix pop translate scale
  0 0 1 5 -2 roll arc tMatrix setmatrix stroke} bdef
/PA {newpath tMatrix currentmatrix pop	translate 0 0 moveto scale
  0 0 1 5 -2 roll arc closepath tMatrix setmatrix fill} bdef
/FAn {newpath tMatrix currentmatrix pop translate scale
  0 0 1 5 -2 roll arcn tMatrix setmatrix stroke} bdef
/PAn {newpath tMatrix currentmatrix pop translate 0 0 moveto scale
  0 0 1 5 -2 roll arcn closepath tMatrix setmatrix fill} bdef
/vradius 0 def /hradius 0 def /lry 0 def
/lrx 0 def /uly 0 def /ulx 0 def /rad 0 def
/MRR {/vradius xdef /hradius xdef /lry xdef /lrx xdef /uly xdef
  /ulx xdef newpath tMatrix currentmatrix pop ulx hradius add uly
  vradius add translate hradius vradius scale 0 0 1 180 270 arc 
  tMatrix setmatrix lrx hradius sub uly vradius add translate
  hradius vradius scale 0 0 1 270 360 arc tMatrix setmatrix
  lrx hradius sub lry vradius sub translate hradius vradius scale
  0 0 1 0 90 arc tMatrix setmatrix ulx hradius add lry vradius sub
  translate hradius vradius scale 0 0 1 90 180 arc tMatrix setmatrix
  closepath} bdef
/FRR {MRR stroke } bdef
/PRR {MRR fill } bdef
/MlrRR {/lry xdef /lrx xdef /uly xdef /ulx xdef /rad lry uly sub 2 div def
  newpath tMatrix currentmatrix pop ulx rad add uly rad add translate
  rad rad scale 0 0 1 90 270 arc tMatrix setmatrix lrx rad sub lry rad
  sub translate rad rad scale 0 0 1 270 90 arc tMatrix setmatrix
  closepath} bdef
/FlrRR {MlrRR stroke } bdef
/PlrRR {MlrRR fill } bdef
/MtbRR {/lry xdef /lrx xdef /uly xdef /ulx xdef /rad lrx ulx sub 2 div def
  newpath tMatrix currentmatrix pop ulx rad add uly rad add translate
  rad rad scale 0 0 1 180 360 arc tMatrix setmatrix lrx rad sub lry rad
  sub translate rad rad scale 0 0 1 0 180 arc tMatrix setmatrix
  closepath} bdef
/FtbRR {MtbRR stroke } bdef
/PtbRR {MtbRR fill } bdef
/stri 6 array def /dtri 6 array def
/smat 6 array def /dmat 6 array def
/tmat1 6 array def /tmat2 6 array def /dif 3 array def
/asub {/ind2 exch def /ind1 exch def dup dup
  ind1 get exch ind2 get sub exch } bdef
/tri_to_matrix {
  2 0 asub 3 1 asub 4 0 asub 5 1 asub
  dup 0 get exch 1 get 7 -1 roll astore } bdef
/compute_transform {
  dmat dtri tri_to_matrix tmat1 invertmatrix 
  smat stri tri_to_matrix tmat2 concatmatrix } bdef
/ds {stri astore pop} bdef
/dt {dtri astore pop} bdef
/db {2 copy /cols xdef /rows xdef mul dup 3 mul string
  currentfile 
  3 index 0 eq {/ASCIIHexDecode filter}
  {/ASCII85Decode filter 3 index 2 eq {/RunLengthDecode filter} if }
  ifelse exch readstring pop
  dup 0 3 index getinterval /rbmap xdef
  dup 2 index dup getinterval /gbmap xdef
  1 index dup 2 mul exch getinterval /bbmap xdef pop pop}bdef
/it {gs np dtri aload pop moveto lineto lineto cp c
  cols rows 8 compute_transform 
  rbmap gbmap bbmap true 3 colorimage gr}bdef
/il {newpath moveto lineto stroke}bdef
currentdict end def
%%EndProlog

%%BeginSetup
MathWorks begin

0 cap

end
%%EndSetup

%%Page: 1 1
%%BeginPageSetup
%%PageBoundingBox:  -413    23  1026   768
MathWorks begin
bpage
%%EndPageSetup

%%BeginObject: obj1
bplot

/dpi2point 12 def
portraitMode -4956 9216 csm

    0     0 17279  8929 rc
85 dict begin %Colortable dictionary
/c0 { 0.000000 0.000000 0.000000 sr} bdef
/c1 { 1.000000 1.000000 1.000000 sr} bdef
/c2 { 0.900000 0.000000 0.000000 sr} bdef
/c3 { 0.000000 0.820000 0.000000 sr} bdef
/c4 { 0.000000 0.000000 0.800000 sr} bdef
/c5 { 0.910000 0.820000 0.320000 sr} bdef
/c6 { 1.000000 0.260000 0.820000 sr} bdef
/c7 { 0.000000 0.820000 0.820000 sr} bdef
c0
1 j
1 sg
   0    0 17280 8930 rf
6 w
0 7200 13391 0 0 -7200 2246 7947 4 MP
PP
-13391 0 0 7200 13391 0 0 -7200 2246 7947 5 MP stroke
4 w
DO
SO
6 w
0 sg
2246 7947 mt 15637 7947 L
2246  747 mt 15637  747 L
2246 7947 mt 2246  747 L
15637 7947 mt 15637  747 L
2246 7947 mt 15637 7947 L
2246 7947 mt 2246  747 L
2246 7947 mt 2246 7813 L
2246  747 mt 2246  880 L
%%IncludeResource: font Helvetica
/Helvetica /ISOLatin1Encoding 432 FMSR

2126 8383 mt 
(0) s
4924 7947 mt 4924 7813 L
4924  747 mt 4924  880 L
4624 8383 mt 
(0.1) s
7602 7947 mt 7602 7813 L
7602  747 mt 7602  880 L
7302 8383 mt 
(0.2) s
10280 7947 mt 10280 7813 L
10280  747 mt 10280  880 L
9980 8383 mt 
(0.3) s
12958 7947 mt 12958 7813 L
12958  747 mt 12958  880 L
12658 8383 mt 
(0.4) s
15637 7947 mt 15637 7813 L
15637  747 mt 15637  880 L
15337 8383 mt 
(0.5) s
2246 7947 mt 2379 7947 L
15637 7947 mt 15503 7947 L
1971 8107 mt 
(0) s
2246 6918 mt 2379 6918 L
15637 6918 mt 15503 6918 L
1971 7078 mt 
(1) s
2246 5889 mt 2379 5889 L
15637 5889 mt 15503 5889 L
1971 6049 mt 
(2) s
2246 4861 mt 2379 4861 L
15637 4861 mt 15503 4861 L
1971 5021 mt 
(3) s
2246 3832 mt 2379 3832 L
15637 3832 mt 15503 3832 L
1971 3992 mt 
(4) s
2246 2804 mt 2379 2804 L
15637 2804 mt 15503 2804 L
1971 2964 mt 
(5) s
2246 1775 mt 2379 1775 L
15637 1775 mt 15503 1775 L
1971 1935 mt 
(6) s
2246  747 mt 2379  747 L
15637  747 mt 15503  747 L
1971  907 mt 
(7) s
2246  693 mt 
(x 10) s
%%IncludeResource: font Helvetica
/Helvetica /ISOLatin1Encoding 288 FMSR

3062  425 mt 
(4) s
2246 7947 mt 15637 7947 L
2246  747 mt 15637  747 L
2246 7947 mt 2246  747 L
15637 7947 mt 15637  747 L
gs 2246 747 13392 7201 rc
/c8 { 0.000000 0.000000 0.562500 sr} bdef
c8
0 6697 133 0 0 -6697 2246 7947 4 MP
PP
0 sg
-133 0 0 6697 133 0 0 -6697 2246 7947 5 MP stroke
c8
0 2841 134 0 0 -2841 2379 7947 4 MP
PP
0 sg
-134 0 0 2841 134 0 0 -2841 2379 7947 5 MP stroke
c8
0 1650 134 0 0 -1650 2513 7947 4 MP
PP
0 sg
-134 0 0 1650 134 0 0 -1650 2513 7947 5 MP stroke
c8
0 1119 133 0 0 -1119 2647 7947 4 MP
PP
0 sg
-133 0 0 1119 133 0 0 -1119 2647 7947 5 MP stroke
c8
0 764 134 0 0 -764 2780 7947 4 MP
PP
0 sg
-134 0 0 764 134 0 0 -764 2780 7947 5 MP stroke
c8
0 559 134 0 0 -559 2914 7947 4 MP
PP
0 sg
-134 0 0 559 134 0 0 -559 2914 7947 5 MP stroke
c8
0 410 134 0 0 -410 3048 7947 4 MP
PP
0 sg
-134 0 0 410 134 0 0 -410 3048 7947 5 MP stroke
c8
0 326 133 0 0 -326 3182 7947 4 MP
PP
0 sg
-133 0 0 326 133 0 0 -326 3182 7947 5 MP stroke
c8
0 259 134 0 0 -259 3315 7947 4 MP
PP
0 sg
-134 0 0 259 134 0 0 -259 3315 7947 5 MP stroke
c8
0 204 134 0 0 -204 3449 7947 4 MP
PP
0 sg
-134 0 0 204 134 0 0 -204 3449 7947 5 MP stroke
c8
0 166 133 0 0 -166 3583 7947 4 MP
PP
0 sg
-133 0 0 166 133 0 0 -166 3583 7947 5 MP stroke
c8
0 133 134 0 0 -133 3716 7947 4 MP
PP
0 sg
-134 0 0 133 134 0 0 -133 3716 7947 5 MP stroke
c8
0 117 134 0 0 -117 3850 7947 4 MP
PP
0 sg
-134 0 0 117 134 0 0 -117 3850 7947 5 MP stroke
c8
0 94 134 0 0 -94 3984 7947 4 MP
PP
0 sg
-134 0 0 94 134 0 0 -94 3984 7947 5 MP stroke
c8
0 75 133 0 0 -75 4118 7947 4 MP
PP
0 sg
-133 0 0 75 133 0 0 -75 4118 7947 5 MP stroke
c8
0 71 134 0 0 -71 4251 7947 4 MP
PP
0 sg
-134 0 0 71 134 0 0 -71 4251 7947 5 MP stroke
c8
0 60 134 0 0 -60 4385 7947 4 MP
PP
0 sg
-134 0 0 60 134 0 0 -60 4385 7947 5 MP stroke
c8
0 51 133 0 0 -51 4519 7947 4 MP
PP
0 sg
-133 0 0 51 133 0 0 -51 4519 7947 5 MP stroke
c8
0 43 134 0 0 -43 4652 7947 4 MP
PP
0 sg
-134 0 0 43 134 0 0 -43 4652 7947 5 MP stroke
c8
0 39 134 0 0 -39 4786 7947 4 MP
PP
0 sg
-134 0 0 39 134 0 0 -39 4786 7947 5 MP stroke
c8
0 35 134 0 0 -35 4920 7947 4 MP
PP
0 sg
-134 0 0 35 134 0 0 -35 4920 7947 5 MP stroke
c8
0 28 133 0 0 -28 5054 7947 4 MP
PP
0 sg
-133 0 0 28 133 0 0 -28 5054 7947 5 MP stroke
c8
0 22 134 0 0 -22 5187 7947 4 MP
PP
0 sg
-134 0 0 22 134 0 0 -22 5187 7947 5 MP stroke
c8
0 21 134 0 0 -21 5321 7947 4 MP
PP
0 sg
-134 0 0 21 134 0 0 -21 5321 7947 5 MP stroke
c8
0 24 133 0 0 -24 5455 7947 4 MP
PP
0 sg
-133 0 0 24 133 0 0 -24 5455 7947 5 MP stroke
c8
0 19 134 0 0 -19 5588 7947 4 MP
PP
0 sg
-134 0 0 19 134 0 0 -19 5588 7947 5 MP stroke
c8
0 17 134 0 0 -17 5722 7947 4 MP
PP
0 sg
-134 0 0 17 134 0 0 -17 5722 7947 5 MP stroke
c8
0 17 134 0 0 -17 5856 7947 4 MP
PP
0 sg
-134 0 0 17 134 0 0 -17 5856 7947 5 MP stroke
c8
0 13 133 0 0 -13 5990 7947 4 MP
PP
0 sg
-133 0 0 13 133 0 0 -13 5990 7947 5 MP stroke
c8
0 14 134 0 0 -14 6123 7947 4 MP
PP
0 sg
-134 0 0 14 134 0 0 -14 6123 7947 5 MP stroke
c8
0 11 134 0 0 -11 6257 7947 4 MP
PP
0 sg
-134 0 0 11 134 0 0 -11 6257 7947 5 MP stroke
c8
0 11 133 0 0 -11 6391 7947 4 MP
PP
0 sg
-133 0 0 11 133 0 0 -11 6391 7947 5 MP stroke
c8
0 10 134 0 0 -10 6524 7947 4 MP
PP
0 sg
-134 0 0 10 134 0 0 -10 6524 7947 5 MP stroke
c8
0 8 134 0 0 -8 6658 7947 4 MP
PP
0 sg
-134 0 0 8 134 0 0 -8 6658 7947 5 MP stroke
c8
0 8 134 0 0 -8 6792 7947 4 MP
PP
0 sg
-134 0 0 8 134 0 0 -8 6792 7947 5 MP stroke
c8
0 7 133 0 0 -7 6926 7947 4 MP
PP
0 sg
-133 0 0 7 133 0 0 -7 6926 7947 5 MP stroke
c8
0 8 134 0 0 -8 7059 7947 4 MP
PP
0 sg
-134 0 0 8 134 0 0 -8 7059 7947 5 MP stroke
c8
0 7 134 0 0 -7 7193 7947 4 MP
PP
0 sg
-134 0 0 7 134 0 0 -7 7193 7947 5 MP stroke
c8
0 6 133 0 0 -6 7327 7947 4 MP
PP
0 sg
-133 0 0 6 133 0 0 -6 7327 7947 5 MP stroke
c8
0 6 134 0 0 -6 7460 7947 4 MP
PP
0 sg
-134 0 0 6 134 0 0 -6 7460 7947 5 MP stroke
c8
0 6 134 0 0 -6 7594 7947 4 MP
PP
0 sg
-134 0 0 6 134 0 0 -6 7594 7947 5 MP stroke
c8
0 5 134 0 0 -5 7728 7947 4 MP
PP
0 sg
-134 0 0 5 134 0 0 -5 7728 7947 5 MP stroke
c8
0 6 133 0 0 -6 7862 7947 4 MP
PP
0 sg
-133 0 0 6 133 0 0 -6 7862 7947 5 MP stroke
c8
0 4 134 0 0 -4 7995 7947 4 MP
PP
0 sg
-134 0 0 4 134 0 0 -4 7995 7947 5 MP stroke
c8
0 4 134 0 0 -4 8129 7947 4 MP
PP
0 sg
-134 0 0 4 134 0 0 -4 8129 7947 5 MP stroke
c8
0 3 133 0 0 -3 8263 7947 4 MP
PP
0 sg
-133 0 0 3 133 0 0 -3 8263 7947 5 MP stroke
c8
0 3 134 0 0 -3 8396 7947 4 MP
PP
0 sg
-134 0 0 3 134 0 0 -3 8396 7947 5 MP stroke
c8
0 3 134 0 0 -3 8530 7947 4 MP
PP
0 sg
-134 0 0 3 134 0 0 -3 8530 7947 5 MP stroke
c8
0 3 134 0 0 -3 8664 7947 4 MP
PP
0 sg
-134 0 0 3 134 0 0 -3 8664 7947 5 MP stroke
c8
0 3 133 0 0 -3 8798 7947 4 MP
PP
0 sg
-133 0 0 3 133 0 0 -3 8798 7947 5 MP stroke
c8
0 3 134 0 0 -3 8931 7947 4 MP
PP
0 sg
-134 0 0 3 134 0 0 -3 8931 7947 5 MP stroke
c8
0 3 134 0 0 -3 9065 7947 4 MP
PP
0 sg
-134 0 0 3 134 0 0 -3 9065 7947 5 MP stroke
c8
0 4 133 0 0 -4 9199 7947 4 MP
PP
0 sg
-133 0 0 4 133 0 0 -4 9199 7947 5 MP stroke
c8
0 3 134 0 0 -3 9332 7947 4 MP
PP
0 sg
-134 0 0 3 134 0 0 -3 9332 7947 5 MP stroke
c8
0 3 134 0 0 -3 9466 7947 4 MP
PP
0 sg
-134 0 0 3 134 0 0 -3 9466 7947 5 MP stroke
c8
0 2 134 0 0 -2 9600 7947 4 MP
PP
0 sg
-134 0 0 2 134 0 0 -2 9600 7947 5 MP stroke
c8
0 2 133 0 0 -2 9734 7947 4 MP
PP
0 sg
-133 0 0 2 133 0 0 -2 9734 7947 5 MP stroke
c8
0 2 134 0 0 -2 9867 7947 4 MP
PP
0 sg
-134 0 0 2 134 0 0 -2 9867 7947 5 MP stroke
c8
0 2 134 0 0 -2 10001 7947 4 MP
PP
0 sg
-134 0 0 2 134 0 0 -2 10001 7947 5 MP stroke
c8
0 2 133 0 0 -2 10135 7947 4 MP
PP
0 sg
-133 0 0 2 133 0 0 -2 10135 7947 5 MP stroke
c8
0 2 134 0 0 -2 10268 7947 4 MP
PP
0 sg
-134 0 0 2 134 0 0 -2 10268 7947 5 MP stroke
c8
0 2 134 0 0 -2 10402 7947 4 MP
PP
0 sg
-134 0 0 2 134 0 0 -2 10402 7947 5 MP stroke
c8
0 2 134 0 0 -2 10536 7947 4 MP
PP
0 sg
-134 0 0 2 134 0 0 -2 10536 7947 5 MP stroke
c8
0 2 133 0 0 -2 10670 7947 4 MP
PP
0 sg
-133 0 0 2 133 0 0 -2 10670 7947 5 MP stroke
c8
0 2 134 0 0 -2 10803 7947 4 MP
PP
0 sg
-134 0 0 2 134 0 0 -2 10803 7947 5 MP stroke
c8
0 2 134 0 0 -2 10937 7947 4 MP
PP
0 sg
-134 0 0 2 134 0 0 -2 10937 7947 5 MP stroke
c8
0 1 133 0 0 -1 11071 7947 4 MP
PP
0 sg
-133 0 0 1 133 0 0 -1 11071 7947 5 MP stroke
c8
0 1 134 0 0 -1 11204 7947 4 MP
PP
0 sg
-134 0 0 1 134 0 0 -1 11204 7947 5 MP stroke
c8
0 1 134 0 0 -1 11338 7947 4 MP
PP
0 sg
-134 0 0 1 134 0 0 -1 11338 7947 5 MP stroke
c8
0 2 134 0 0 -2 11472 7947 4 MP
PP
0 sg
-134 0 0 2 134 0 0 -2 11472 7947 5 MP stroke
c8
0 1 133 0 0 -1 11606 7947 4 MP
PP
0 sg
-133 0 0 1 133 0 0 -1 11606 7947 5 MP stroke
c8
0 1 134 0 0 -1 11739 7947 4 MP
PP
0 sg
-134 0 0 1 134 0 0 -1 11739 7947 5 MP stroke
c8
0 2 134 0 0 -2 11873 7947 4 MP
PP
0 sg
-134 0 0 2 134 0 0 -2 11873 7947 5 MP stroke
c8
0 2 133 0 0 -2 12007 7947 4 MP
PP
0 sg
-133 0 0 2 133 0 0 -2 12007 7947 5 MP stroke
c8
0 1 134 0 0 -1 12140 7947 4 MP
PP
0 sg
-134 0 0 1 134 0 0 -1 12140 7947 5 MP stroke
c8
0 1 134 0 0 -1 12274 7947 4 MP
PP
0 sg
-134 0 0 1 134 0 0 -1 12274 7947 5 MP stroke
c8
0 1 134 0 0 -1 12408 7947 4 MP
PP
0 sg
-134 0 0 1 134 0 0 -1 12408 7947 5 MP stroke
c8
0 1 133 0 0 -1 12542 7947 4 MP
PP
0 sg
-133 0 0 1 133 0 0 -1 12542 7947 5 MP stroke
c8
0 1 134 0 0 -1 12675 7947 4 MP
PP
0 sg
-134 0 0 1 134 0 0 -1 12675 7947 5 MP stroke
c8
0 1 134 0 0 -1 12809 7947 4 MP
PP
0 sg
-134 0 0 1 134 0 0 -1 12809 7947 5 MP stroke
c8
0 1 133 0 0 -1 12943 7947 4 MP
PP
0 sg
-133 0 0 1 133 0 0 -1 12943 7947 5 MP stroke
c8
0 1 134 0 0 -1 13076 7947 4 MP
PP
0 sg
-134 0 0 1 134 0 0 -1 13076 7947 5 MP stroke
c8
0 1 134 0 0 -1 13210 7947 4 MP
PP
0 sg
-134 0 0 1 134 0 0 -1 13210 7947 5 MP stroke
c8
0 1 134 0 0 -1 13344 7947 4 MP
PP
0 sg
-134 0 0 1 134 0 0 -1 13344 7947 5 MP stroke
c8
0 1 133 0 0 -1 13478 7947 4 MP
PP
0 sg
-133 0 0 1 133 0 0 -1 13478 7947 5 MP stroke
c8
0 1 134 0 0 -1 13611 7947 4 MP
PP
0 sg
-134 0 0 1 134 0 0 -1 13611 7947 5 MP stroke
c8
0 1 134 0 0 -1 13745 7947 4 MP
PP
0 sg
-134 0 0 1 134 0 0 -1 13745 7947 5 MP stroke
c8
0 2 133 0 0 -2 13879 7947 4 MP
PP
0 sg
-133 0 0 2 133 0 0 -2 13879 7947 5 MP stroke
c8
0 1 134 0 0 -1 14012 7947 4 MP
PP
0 sg
-134 0 0 1 134 0 0 -1 14012 7947 5 MP stroke
c8
0 1 134 0 0 -1 14146 7947 4 MP
PP
0 sg
-134 0 0 1 134 0 0 -1 14146 7947 5 MP stroke
c8
0 1 134 0 0 -1 14280 7947 4 MP
PP
0 sg
-134 0 0 1 134 0 0 -1 14280 7947 5 MP stroke
c8
0 1 133 0 0 -1 14414 7947 4 MP
PP
0 sg
-133 0 0 1 133 0 0 -1 14414 7947 5 MP stroke
c8
0 1 134 0 0 -1 14547 7947 4 MP
PP
0 sg
-134 0 0 1 134 0 0 -1 14547 7947 5 MP stroke
c8
0 1 134 0 0 -1 14681 7947 4 MP
PP
0 sg
-134 0 0 1 134 0 0 -1 14681 7947 5 MP stroke
c8
0 1 133 0 0 -1 14815 7947 4 MP
PP
0 sg
-133 0 0 1 133 0 0 -1 14815 7947 5 MP stroke
c8
0 1 134 0 0 -1 14948 7947 4 MP
PP
0 sg
-134 0 0 1 134 0 0 -1 14948 7947 5 MP stroke
c8
0 1 134 0 0 -1 15082 7947 4 MP
PP
0 sg
-134 0 0 1 134 0 0 -1 15082 7947 5 MP stroke
c8
0 1 134 0 0 -1 15216 7947 4 MP
PP
0 sg
-134 0 0 1 134 0 0 -1 15216 7947 5 MP stroke
c8
0 1 133 0 0 -1 15350 7947 4 MP
PP
0 sg
-133 0 0 1 133 0 0 -1 15350 7947 5 MP stroke
c8
0 1 134 0 0 -1 15483 7947 4 MP
PP
0 sg
-134 0 0 1 134 0 0 -1 15483 7947 5 MP stroke
gr

%%IncludeResource: font Helvetica
/Helvetica /ISOLatin1Encoding 432 FMSR

7019  402 mt 
(Gaussian Curvature) s

end %%Color Dict

eplot
%%EndObject

epage
end

showpage

%%Trailer
%%EOF
