\relax 
\citation{library:BSTcontrol}
\citation{Ernst1989}
\citation{Wolfson1990}
\citation{Carcassoni2003}
\citation{Frenkel2003}
\citation{Serra1995}
\citation{Sebastian2003}
\citation{Latecki2000}
\citation{Chen2008}
\citation{Xu2009}
\citation{Viswanath2011}
\citation{Mori2005}
\citation{Ling2010}
\citation{Wang2012}
\citation{Pentland1991}
\citation{Gorelick2006}
\citation{Hassouna2009}
\citation{Yao2009}
\citation{Jakobczak2010}
\citation{Huang2009}
\citation{Srivastava2009}
\citation{Srivastava2010}
\citation{Tu2008}
\citation{Buchin2009}
\citation{Daliri2008}
\citation{Tagliasacchi2009}
\citation{Blum1967}
\citation{Naouai2011}
\citation{Mori2005}
\citation{Basri1998}
\citation{Rustamov2007}
\citation{Levy2006}
\citation{Reuter2009}
\citation{Reuter2006}
\citation{Gerig2001}
\citation{Reuter2010}
\citation{Bronstein2010}
\citation{Bronstein2011}
\@writefile{toc}{\contentsline {section}{\numberline {I}Introduction}{1}}
\@writefile{toc}{\contentsline {subsection}{\numberline {\unhbox \voidb@x \hbox {I-A}}Things to remember}{2}}
\citation{Pentland1991}
\citation{Gorelick2006}
\citation{Yao2009}
\citation{Cui2009}
\citation{Hassouna2009}
\citation{Jakobczak2010}
\citation{Cohen1992}
\citation{Huang2008}
\citation{Tu2008}
\citation{Buchin2009}
\citation{Srivastava2009}
\citation{Srivastava2010}
\citation{Chen2011}
\@writefile{toc}{\contentsline {section}{\numberline {II}Notes}{3}}
\@writefile{toc}{\contentsline {subsection}{\numberline {\unhbox \voidb@x \hbox {II-A}} PDE: Pentland 1991 \cite  {Pentland1991} (model fit) , Gorelick 2006 \cite  {Gorelick2006} (Poisson) , Yao 2009 \cite  {Yao2009} (Radon/wavelet) , Cui 2009 \cite  {Cui2009} (cumulative integral of curvature) , Hassouna 2009 \cite  {Hassouna2009} (Gradient vector flow) , Jakobczak 2010 \cite  {Jakobczak2010} (Hurwitz-Radon) }{3}}
\@writefile{toc}{\contentsline {subsection}{\numberline {\unhbox \voidb@x \hbox {II-B}} Curve deformations: Cohen 1992 \cite  {Cohen1992} (videos) , Huang 2008 \cite  {Huang2008} (Metamorphs) , Tu 2008 \cite  {Tu2008} (EM for shape matching) , Buchin 2009 \cite  {Buchin2009} (partial matching Frechet distance) , Srivastava 2009 \cite  {Srivastava2009} (curvilinear elastic matching) , Srivastava 2010 \cite  {Srivastava2010} (Bezier curves) , Chen 2011 \cite  {Chen 2011} NURBS }{3}}
\citation{Serra1995}
\citation{Latecki2000}
\citation{Sebastian2003}
\citation{Basri1998}
\@writefile{toc}{\contentsline {subsection}{\numberline {\unhbox \voidb@x \hbox {II-C}} Local lines: Serra 1995 \cite  {Serra1995} (Dynamic prog) , Latecki 2000 \cite  {Latecki2000} (Similarity) , Sebastian 2003 \cite  {Sebastian2003} (Infinitesimal) }{4}}
\citation{Mori2005}
\citation{Daliri2008}
\citation{Ling2010}
\citation{Shu2010}
\citation{Wang2012}
\@writefile{toc}{\contentsline {subsection}{\numberline {\unhbox \voidb@x \hbox {II-D}} Basri 1998 \cite  {Basri 1998} : Properties Required in Good Shape Similarity Methods }{5}}
\@writefile{toc}{\contentsline {subsection}{\numberline {\unhbox \voidb@x \hbox {II-E}} Shape Contexts: Mori 2005 \cite  {Mori2005} , Daliri 2008 \cite  {Daliri2008} (point-to-point) , Ling 2010 \cite  {Ling2010} (aspect space) , Shu 2010 \cite  {Shu2010} (use centroid instead of 1 point) , Wang 2012 \cite  {Wang2012} (Clustering followed by part-matching) }{5}}
\citation{Levy2006}
\citation{Reuter2006}
\citation{Rustamov2007}
\citation{Reuter2009}
\citation{Reuter2009b}
\citation{Gkebal2009}
\citation{Reuter2010}
\citation{Bronstein2010}
\citation{Bronstein2011}
\@writefile{toc}{\contentsline {subsection}{\numberline {\unhbox \voidb@x \hbox {II-F}} Laplace-Beltrami: Levy 2006 \cite  {Levy2006} , Reuter 2006 \cite  {Reuter2006} (Shape-DNA) , Rustamov 2007 \cite  {Rustamov2007} (The GPS embedding) , Reuter 2009 \cite  {Reuter2009} (eigenfunctions) , Reuter 2009b \cite  {Reuter2009b} (discrete) , Gkebal 2009 \cite  {Gkebal2009} (sum) , Reuter 2010 \cite  {Reuter2010} (Morse-Smale complexes of eigenfunctions) , Bronstein 2010 \cite  {Bronstein2010} (Gromov-Hausdorff distances) , Bronstein 2011 \cite  {Bronstein2011} (Spectral shape distance) }{6}}
\citation{Xie2008}
\citation{Wang2008}
\citation{Tagliasacchi2009}
\citation{Sparks2010}
\citation{Naouai2011}
\citation{Ernst1989}
\citation{Wolfson1990}
\citation{Carcassoni2003}
\citation{Frenkel2003}
\citation{Chen2008}
\citation{Ebrahim2009}
\citation{Xu2009}
\citation{Viswanath2011}
\citation{Gokaramaiah2011}
\@writefile{toc}{\contentsline {subsection}{\numberline {\unhbox \voidb@x \hbox {II-G}} Skeletons: Xie 2008 \cite  {Xie2008} (Skeletal context) , Wang 2008 \cite  {Wang2008} (Curve skeleton) , Tagliasacchi 2009 \cite  {Tagliasacchi2009} (incomplete) , Sparks 2010 \cite  {Sparks2010} (equidistant from boundary) , Naouai 2011 \cite  {Naouai2011} (NURBS) }{7}}
\@writefile{toc}{\contentsline {subsection}{\numberline {\unhbox \voidb@x \hbox {II-H}} Heuristics: Ernst 1989 \cite  {Ernst1989} and Wolfson 1990 \cite  {Wolfson1990} (Shape signature string matching) , Carcassoni 2003 \cite  {Carcassoni2003} (spectral graphs) , Frenkel 2003 \cite  {Frenkel2003} (fast marching) , Chen 2008 \cite  {Chen2008} (Smith-Waterman) , Ebrahim 2009 \cite  {Ebrahim2009} (Hilbert curve) , Xu 2009 \cite  {Xu2009} (contour flexibility) , Viswanath 2011 \cite  {Viswanath2011} and Gokaramaiah 2011 \cite  {Gokaramaiah2011} (Zernicke moments) }{7}}
\bibstyle{IEEEtran}
\bibdata{library_ctrl,library}
\bibcite{Ernst1989}{1}
\bibcite{Wolfson1990}{2}
\bibcite{Carcassoni2003}{3}
\bibcite{Frenkel2003}{4}
\bibcite{Serra1995}{5}
\bibcite{Sebastian2003}{6}
\bibcite{Latecki2000}{7}
\bibcite{Chen2008}{8}
\bibcite{Xu2009}{9}
\bibcite{Viswanath2011}{10}
\bibcite{Mori2005}{11}
\@writefile{toc}{\contentsline {section}{References}{8}}
\bibcite{Ling2010}{12}
\bibcite{Wang2012}{13}
\bibcite{Pentland1991}{14}
\bibcite{Gorelick2006}{15}
\bibcite{Hassouna2009}{16}
\bibcite{Yao2009}{17}
\bibcite{Jakobczak2010}{18}
\bibcite{Srivastava2009}{19}
\bibcite{Srivastava2010}{20}
\bibcite{Tu2008}{21}
\bibcite{Buchin2009}{22}
\bibcite{Daliri2008}{23}
\bibcite{Tagliasacchi2009}{24}
\bibcite{Blum1967}{25}
\bibcite{Naouai2011}{26}
\bibcite{Basri1998}{27}
\bibcite{Rustamov2007}{28}
\bibcite{Levy2006}{29}
\bibcite{Reuter2009}{30}
\bibcite{Reuter2006}{31}
\bibcite{Gerig2001}{32}
\bibcite{Reuter2010}{33}
\bibcite{Bronstein2010}{34}
\bibcite{Bronstein2011}{35}
\bibcite{Cui2009}{36}
\bibcite{Cohen1992}{37}
\bibcite{Huang2008}{38}
\bibcite{Chen2011}{39}
\bibcite{Shu2010}{40}
\bibcite{Reuter2009b}{41}
\bibcite{Gkebal2009}{42}
\bibcite{Xie2008}{43}
\bibcite{Wang2008}{44}
\bibcite{Sparks2010}{45}
\bibcite{Ebrahim2009}{46}
\bibcite{Gokaramaiah2011}{47}
