%!PS-Adobe-3.0 EPSF-3.0 
%%BoundingBox: 0 0 426 252
%%Pages: 0
%%Creator: LibreOffice 3.5
%%Title: none
%%CreationDate: none
%%LanguageLevel: 2
%%EndComments
%%BeginProlog
%%BeginResource: procset SDRes-Prolog 1.0 0
/b4_inc_state save def
/dict_count countdictstack def
/op_count count 1 sub def
userdict begin
0 setgray 0 setlinecap 1 setlinewidth 0 setlinejoin 10 setmiterlimit[] 0 setdash newpath
/languagelevel where {pop languagelevel 1 ne {false setstrokeadjust false setoverprint} if} if
/bdef {bind def} bind def
/c {setgray} bdef
/l {neg lineto} bdef
/rl {neg rlineto} bdef
/lc {setlinecap} bdef
/lj {setlinejoin} bdef
/lw {setlinewidth} bdef
/ml {setmiterlimit} bdef
/ld {setdash} bdef
/m {neg moveto} bdef
/ct {6 2 roll neg 6 2 roll neg 6 2 roll neg curveto} bdef
/r {rotate} bdef
/t {neg translate} bdef
/s {scale} bdef
/sw {show} bdef
/gs {gsave} bdef
/gr {grestore} bdef
/f {findfont dup length dict begin
{1 index /FID ne {def} {pop pop} ifelse} forall /Encoding ISOLatin1Encoding def
currentdict end /NFont exch definefont pop /NFont findfont} bdef
/p {closepath} bdef
/sf {scalefont setfont} bdef
/ef {eofill}bdef
/pc {closepath stroke}bdef
/ps {stroke}bdef
/pum {matrix currentmatrix}bdef
/pom {setmatrix}bdef
/bs {/aString exch def /nXOfs exch def /nWidth exch def currentpoint nXOfs 0 rmoveto pum nWidth aString stringwidth pop div 1 scale aString show pom moveto} bdef
%%EndResource
%%EndProlog
%%BeginSetup
%%EndSetup
%%Page: 1 1
%%BeginPageSetup
%%EndPageSetup
pum
0.02836 0.02833 s 
0 -8895 t
/tm matrix currentmatrix def
tm setmatrix
-4221 -3842 t 
1 1 s 
0.000 c 4232 3880 m  9204 3880 l  9204 4878 l  4232 4878 l  4232 3880 l 
p ef
pum
5601 4598 t
0.996 c -6 -464 m  124 -464 l  230 -298 l  335 -464 l  466 -464 l  290 -195 l 
290 0 l  170 0 l  170 -195 l  -6 -464 l  p ef
802 -175 m  802 -143 l  542 -143 l  545 -117 555 -97 571 -84 ct 587 -71 609 -65 638 -65 ct 
662 -65 686 -68 710 -75 ct 735 -82 760 -93 786 -107 ct 786 -21 l  759 -11 733 -4 707 1 ct 
681 6 654 9 628 9 ct 565 9 516 -7 482 -39 ct 447 -71 429 -116 429 -174 ct 429 -230 446 -275 481 -307 ct 
515 -340 562 -356 622 -356 ct 676 -356 720 -340 753 -307 ct 786 -274 802 -230 802 -175 ct 
p
688 -212 m  688 -233 682 -250 669 -263 ct 657 -276 641 -282 621 -282 ct 600 -282 582 -276 569 -264 ct 
555 -252 547 -234 544 -212 ct 688 -212 l  p ef
1043 -156 m  1020 -156 1002 -152 991 -144 ct 979 -136 973 -125 973 -110 ct 973 -96 978 -85 987 -77 ct 
997 -69 1010 -65 1027 -65 ct 1047 -65 1065 -72 1079 -87 ct 1094 -102 1101 -121 1101 -143 ct 
1101 -156 l  1043 -156 l  p
1213 -198 m  1213 0 l  1101 0 l  1101 -52 l  1086 -30 1069 -15 1050 -5 ct 
1032 4 1009 9 983 9 ct 947 9 917 -1 895 -22 ct 873 -43 861 -71 861 -104 ct 861 -145 875 -175 903 -194 ct 
931 -213 975 -222 1035 -222 ct 1101 -222 l  1101 -231 l  1101 -249 1094 -262 1080 -270 ct 
1066 -278 1044 -282 1015 -282 ct 991 -282 969 -280 949 -275 ct 928 -270 909 -263 892 -253 ct 
892 -338 l  915 -344 939 -349 963 -352 ct 987 -355 1011 -356 1035 -356 ct 1098 -356 1143 -344 1171 -319 ct 
1199 -294 1213 -254 1213 -198 ct p ef
1573 -253 m  1564 -258 1554 -261 1544 -263 ct 1535 -265 1525 -266 1515 -266 ct 
1487 -266 1465 -257 1449 -239 ct 1434 -221 1426 -194 1426 -160 ct 1426 0 l  1315 0 l 
1315 -348 l  1426 -348 l  1426 -291 l  1441 -313 1457 -330 1475 -340 ct 1494 -351 1516 -356 1542 -356 ct 
1546 -356 1550 -356 1554 -356 ct 1558 -355 1565 -355 1573 -354 ct 1573 -253 l 
p ef
1869 -83 m  1975 -83 l  1975 -382 l  1867 -360 l  1867 -441 l  1974 -464 l 
2088 -464 l  2088 -83 l  2193 -83 l  2193 0 l  1869 0 l  1869 -83 l  p ef
pom
0.000 c 9204 3880 m  14177 3880 l  14177 4878 l  9204 4878 l  9204 3880 l 
p ef
pum
10574 4598 t
0.996 c -6 -464 m  124 -464 l  230 -298 l  335 -464 l  466 -464 l  290 -195 l 
290 0 l  170 0 l  170 -195 l  -6 -464 l  p ef
802 -175 m  802 -143 l  542 -143 l  545 -117 555 -97 571 -84 ct 587 -71 609 -65 638 -65 ct 
662 -65 686 -68 710 -75 ct 735 -82 760 -93 786 -107 ct 786 -21 l  759 -11 733 -4 707 1 ct 
681 6 654 9 628 9 ct 565 9 516 -7 482 -39 ct 447 -71 429 -116 429 -174 ct 429 -230 446 -275 481 -307 ct 
515 -340 562 -356 622 -356 ct 676 -356 720 -340 753 -307 ct 786 -274 802 -230 802 -175 ct 
p
688 -212 m  688 -233 682 -250 669 -263 ct 657 -276 641 -282 621 -282 ct 600 -282 582 -276 569 -264 ct 
555 -252 547 -234 544 -212 ct 688 -212 l  p ef
1043 -156 m  1020 -156 1002 -152 991 -144 ct 979 -136 973 -125 973 -110 ct 973 -96 978 -85 987 -77 ct 
997 -69 1010 -65 1027 -65 ct 1047 -65 1065 -72 1079 -87 ct 1094 -102 1101 -121 1101 -143 ct 
1101 -156 l  1043 -156 l  p
1213 -198 m  1213 0 l  1101 0 l  1101 -52 l  1086 -30 1069 -15 1050 -5 ct 
1032 4 1009 9 983 9 ct 947 9 917 -1 895 -22 ct 873 -43 861 -71 861 -104 ct 861 -145 875 -175 903 -194 ct 
931 -213 975 -222 1035 -222 ct 1101 -222 l  1101 -231 l  1101 -249 1094 -262 1080 -270 ct 
1066 -278 1044 -282 1015 -282 ct 991 -282 969 -280 949 -275 ct 928 -270 909 -263 892 -253 ct 
892 -338 l  915 -344 939 -349 963 -352 ct 987 -355 1011 -356 1035 -356 ct 1098 -356 1143 -344 1171 -319 ct 
1199 -294 1213 -254 1213 -198 ct p ef
1573 -253 m  1564 -258 1554 -261 1544 -263 ct 1535 -265 1525 -266 1515 -266 ct 
1487 -266 1465 -257 1449 -239 ct 1434 -221 1426 -194 1426 -160 ct 1426 0 l  1315 0 l 
1315 -348 l  1426 -348 l  1426 -291 l  1441 -313 1457 -330 1475 -340 ct 1494 -351 1516 -356 1542 -356 ct 
1546 -356 1550 -356 1554 -356 ct 1558 -355 1565 -355 1573 -354 ct 1573 -253 l 
p ef
1978 -88 m  2182 -88 l  2182 0 l  1845 0 l  1845 -88 l  2014 -237 l  2029 -251 2040 -264 2048 -277 ct 
2055 -290 2059 -304 2059 -318 ct 2059 -339 2051 -357 2037 -370 ct 2022 -383 2003 -390 1979 -390 ct 
1960 -390 1940 -386 1917 -378 ct 1895 -370 1872 -358 1846 -343 ct 1846 -444 l 
1873 -453 1900 -460 1926 -465 ct 1952 -469 1978 -472 2003 -472 ct 2059 -472 2102 -459 2133 -435 ct 
2163 -411 2179 -377 2179 -333 ct 2179 -308 2172 -284 2159 -262 ct 2146 -241 2119 -211 2077 -175 ct 
1978 -88 l  p ef
pom
0.000 c 14177 3880 m  19149 3880 l  19149 4878 l  14177 4878 l  14177 3880 l 
p ef
pum
15546 4598 t
0.996 c -6 -464 m  124 -464 l  230 -298 l  335 -464 l  466 -464 l  290 -195 l 
290 0 l  170 0 l  170 -195 l  -6 -464 l  p ef
802 -175 m  802 -143 l  542 -143 l  545 -117 555 -97 571 -84 ct 587 -71 609 -65 638 -65 ct 
662 -65 686 -68 710 -75 ct 735 -82 760 -93 786 -107 ct 786 -21 l  759 -11 733 -4 707 1 ct 
681 6 654 9 628 9 ct 565 9 516 -7 482 -39 ct 447 -71 429 -116 429 -174 ct 429 -230 446 -275 481 -307 ct 
515 -340 562 -356 622 -356 ct 676 -356 720 -340 753 -307 ct 786 -274 802 -230 802 -175 ct 
p
688 -212 m  688 -233 682 -250 669 -263 ct 657 -276 641 -282 621 -282 ct 600 -282 582 -276 569 -264 ct 
555 -252 547 -234 544 -212 ct 688 -212 l  p ef
1043 -156 m  1020 -156 1002 -152 991 -144 ct 979 -136 973 -125 973 -110 ct 973 -96 978 -85 987 -77 ct 
997 -69 1010 -65 1027 -65 ct 1047 -65 1065 -72 1079 -87 ct 1094 -102 1101 -121 1101 -143 ct 
1101 -156 l  1043 -156 l  p
1213 -198 m  1213 0 l  1101 0 l  1101 -52 l  1086 -30 1069 -15 1050 -5 ct 
1032 4 1009 9 983 9 ct 947 9 917 -1 895 -22 ct 873 -43 861 -71 861 -104 ct 861 -145 875 -175 903 -194 ct 
931 -213 975 -222 1035 -222 ct 1101 -222 l  1101 -231 l  1101 -249 1094 -262 1080 -270 ct 
1066 -278 1044 -282 1015 -282 ct 991 -282 969 -280 949 -275 ct 928 -270 909 -263 892 -253 ct 
892 -338 l  915 -344 939 -349 963 -352 ct 987 -355 1011 -356 1035 -356 ct 1098 -356 1143 -344 1171 -319 ct 
1199 -294 1213 -254 1213 -198 ct p ef
1573 -253 m  1564 -258 1554 -261 1544 -263 ct 1535 -265 1525 -266 1515 -266 ct 
1487 -266 1465 -257 1449 -239 ct 1434 -221 1426 -194 1426 -160 ct 1426 0 l  1315 0 l 
1315 -348 l  1426 -348 l  1426 -291 l  1441 -313 1457 -330 1475 -340 ct 1494 -351 1516 -356 1542 -356 ct 
1546 -356 1550 -356 1554 -356 ct 1558 -355 1565 -355 1573 -354 ct 1573 -253 l 
p ef
2091 -250 m  2122 -242 2146 -228 2162 -208 ct 2178 -188 2186 -162 2186 -132 ct 
2186 -86 2169 -51 2134 -27 ct 2098 -3 2047 9 1980 9 ct 1956 9 1932 7 1908 3 ct 
1884 -1 1861 -6 1837 -14 ct 1837 -106 l  1860 -95 1882 -87 1904 -81 ct 1926 -75 1948 -72 1969 -72 ct 
2001 -72 2025 -78 2042 -89 ct 2059 -100 2067 -115 2067 -136 ct 2067 -157 2058 -173 2041 -184 ct 
2024 -195 1998 -200 1965 -200 ct 1917 -200 l  1917 -277 l  1967 -277 l  1997 -277 2019 -282 2034 -291 ct 
2049 -301 2056 -315 2056 -334 ct 2056 -352 2049 -366 2035 -375 ct 2020 -385 2000 -390 1974 -390 ct 
1955 -390 1936 -388 1916 -383 ct 1896 -379 1877 -373 1857 -364 ct 1857 -452 l 
1881 -458 1904 -463 1927 -467 ct 1951 -470 1973 -472 1996 -472 ct 2056 -472 2101 -462 2131 -442 ct 
2161 -422 2175 -392 2175 -353 ct 2175 -326 2168 -303 2154 -286 ct 2140 -269 2119 -257 2091 -250 ct 
p ef
pom
0.898 c 4232 4878 m  9204 4878 l  9204 7344 l  4232 7344 l  4232 4878 l 
p ef
pum
4511 5962 t
0.000 c 340 -448 m  340 -387 l  316 -399 294 -407 273 -413 ct 251 -418 231 -421 211 -421 ct 
177 -421 151 -414 133 -401 ct 114 -388 105 -369 105 -345 ct 105 -324 111 -309 123 -298 ct 
136 -288 159 -279 193 -273 ct 231 -265 l  278 -256 312 -241 334 -218 ct 357 -196 368 -166 368 -128 ct 
368 -83 353 -49 323 -26 ct 293 -3 248 9 190 9 ct 168 9 145 7 120 2 ct 96 -3 70 -11 44 -20 ct 
44 -85 l  69 -71 94 -60 118 -53 ct 143 -46 167 -42 190 -42 ct 226 -42 254 -49 273 -63 ct 
293 -77 302 -97 302 -123 ct 302 -146 295 -164 281 -177 ct 267 -189 245 -199 213 -206 ct 
175 -213 l  128 -222 94 -237 73 -257 ct 52 -277 42 -304 42 -340 ct 42 -381 56 -413 85 -437 ct 
114 -460 154 -472 204 -472 ct 226 -472 248 -470 271 -466 ct 293 -462 316 -456 340 -448 ct 
p ef
456 -137 m  456 -348 l  513 -348 l  513 -139 l  513 -106 519 -82 532 -65 ct 
545 -49 564 -41 590 -41 ct 621 -41 645 -50 663 -70 ct 681 -90 690 -117 690 -151 ct 
690 -348 l  747 -348 l  747 0 l  690 0 l  690 -53 l  676 -32 660 -17 642 -6 ct 
623 4 602 9 578 9 ct 538 9 508 -3 487 -28 ct 466 -53 456 -89 456 -137 ct p
p ef
864 -483 m  921 -483 l  921 0 l  864 0 l  864 -483 l  p ef
1292 -334 m  1292 -281 l  1276 -290 1259 -296 1243 -301 ct 1227 -305 1211 -308 1194 -308 ct 
1157 -308 1128 -296 1108 -272 ct 1087 -249 1077 -216 1077 -174 ct 1077 -131 1087 -98 1108 -75 ct 
1128 -51 1157 -39 1194 -39 ct 1211 -39 1227 -42 1243 -46 ct 1259 -51 1276 -57 1292 -66 ct 
1292 -13 l  1276 -6 1259 0 1242 3 ct 1225 7 1207 9 1188 9 ct 1136 9 1094 -7 1063 -40 ct 
1032 -73 1017 -118 1017 -174 ct 1017 -230 1033 -275 1064 -307 ct 1095 -340 1137 -356 1192 -356 ct 
1209 -356 1226 -354 1243 -351 ct 1260 -347 1276 -342 1292 -334 ct p ef
1389 -348 m  1446 -348 l  1446 0 l  1389 0 l  1389 -348 l  p
1389 -483 m  1446 -483 l  1446 -411 l  1389 -411 l  1389 -483 l  p ef
1928 -175 m  1882 -175 1850 -170 1832 -159 ct 1814 -149 1805 -131 1805 -105 ct 
1805 -85 1812 -69 1825 -57 ct 1839 -45 1857 -39 1880 -39 ct 1911 -39 1937 -50 1956 -73 ct 
1975 -95 1984 -125 1984 -162 ct 1984 -175 l  1928 -175 l  p
2041 -198 m  2041 0 l  1984 0 l  1984 -53 l  1971 -32 1955 -16 1936 -6 ct 
1916 4 1893 9 1864 9 ct 1829 9 1801 -1 1780 -21 ct 1759 -41 1748 -68 1748 -101 ct 
1748 -140 1761 -170 1787 -190 ct 1814 -210 1853 -220 1904 -220 ct 1984 -220 l 
1984 -225 l  1984 -251 1976 -272 1959 -286 ct 1941 -300 1917 -308 1886 -308 ct 
1866 -308 1847 -305 1828 -300 ct 1809 -296 1791 -289 1774 -279 ct 1774 -332 l 
1794 -340 1815 -346 1834 -350 ct 1854 -354 1873 -356 1892 -356 ct 1942 -356 1979 -343 2004 -317 ct 
2029 -291 2041 -251 2041 -198 ct p ef
2449 -210 m  2449 0 l  2391 0 l  2391 -208 l  2391 -241 2385 -265 2372 -282 ct 
2359 -298 2340 -306 2315 -306 ct 2284 -306 2259 -297 2242 -277 ct 2224 -257 2215 -230 2215 -196 ct 
2215 0 l  2158 0 l  2158 -348 l  2215 -348 l  2215 -294 l  2229 -315 2245 -330 2263 -340 ct 
2282 -351 2303 -356 2327 -356 ct 2367 -356 2397 -344 2418 -319 ct 2438 -294 2449 -258 2449 -210 ct 
p ef
2790 -295 m  2790 -483 l  2847 -483 l  2847 0 l  2790 0 l  2790 -52 l 
2778 -31 2763 -16 2745 -6 ct 2727 4 2705 9 2679 9 ct 2637 9 2603 -8 2577 -41 ct 
2550 -75 2537 -119 2537 -174 ct 2537 -228 2550 -272 2577 -306 ct 2603 -339 2637 -356 2679 -356 ct 
2705 -356 2727 -351 2745 -341 ct 2763 -331 2778 -316 2790 -295 ct p
2596 -174 m  2596 -132 2605 -99 2622 -75 ct 2639 -51 2663 -39 2693 -39 ct 2723 -39 2747 -51 2764 -75 ct 
2782 -99 2790 -132 2790 -174 ct 2790 -216 2782 -248 2764 -272 ct 2747 -296 2723 -308 2693 -308 ct 
2663 -308 2639 -296 2622 -272 ct 2605 -248 2596 -216 2596 -174 ct p ef
3485 -66 m  3485 -190 l  3383 -190 l  3383 -242 l  3547 -242 l  3547 -43 l 
3523 -26 3496 -13 3467 -4 ct 3438 5 3407 9 3374 9 ct 3301 9 3245 -12 3204 -55 ct 
3163 -97 3143 -156 3143 -231 ct 3143 -307 3163 -366 3204 -409 ct 3245 -451 3301 -472 3374 -472 ct 
3404 -472 3433 -468 3460 -461 ct 3487 -453 3512 -442 3535 -428 ct 3535 -361 l 
3512 -381 3487 -396 3461 -406 ct 3435 -416 3408 -420 3379 -420 ct 3322 -420 3280 -405 3251 -373 ct 
3223 -341 3209 -294 3209 -231 ct 3209 -169 3223 -122 3251 -90 ct 3280 -58 3322 -43 3379 -43 ct 
3401 -43 3421 -44 3438 -48 ct 3456 -52 3471 -58 3485 -66 ct p ef
3802 32 m  3786 73 3770 100 3755 113 ct 3740 126 3719 132 3694 132 ct 3648 132 l 
3648 84 l  3682 84 l  3697 84 3710 80 3718 73 ct 3727 66 3737 48 3747 20 ct 
3757 -6 l  3617 -348 l  3677 -348 l  3786 -76 l  3894 -348 l  3955 -348 l 
3802 32 l  p ef
4235 -294 m  4229 -298 4222 -301 4214 -302 ct 4207 -304 4198 -305 4189 -305 ct 
4157 -305 4132 -295 4115 -274 ct 4098 -253 4089 -222 4089 -183 ct 4089 0 l  4032 0 l 
4032 -348 l  4089 -348 l  4089 -294 l  4101 -315 4117 -330 4136 -341 ct 4155 -351 4178 -356 4206 -356 ct 
4210 -356 4214 -356 4219 -355 ct 4224 -355 4229 -354 4235 -353 ct 4235 -294 l 
p ef
4297 -348 m  4354 -348 l  4354 0 l  4297 0 l  4297 -348 l  p
4297 -483 m  4354 -483 l  4354 -411 l  4297 -411 l  4297 -483 l  p ef
pom
pum
4947 6699 t
378 -66 m  378 -190 l  276 -190 l  276 -242 l  440 -242 l  440 -43 l  416 -26 389 -13 360 -4 ct 
331 5 300 9 267 9 ct 194 9 138 -12 97 -55 ct 56 -97 36 -156 36 -231 ct 36 -307 56 -366 97 -409 ct 
138 -451 194 -472 267 -472 ct 297 -472 326 -468 353 -461 ct 380 -453 405 -442 428 -428 ct 
428 -361 l  405 -381 380 -396 354 -406 ct 328 -416 301 -420 272 -420 ct 215 -420 173 -405 144 -373 ct 
116 -341 102 -294 102 -231 ct 102 -169 116 -122 144 -90 ct 173 -58 215 -43 272 -43 ct 
294 -43 314 -44 331 -48 ct 349 -52 364 -58 378 -66 ct p ef
848 -188 m  848 -160 l  586 -160 l  588 -121 600 -91 621 -70 ct 642 -50 672 -39 710 -39 ct 
732 -39 753 -42 773 -47 ct 794 -53 814 -61 835 -72 ct 835 -18 l  814 -9 793 -2 772 2 ct 
750 7 728 9 706 9 ct 651 9 607 -7 575 -39 ct 542 -72 526 -115 526 -170 ct 526 -227 541 -272 572 -306 ct 
603 -339 644 -356 696 -356 ct 743 -356 780 -341 807 -311 ct 834 -281 848 -240 848 -188 ct 
p
791 -204 m  790 -236 782 -261 765 -280 ct 748 -298 725 -308 697 -308 ct 665 -308 640 -299 620 -281 ct 
601 -263 590 -237 587 -204 ct 791 -204 l  p ef
1230 -210 m  1230 0 l  1172 0 l  1172 -208 l  1172 -241 1166 -265 1153 -282 ct 
1140 -298 1121 -306 1096 -306 ct 1065 -306 1040 -297 1023 -277 ct 1005 -257 996 -230 996 -196 ct 
996 0 l  939 0 l  939 -348 l  996 -348 l  996 -294 l  1010 -315 1026 -330 1044 -340 ct 
1063 -351 1084 -356 1108 -356 ct 1148 -356 1178 -344 1199 -319 ct 1219 -294 1230 -258 1230 -210 ct 
p ef
1640 -188 m  1640 -160 l  1378 -160 l  1380 -121 1392 -91 1413 -70 ct 1434 -50 1464 -39 1502 -39 ct 
1524 -39 1545 -42 1565 -47 ct 1586 -53 1606 -61 1627 -72 ct 1627 -18 l  1606 -9 1585 -2 1564 2 ct 
1542 7 1520 9 1498 9 ct 1443 9 1399 -7 1367 -39 ct 1334 -72 1318 -115 1318 -170 ct 
1318 -227 1333 -272 1364 -306 ct 1395 -339 1436 -356 1488 -356 ct 1535 -356 1572 -341 1599 -311 ct 
1626 -281 1640 -240 1640 -188 ct p
1583 -204 m  1582 -236 1574 -261 1557 -280 ct 1540 -298 1517 -308 1489 -308 ct 
1457 -308 1432 -299 1412 -281 ct 1393 -263 1382 -237 1379 -204 ct 1583 -204 l 
p ef
1933 -294 m  1927 -298 1920 -301 1912 -302 ct 1905 -304 1896 -305 1887 -305 ct 
1855 -305 1830 -295 1813 -274 ct 1796 -253 1787 -222 1787 -183 ct 1787 0 l  1730 0 l 
1730 -348 l  1787 -348 l  1787 -294 l  1799 -315 1815 -330 1834 -341 ct 1853 -351 1876 -356 1904 -356 ct 
1908 -356 1912 -356 1917 -355 ct 1922 -355 1927 -354 1933 -353 ct 1933 -294 l 
p ef
2153 -175 m  2107 -175 2075 -170 2057 -159 ct 2039 -149 2030 -131 2030 -105 ct 
2030 -85 2037 -69 2050 -57 ct 2064 -45 2082 -39 2105 -39 ct 2136 -39 2162 -50 2181 -73 ct 
2200 -95 2209 -125 2209 -162 ct 2209 -175 l  2153 -175 l  p
2266 -198 m  2266 0 l  2209 0 l  2209 -53 l  2196 -32 2180 -16 2161 -6 ct 
2141 4 2118 9 2089 9 ct 2054 9 2026 -1 2005 -21 ct 1984 -41 1973 -68 1973 -101 ct 
1973 -140 1986 -170 2012 -190 ct 2039 -210 2078 -220 2129 -220 ct 2209 -220 l 
2209 -225 l  2209 -251 2201 -272 2184 -286 ct 2166 -300 2142 -308 2111 -308 ct 
2091 -308 2072 -305 2053 -300 ct 2034 -296 2016 -289 1999 -279 ct 1999 -332 l 
2019 -340 2040 -346 2059 -350 ct 2079 -354 2098 -356 2117 -356 ct 2167 -356 2204 -343 2229 -317 ct 
2254 -291 2266 -251 2266 -198 ct p ef
2440 -447 m  2440 -347 l  2558 -347 l  2558 -303 l  2440 -303 l  2440 -114 l 
2440 -86 2444 -68 2452 -60 ct 2460 -52 2475 -48 2499 -48 ct 2558 -48 l  2558 0 l 
2499 0 l  2455 0 2425 -8 2408 -25 ct 2391 -41 2383 -71 2383 -114 ct 2383 -303 l 
2341 -303 l  2341 -347 l  2383 -347 l  2383 -447 l  2440 -447 l  p ef
2634 -348 m  2691 -348 l  2691 0 l  2634 0 l  2634 -348 l  p
2634 -483 m  2691 -483 l  2691 -411 l  2634 -411 l  2634 -483 l  p ef
2946 -308 m  2916 -308 2892 -296 2874 -272 ct 2856 -248 2847 -215 2847 -174 ct 
2847 -132 2856 -99 2874 -75 ct 2891 -51 2916 -39 2946 -39 ct 2977 -39 3001 -51 3019 -75 ct 
3036 -99 3045 -132 3045 -174 ct 3045 -215 3036 -247 3019 -271 ct 3001 -296 2977 -308 2946 -308 ct 
p
2946 -356 m  2996 -356 3035 -340 3063 -308 ct 3092 -275 3106 -231 3106 -174 ct 
3106 -117 3092 -72 3063 -40 ct 3035 -7 2996 9 2946 9 ct 2897 9 2858 -7 2829 -40 ct 
2801 -72 2787 -117 2787 -174 ct 2787 -231 2801 -275 2829 -308 ct 2858 -340 2897 -356 2946 -356 ct 
p ef
3490 -210 m  3490 0 l  3432 0 l  3432 -208 l  3432 -241 3426 -265 3413 -282 ct 
3400 -298 3381 -306 3356 -306 ct 3325 -306 3300 -297 3283 -277 ct 3265 -257 3256 -230 3256 -196 ct 
3256 0 l  3199 0 l  3199 -348 l  3256 -348 l  3256 -294 l  3270 -315 3286 -330 3304 -340 ct 
3323 -351 3344 -356 3368 -356 ct 3408 -356 3438 -344 3459 -319 ct 3479 -294 3490 -258 3490 -210 ct 
p ef
pom
0.996 c 9204 4878 m  14177 4878 l  14177 7344 l  9204 7344 l  9204 4878 l 
p ef
14177 4878 m  19149 4878 l  19149 7344 l  14177 7344 l  14177 4878 l  p ef
0.898 c 4232 7344 m  14177 7344 l  14177 8535 l  4232 8535 l  4232 7344 l 
p ef
pum
5510 8159 t
0.000 c 340 -448 m  340 -387 l  316 -399 294 -407 273 -413 ct 251 -418 231 -421 211 -421 ct 
177 -421 151 -414 133 -401 ct 114 -388 105 -369 105 -345 ct 105 -324 111 -309 123 -298 ct 
136 -288 159 -279 193 -273 ct 231 -265 l  278 -256 312 -241 334 -218 ct 357 -196 368 -166 368 -128 ct 
368 -83 353 -49 323 -26 ct 293 -3 248 9 190 9 ct 168 9 145 7 120 2 ct 96 -3 70 -11 44 -20 ct 
44 -85 l  69 -71 94 -60 118 -53 ct 143 -46 167 -42 190 -42 ct 226 -42 254 -49 273 -63 ct 
293 -77 302 -97 302 -123 ct 302 -146 295 -164 281 -177 ct 267 -189 245 -199 213 -206 ct 
175 -213 l  128 -222 94 -237 73 -257 ct 52 -277 42 -304 42 -340 ct 42 -381 56 -413 85 -437 ct 
114 -460 154 -472 204 -472 ct 226 -472 248 -470 271 -466 ct 293 -462 316 -456 340 -448 ct 
p ef
751 -210 m  751 0 l  693 0 l  693 -208 l  693 -241 687 -265 674 -282 ct 661 -298 642 -306 617 -306 ct 
586 -306 561 -297 544 -277 ct 526 -257 517 -230 517 -196 ct 517 0 l  460 0 l 
460 -483 l  517 -483 l  517 -294 l  531 -315 547 -330 565 -340 ct 584 -351 605 -356 629 -356 ct 
669 -356 699 -344 720 -319 ct 740 -294 751 -258 751 -210 ct p ef
1022 -175 m  976 -175 944 -170 926 -159 ct 908 -149 899 -131 899 -105 ct 899 -85 906 -69 919 -57 ct 
933 -45 951 -39 974 -39 ct 1005 -39 1031 -50 1050 -73 ct 1069 -95 1078 -125 1078 -162 ct 
1078 -175 l  1022 -175 l  p
1135 -198 m  1135 0 l  1078 0 l  1078 -53 l  1065 -32 1049 -16 1030 -6 ct 
1010 4 987 9 958 9 ct 923 9 895 -1 874 -21 ct 853 -41 842 -68 842 -101 ct 842 -140 855 -170 881 -190 ct 
908 -210 947 -220 998 -220 ct 1078 -220 l  1078 -225 l  1078 -251 1070 -272 1053 -286 ct 
1035 -300 1011 -308 980 -308 ct 960 -308 941 -305 922 -300 ct 903 -296 885 -289 868 -279 ct 
868 -332 l  888 -340 909 -346 928 -350 ct 948 -354 967 -356 986 -356 ct 1036 -356 1073 -343 1098 -317 ct 
1123 -291 1135 -251 1135 -198 ct p ef
1309 -52 m  1309 132 l  1252 132 l  1252 -348 l  1309 -348 l  1309 -295 l 
1321 -316 1336 -331 1354 -341 ct 1373 -351 1395 -356 1420 -356 ct 1462 -356 1496 -339 1523 -306 ct 
1549 -272 1562 -228 1562 -174 ct 1562 -119 1549 -75 1523 -41 ct 1496 -8 1462 9 1420 9 ct 
1395 9 1373 4 1354 -6 ct 1336 -16 1321 -32 1309 -52 ct p
1503 -174 m  1503 -216 1495 -248 1477 -272 ct 1460 -296 1436 -308 1406 -308 ct 
1376 -308 1352 -296 1335 -272 ct 1318 -248 1309 -216 1309 -174 ct 1309 -132 1318 -99 1335 -75 ct 
1352 -51 1376 -39 1406 -39 ct 1436 -39 1460 -51 1477 -75 ct 1495 -99 1503 -132 1503 -174 ct 
p ef
1953 -188 m  1953 -160 l  1691 -160 l  1693 -121 1705 -91 1726 -70 ct 1747 -50 1777 -39 1815 -39 ct 
1837 -39 1858 -42 1878 -47 ct 1899 -53 1919 -61 1940 -72 ct 1940 -18 l  1919 -9 1898 -2 1877 2 ct 
1855 7 1833 9 1811 9 ct 1756 9 1712 -7 1680 -39 ct 1647 -72 1631 -115 1631 -170 ct 
1631 -227 1646 -272 1677 -306 ct 1708 -339 1749 -356 1801 -356 ct 1848 -356 1885 -341 1912 -311 ct 
1939 -281 1953 -240 1953 -188 ct p
1896 -204 m  1895 -236 1887 -261 1870 -280 ct 1853 -298 1830 -308 1802 -308 ct 
1770 -308 1745 -299 1725 -281 ct 1706 -263 1695 -237 1692 -204 ct 1896 -204 l 
p ef
2406 -402 m  2321 -171 l  2491 -171 l  2406 -402 l  p
2371 -464 m  2442 -464 l  2618 0 l  2553 0 l  2511 -119 l  2302 -119 l 
2260 0 l  2194 0 l  2371 -464 l  p ef
2974 -210 m  2974 0 l  2916 0 l  2916 -208 l  2916 -241 2910 -265 2897 -282 ct 
2884 -298 2865 -306 2840 -306 ct 2809 -306 2784 -297 2767 -277 ct 2749 -257 2740 -230 2740 -196 ct 
2740 0 l  2683 0 l  2683 -348 l  2740 -348 l  2740 -294 l  2754 -315 2770 -330 2788 -340 ct 
2807 -351 2828 -356 2852 -356 ct 2892 -356 2922 -344 2943 -319 ct 2963 -294 2974 -258 2974 -210 ct 
p ef
3245 -175 m  3199 -175 3167 -170 3149 -159 ct 3131 -149 3122 -131 3122 -105 ct 
3122 -85 3129 -69 3142 -57 ct 3156 -45 3174 -39 3197 -39 ct 3228 -39 3254 -50 3273 -73 ct 
3292 -95 3301 -125 3301 -162 ct 3301 -175 l  3245 -175 l  p
3358 -198 m  3358 0 l  3301 0 l  3301 -53 l  3288 -32 3272 -16 3253 -6 ct 
3233 4 3210 9 3181 9 ct 3146 9 3118 -1 3097 -21 ct 3076 -41 3065 -68 3065 -101 ct 
3065 -140 3078 -170 3104 -190 ct 3131 -210 3170 -220 3221 -220 ct 3301 -220 l 
3301 -225 l  3301 -251 3293 -272 3276 -286 ct 3258 -300 3234 -308 3203 -308 ct 
3183 -308 3164 -305 3145 -300 ct 3126 -296 3108 -289 3091 -279 ct 3091 -332 l 
3111 -340 3132 -346 3151 -350 ct 3171 -354 3190 -356 3209 -356 ct 3259 -356 3296 -343 3321 -317 ct 
3346 -291 3358 -251 3358 -198 ct p ef
3476 -483 m  3533 -483 l  3533 0 l  3476 0 l  3476 -483 l  p ef
3798 32 m  3782 73 3766 100 3751 113 ct 3736 126 3715 132 3690 132 ct 3644 132 l 
3644 84 l  3678 84 l  3693 84 3706 80 3714 73 ct 3723 66 3733 48 3743 20 ct 
3753 -6 l  3613 -348 l  3673 -348 l  3782 -76 l  3890 -348 l  3951 -348 l 
3798 32 l  p ef
4251 -337 m  4251 -283 l  4235 -292 4218 -298 4201 -302 ct 4184 -306 4166 -308 4147 -308 ct 
4119 -308 4097 -304 4083 -295 ct 4069 -286 4062 -273 4062 -256 ct 4062 -243 4067 -232 4077 -225 ct 
4087 -217 4108 -210 4138 -203 ct 4158 -199 l  4198 -190 4227 -178 4244 -162 ct 
4261 -146 4270 -124 4270 -96 ct 4270 -64 4257 -38 4232 -19 ct 4206 0 4171 9 4126 9 ct 
4108 9 4088 7 4068 4 ct 4048 0 4027 -5 4004 -13 ct 4004 -72 l  4026 -61 4046 -53 4067 -47 ct 
4087 -42 4107 -39 4128 -39 ct 4154 -39 4175 -43 4190 -53 ct 4204 -62 4211 -75 4211 -92 ct 
4211 -107 4206 -119 4196 -127 ct 4185 -136 4162 -144 4127 -151 ct 4107 -156 l 
4072 -163 4046 -175 4030 -190 ct 4015 -206 4007 -227 4007 -254 ct 4007 -286 4018 -312 4042 -329 ct 
4065 -347 4098 -356 4140 -356 ct 4161 -356 4181 -354 4200 -351 ct 4218 -348 4236 -344 4251 -337 ct 
p ef
4360 -348 m  4417 -348 l  4417 0 l  4360 0 l  4360 -348 l  p
4360 -483 m  4417 -483 l  4417 -411 l  4360 -411 l  4360 -483 l  p ef
4759 -337 m  4759 -283 l  4743 -292 4726 -298 4709 -302 ct 4692 -306 4674 -308 4655 -308 ct 
4627 -308 4605 -304 4591 -295 ct 4577 -286 4570 -273 4570 -256 ct 4570 -243 4575 -232 4585 -225 ct 
4595 -217 4616 -210 4646 -203 ct 4666 -199 l  4706 -190 4735 -178 4752 -162 ct 
4769 -146 4778 -124 4778 -96 ct 4778 -64 4765 -38 4740 -19 ct 4714 0 4679 9 4634 9 ct 
4616 9 4596 7 4576 4 ct 4556 0 4535 -5 4512 -13 ct 4512 -72 l  4534 -61 4554 -53 4575 -47 ct 
4595 -42 4615 -39 4636 -39 ct 4662 -39 4683 -43 4698 -53 ct 4712 -62 4719 -75 4719 -92 ct 
4719 -107 4714 -119 4704 -127 ct 4693 -136 4670 -144 4635 -151 ct 4615 -156 l 
4580 -163 4554 -175 4538 -190 ct 4523 -206 4515 -227 4515 -254 ct 4515 -286 4526 -312 4550 -329 ct 
4573 -347 4606 -356 4648 -356 ct 4669 -356 4689 -354 4708 -351 ct 4726 -348 4744 -344 4759 -337 ct 
p ef
5073 -463 m  5167 -463 l  5285 -148 l  5404 -463 l  5497 -463 l  5497 0 l 
5436 0 l  5436 -407 l  5316 -89 l  5253 -89 l  5134 -407 l  5134 0 l  5073 0 l 
5073 -463 l  p ef
5914 -188 m  5914 -160 l  5652 -160 l  5654 -121 5666 -91 5687 -70 ct 5708 -50 5738 -39 5776 -39 ct 
5798 -39 5819 -42 5839 -47 ct 5860 -53 5880 -61 5901 -72 ct 5901 -18 l  5880 -9 5859 -2 5838 2 ct 
5816 7 5794 9 5772 9 ct 5717 9 5673 -7 5641 -39 ct 5608 -72 5592 -115 5592 -170 ct 
5592 -227 5607 -272 5638 -306 ct 5669 -339 5710 -356 5762 -356 ct 5809 -356 5846 -341 5873 -311 ct 
5900 -281 5914 -240 5914 -188 ct p
5857 -204 m  5856 -236 5848 -261 5831 -280 ct 5814 -298 5791 -308 5763 -308 ct 
5731 -308 5706 -299 5686 -281 ct 5667 -263 5656 -237 5653 -204 ct 5857 -204 l 
p ef
6063 -447 m  6063 -347 l  6181 -347 l  6181 -303 l  6063 -303 l  6063 -114 l 
6063 -86 6067 -68 6075 -60 ct 6083 -52 6098 -48 6122 -48 ct 6181 -48 l  6181 0 l 
6122 0 l  6078 0 6048 -8 6031 -25 ct 6014 -41 6006 -71 6006 -114 ct 6006 -303 l 
5964 -303 l  5964 -347 l  6006 -347 l  6006 -447 l  6063 -447 l  p ef
6546 -210 m  6546 0 l  6488 0 l  6488 -208 l  6488 -241 6482 -265 6469 -282 ct 
6456 -298 6437 -306 6412 -306 ct 6381 -306 6356 -297 6339 -277 ct 6321 -257 6312 -230 6312 -196 ct 
6312 0 l  6255 0 l  6255 -483 l  6312 -483 l  6312 -294 l  6326 -315 6342 -330 6360 -340 ct 
6379 -351 6400 -356 6424 -356 ct 6464 -356 6494 -344 6515 -319 ct 6535 -294 6546 -258 6546 -210 ct 
p ef
6793 -308 m  6763 -308 6739 -296 6721 -272 ct 6703 -248 6694 -215 6694 -174 ct 
6694 -132 6703 -99 6721 -75 ct 6738 -51 6763 -39 6793 -39 ct 6824 -39 6848 -51 6866 -75 ct 
6883 -99 6892 -132 6892 -174 ct 6892 -215 6883 -247 6866 -271 ct 6848 -296 6824 -308 6793 -308 ct 
p
6793 -356 m  6843 -356 6882 -340 6910 -308 ct 6939 -275 6953 -231 6953 -174 ct 
6953 -117 6939 -72 6910 -40 ct 6882 -7 6843 9 6793 9 ct 6744 9 6705 -7 6676 -40 ct 
6648 -72 6634 -117 6634 -174 ct 6634 -231 6648 -275 6676 -308 ct 6705 -340 6744 -356 6793 -356 ct 
p ef
7276 -295 m  7276 -483 l  7333 -483 l  7333 0 l  7276 0 l  7276 -52 l 
7264 -31 7249 -16 7231 -6 ct 7213 4 7191 9 7165 9 ct 7123 9 7089 -8 7063 -41 ct 
7036 -75 7023 -119 7023 -174 ct 7023 -228 7036 -272 7063 -306 ct 7089 -339 7123 -356 7165 -356 ct 
7191 -356 7213 -351 7231 -341 ct 7249 -331 7264 -316 7276 -295 ct p
7082 -174 m  7082 -132 7091 -99 7108 -75 ct 7125 -51 7149 -39 7179 -39 ct 7209 -39 7233 -51 7250 -75 ct 
7268 -99 7276 -132 7276 -174 ct 7276 -216 7268 -248 7250 -272 ct 7233 -296 7209 -308 7179 -308 ct 
7149 -308 7125 -296 7108 -272 ct 7091 -248 7082 -216 7082 -174 ct p ef
pom
0.996 c 14177 7344 m  19149 7344 l  19149 8535 l  14177 8535 l  14177 7344 l 
p ef
4232 8535 m  9204 8535 l  9204 9725 l  4232 9725 l  4232 8535 l  p ef
0.898 c 9204 8535 m  19149 8535 l  19149 9725 l  9204 9725 l  9204 8535 l 
p ef
pum
10495 9350 t
0.000 c 340 -448 m  340 -387 l  316 -399 294 -407 273 -413 ct 251 -418 231 -421 211 -421 ct 
177 -421 151 -414 133 -401 ct 114 -388 105 -369 105 -345 ct 105 -324 111 -309 123 -298 ct 
136 -288 159 -279 193 -273 ct 231 -265 l  278 -256 312 -241 334 -218 ct 357 -196 368 -166 368 -128 ct 
368 -83 353 -49 323 -26 ct 293 -3 248 9 190 9 ct 168 9 145 7 120 2 ct 96 -3 70 -11 44 -20 ct 
44 -85 l  69 -71 94 -60 118 -53 ct 143 -46 167 -42 190 -42 ct 226 -42 254 -49 273 -63 ct 
293 -77 302 -97 302 -123 ct 302 -146 295 -164 281 -177 ct 267 -189 245 -199 213 -206 ct 
175 -213 l  128 -222 94 -237 73 -257 ct 52 -277 42 -304 42 -340 ct 42 -381 56 -413 85 -437 ct 
114 -460 154 -472 204 -472 ct 226 -472 248 -470 271 -466 ct 293 -462 316 -456 340 -448 ct 
p ef
751 -210 m  751 0 l  693 0 l  693 -208 l  693 -241 687 -265 674 -282 ct 661 -298 642 -306 617 -306 ct 
586 -306 561 -297 544 -277 ct 526 -257 517 -230 517 -196 ct 517 0 l  460 0 l 
460 -483 l  517 -483 l  517 -294 l  531 -315 547 -330 565 -340 ct 584 -351 605 -356 629 -356 ct 
669 -356 699 -344 720 -319 ct 740 -294 751 -258 751 -210 ct p ef
1022 -175 m  976 -175 944 -170 926 -159 ct 908 -149 899 -131 899 -105 ct 899 -85 906 -69 919 -57 ct 
933 -45 951 -39 974 -39 ct 1005 -39 1031 -50 1050 -73 ct 1069 -95 1078 -125 1078 -162 ct 
1078 -175 l  1022 -175 l  p
1135 -198 m  1135 0 l  1078 0 l  1078 -53 l  1065 -32 1049 -16 1030 -6 ct 
1010 4 987 9 958 9 ct 923 9 895 -1 874 -21 ct 853 -41 842 -68 842 -101 ct 842 -140 855 -170 881 -190 ct 
908 -210 947 -220 998 -220 ct 1078 -220 l  1078 -225 l  1078 -251 1070 -272 1053 -286 ct 
1035 -300 1011 -308 980 -308 ct 960 -308 941 -305 922 -300 ct 903 -296 885 -289 868 -279 ct 
868 -332 l  888 -340 909 -346 928 -350 ct 948 -354 967 -356 986 -356 ct 1036 -356 1073 -343 1098 -317 ct 
1123 -291 1135 -251 1135 -198 ct p ef
1309 -52 m  1309 132 l  1252 132 l  1252 -348 l  1309 -348 l  1309 -295 l 
1321 -316 1336 -331 1354 -341 ct 1373 -351 1395 -356 1420 -356 ct 1462 -356 1496 -339 1523 -306 ct 
1549 -272 1562 -228 1562 -174 ct 1562 -119 1549 -75 1523 -41 ct 1496 -8 1462 9 1420 9 ct 
1395 9 1373 4 1354 -6 ct 1336 -16 1321 -32 1309 -52 ct p
1503 -174 m  1503 -216 1495 -248 1477 -272 ct 1460 -296 1436 -308 1406 -308 ct 
1376 -308 1352 -296 1335 -272 ct 1318 -248 1309 -216 1309 -174 ct 1309 -132 1318 -99 1335 -75 ct 
1352 -51 1376 -39 1406 -39 ct 1436 -39 1460 -51 1477 -75 ct 1495 -99 1503 -132 1503 -174 ct 
p ef
1953 -188 m  1953 -160 l  1691 -160 l  1693 -121 1705 -91 1726 -70 ct 1747 -50 1777 -39 1815 -39 ct 
1837 -39 1858 -42 1878 -47 ct 1899 -53 1919 -61 1940 -72 ct 1940 -18 l  1919 -9 1898 -2 1877 2 ct 
1855 7 1833 9 1811 9 ct 1756 9 1712 -7 1680 -39 ct 1647 -72 1631 -115 1631 -170 ct 
1631 -227 1646 -272 1677 -306 ct 1708 -339 1749 -356 1801 -356 ct 1848 -356 1885 -341 1912 -311 ct 
1939 -281 1953 -240 1953 -188 ct p
1896 -204 m  1895 -236 1887 -261 1870 -280 ct 1853 -298 1830 -308 1802 -308 ct 
1770 -308 1745 -299 1725 -281 ct 1706 -263 1695 -237 1692 -204 ct 1896 -204 l 
p ef
2406 -402 m  2321 -171 l  2491 -171 l  2406 -402 l  p
2371 -464 m  2442 -464 l  2618 0 l  2553 0 l  2511 -119 l  2302 -119 l 
2260 0 l  2194 0 l  2371 -464 l  p ef
2974 -210 m  2974 0 l  2916 0 l  2916 -208 l  2916 -241 2910 -265 2897 -282 ct 
2884 -298 2865 -306 2840 -306 ct 2809 -306 2784 -297 2767 -277 ct 2749 -257 2740 -230 2740 -196 ct 
2740 0 l  2683 0 l  2683 -348 l  2740 -348 l  2740 -294 l  2754 -315 2770 -330 2788 -340 ct 
2807 -351 2828 -356 2852 -356 ct 2892 -356 2922 -344 2943 -319 ct 2963 -294 2974 -258 2974 -210 ct 
p ef
3245 -175 m  3199 -175 3167 -170 3149 -159 ct 3131 -149 3122 -131 3122 -105 ct 
3122 -85 3129 -69 3142 -57 ct 3156 -45 3174 -39 3197 -39 ct 3228 -39 3254 -50 3273 -73 ct 
3292 -95 3301 -125 3301 -162 ct 3301 -175 l  3245 -175 l  p
3358 -198 m  3358 0 l  3301 0 l  3301 -53 l  3288 -32 3272 -16 3253 -6 ct 
3233 4 3210 9 3181 9 ct 3146 9 3118 -1 3097 -21 ct 3076 -41 3065 -68 3065 -101 ct 
3065 -140 3078 -170 3104 -190 ct 3131 -210 3170 -220 3221 -220 ct 3301 -220 l 
3301 -225 l  3301 -251 3293 -272 3276 -286 ct 3258 -300 3234 -308 3203 -308 ct 
3183 -308 3164 -305 3145 -300 ct 3126 -296 3108 -289 3091 -279 ct 3091 -332 l 
3111 -340 3132 -346 3151 -350 ct 3171 -354 3190 -356 3209 -356 ct 3259 -356 3296 -343 3321 -317 ct 
3346 -291 3358 -251 3358 -198 ct p ef
3476 -483 m  3533 -483 l  3533 0 l  3476 0 l  3476 -483 l  p ef
3798 32 m  3782 73 3766 100 3751 113 ct 3736 126 3715 132 3690 132 ct 3644 132 l 
3644 84 l  3678 84 l  3693 84 3706 80 3714 73 ct 3723 66 3733 48 3743 20 ct 
3753 -6 l  3613 -348 l  3673 -348 l  3782 -76 l  3890 -348 l  3951 -348 l 
3798 32 l  p ef
4251 -337 m  4251 -283 l  4235 -292 4218 -298 4201 -302 ct 4184 -306 4166 -308 4147 -308 ct 
4119 -308 4097 -304 4083 -295 ct 4069 -286 4062 -273 4062 -256 ct 4062 -243 4067 -232 4077 -225 ct 
4087 -217 4108 -210 4138 -203 ct 4158 -199 l  4198 -190 4227 -178 4244 -162 ct 
4261 -146 4270 -124 4270 -96 ct 4270 -64 4257 -38 4232 -19 ct 4206 0 4171 9 4126 9 ct 
4108 9 4088 7 4068 4 ct 4048 0 4027 -5 4004 -13 ct 4004 -72 l  4026 -61 4046 -53 4067 -47 ct 
4087 -42 4107 -39 4128 -39 ct 4154 -39 4175 -43 4190 -53 ct 4204 -62 4211 -75 4211 -92 ct 
4211 -107 4206 -119 4196 -127 ct 4185 -136 4162 -144 4127 -151 ct 4107 -156 l 
4072 -163 4046 -175 4030 -190 ct 4015 -206 4007 -227 4007 -254 ct 4007 -286 4018 -312 4042 -329 ct 
4065 -347 4098 -356 4140 -356 ct 4161 -356 4181 -354 4200 -351 ct 4218 -348 4236 -344 4251 -337 ct 
p ef
4360 -348 m  4417 -348 l  4417 0 l  4360 0 l  4360 -348 l  p
4360 -483 m  4417 -483 l  4417 -411 l  4360 -411 l  4360 -483 l  p ef
4759 -337 m  4759 -283 l  4743 -292 4726 -298 4709 -302 ct 4692 -306 4674 -308 4655 -308 ct 
4627 -308 4605 -304 4591 -295 ct 4577 -286 4570 -273 4570 -256 ct 4570 -243 4575 -232 4585 -225 ct 
4595 -217 4616 -210 4646 -203 ct 4666 -199 l  4706 -190 4735 -178 4752 -162 ct 
4769 -146 4778 -124 4778 -96 ct 4778 -64 4765 -38 4740 -19 ct 4714 0 4679 9 4634 9 ct 
4616 9 4596 7 4576 4 ct 4556 0 4535 -5 4512 -13 ct 4512 -72 l  4534 -61 4554 -53 4575 -47 ct 
4595 -42 4615 -39 4636 -39 ct 4662 -39 4683 -43 4698 -53 ct 4712 -62 4719 -75 4719 -92 ct 
4719 -107 4714 -119 4704 -127 ct 4693 -136 4670 -144 4635 -151 ct 4615 -156 l 
4580 -163 4554 -175 4538 -190 ct 4523 -206 4515 -227 4515 -254 ct 4515 -286 4526 -312 4550 -329 ct 
4573 -347 4606 -356 4648 -356 ct 4669 -356 4689 -354 4708 -351 ct 4726 -348 4744 -344 4759 -337 ct 
p ef
5351 -448 m  5351 -387 l  5327 -399 5305 -407 5284 -413 ct 5262 -418 5242 -421 5222 -421 ct 
5188 -421 5162 -414 5144 -401 ct 5125 -388 5116 -369 5116 -345 ct 5116 -324 5122 -309 5134 -298 ct 
5147 -288 5170 -279 5204 -273 ct 5242 -265 l  5289 -256 5323 -241 5345 -218 ct 
5368 -196 5379 -166 5379 -128 ct 5379 -83 5364 -49 5334 -26 ct 5304 -3 5259 9 5201 9 ct 
5179 9 5156 7 5131 2 ct 5107 -3 5081 -11 5055 -20 ct 5055 -85 l  5080 -71 5105 -60 5129 -53 ct 
5154 -46 5178 -42 5201 -42 ct 5237 -42 5265 -49 5284 -63 ct 5304 -77 5313 -97 5313 -123 ct 
5313 -146 5306 -164 5292 -177 ct 5278 -189 5256 -199 5224 -206 ct 5186 -213 l 
5139 -222 5105 -237 5084 -257 ct 5063 -277 5053 -304 5053 -340 ct 5053 -381 5067 -413 5096 -437 ct 
5125 -460 5165 -472 5215 -472 ct 5237 -472 5259 -470 5282 -466 ct 5304 -462 5327 -456 5351 -448 ct 
p ef
5529 -447 m  5529 -347 l  5647 -347 l  5647 -303 l  5529 -303 l  5529 -114 l 
5529 -86 5533 -68 5541 -60 ct 5549 -52 5564 -48 5588 -48 ct 5647 -48 l  5647 0 l 
5588 0 l  5544 0 5514 -8 5497 -25 ct 5480 -41 5472 -71 5472 -114 ct 5472 -303 l 
5430 -303 l  5430 -347 l  5472 -347 l  5472 -447 l  5529 -447 l  p ef
5717 -137 m  5717 -348 l  5774 -348 l  5774 -139 l  5774 -106 5780 -82 5793 -65 ct 
5806 -49 5825 -41 5851 -41 ct 5882 -41 5906 -50 5924 -70 ct 5942 -90 5951 -117 5951 -151 ct 
5951 -348 l  6008 -348 l  6008 0 l  5951 0 l  5951 -53 l  5937 -32 5921 -17 5903 -6 ct 
5884 4 5863 9 5839 9 ct 5799 9 5769 -3 5748 -28 ct 5727 -53 5717 -89 5717 -137 ct 
p
p ef
6353 -295 m  6353 -483 l  6410 -483 l  6410 0 l  6353 0 l  6353 -52 l 
6341 -31 6326 -16 6308 -6 ct 6290 4 6268 9 6242 9 ct 6200 9 6166 -8 6140 -41 ct 
6113 -75 6100 -119 6100 -174 ct 6100 -228 6113 -272 6140 -306 ct 6166 -339 6200 -356 6242 -356 ct 
6268 -356 6290 -351 6308 -341 ct 6326 -331 6341 -316 6353 -295 ct p
6159 -174 m  6159 -132 6168 -99 6185 -75 ct 6202 -51 6226 -39 6256 -39 ct 6286 -39 6310 -51 6327 -75 ct 
6345 -99 6353 -132 6353 -174 ct 6353 -216 6345 -248 6327 -272 ct 6310 -296 6286 -308 6256 -308 ct 
6226 -308 6202 -296 6185 -272 ct 6168 -248 6159 -216 6159 -174 ct p ef
6528 -348 m  6585 -348 l  6585 0 l  6528 0 l  6528 -348 l  p
6528 -483 m  6585 -483 l  6585 -411 l  6528 -411 l  6528 -483 l  p ef
7002 -188 m  7002 -160 l  6740 -160 l  6742 -121 6754 -91 6775 -70 ct 6796 -50 6826 -39 6864 -39 ct 
6886 -39 6907 -42 6927 -47 ct 6948 -53 6968 -61 6989 -72 ct 6989 -18 l  6968 -9 6947 -2 6926 2 ct 
6904 7 6882 9 6860 9 ct 6805 9 6761 -7 6729 -39 ct 6696 -72 6680 -115 6680 -170 ct 
6680 -227 6695 -272 6726 -306 ct 6757 -339 6798 -356 6850 -356 ct 6897 -356 6934 -341 6961 -311 ct 
6988 -281 7002 -240 7002 -188 ct p
6945 -204 m  6944 -236 6936 -261 6919 -280 ct 6902 -298 6879 -308 6851 -308 ct 
6819 -308 6794 -299 6774 -281 ct 6755 -263 6744 -237 6741 -204 ct 6945 -204 l 
p ef
7316 -337 m  7316 -283 l  7300 -292 7283 -298 7266 -302 ct 7249 -306 7231 -308 7212 -308 ct 
7184 -308 7162 -304 7148 -295 ct 7134 -286 7127 -273 7127 -256 ct 7127 -243 7132 -232 7142 -225 ct 
7152 -217 7173 -210 7203 -203 ct 7223 -199 l  7263 -190 7292 -178 7309 -162 ct 
7326 -146 7335 -124 7335 -96 ct 7335 -64 7322 -38 7297 -19 ct 7271 0 7236 9 7191 9 ct 
7173 9 7153 7 7133 4 ct 7113 0 7092 -5 7069 -13 ct 7069 -72 l  7091 -61 7111 -53 7132 -47 ct 
7152 -42 7172 -39 7193 -39 ct 7219 -39 7240 -43 7255 -53 ct 7269 -62 7276 -75 7276 -92 ct 
7276 -107 7271 -119 7261 -127 ct 7250 -136 7227 -144 7192 -151 ct 7172 -156 l 
7137 -163 7111 -175 7095 -190 ct 7080 -206 7072 -227 7072 -254 ct 7072 -286 7083 -312 7107 -329 ct 
7130 -347 7163 -356 7205 -356 ct 7226 -356 7246 -354 7265 -351 ct 7283 -348 7301 -344 7316 -337 ct 
p ef
pom
0.996 c 4232 9725 m  9204 9725 l  9204 11460 l  4232 11460 l  4232 9725 l 
p ef
9204 9725 m  14177 9725 l  14177 11460 l  9204 11460 l  9204 9725 l  p ef
0.898 c 14177 9725 m  19149 9725 l  19149 11460 l  14177 11460 l  14177 9725 l 
p ef
pum
15263 10445 t
0.000 c 340 -448 m  340 -387 l  316 -399 294 -407 273 -413 ct 251 -418 231 -421 211 -421 ct 
177 -421 151 -414 133 -401 ct 114 -388 105 -369 105 -345 ct 105 -324 111 -309 123 -298 ct 
136 -288 159 -279 193 -273 ct 231 -265 l  278 -256 312 -241 334 -218 ct 357 -196 368 -166 368 -128 ct 
368 -83 353 -49 323 -26 ct 293 -3 248 9 190 9 ct 168 9 145 7 120 2 ct 96 -3 70 -11 44 -20 ct 
44 -85 l  69 -71 94 -60 118 -53 ct 143 -46 167 -42 190 -42 ct 226 -42 254 -49 273 -63 ct 
293 -77 302 -97 302 -123 ct 302 -146 295 -164 281 -177 ct 267 -189 245 -199 213 -206 ct 
175 -213 l  128 -222 94 -237 73 -257 ct 52 -277 42 -304 42 -340 ct 42 -381 56 -413 85 -437 ct 
114 -460 154 -472 204 -472 ct 226 -472 248 -470 271 -466 ct 293 -462 316 -456 340 -448 ct 
p ef
596 -308 m  566 -308 542 -296 524 -272 ct 506 -248 497 -215 497 -174 ct 497 -132 506 -99 524 -75 ct 
541 -51 566 -39 596 -39 ct 627 -39 651 -51 669 -75 ct 686 -99 695 -132 695 -174 ct 
695 -215 686 -247 669 -271 ct 651 -296 627 -308 596 -308 ct p
596 -356 m  646 -356 685 -340 713 -308 ct 742 -275 756 -231 756 -174 ct 756 -117 742 -72 713 -40 ct 
685 -7 646 9 596 9 ct 547 9 508 -7 479 -40 ct 451 -72 437 -117 437 -174 ct 437 -231 451 -275 479 -308 ct 
508 -340 547 -356 596 -356 ct p ef
1028 -483 m  1028 -436 l  973 -436 l  953 -436 938 -431 930 -423 ct 922 -415 919 -400 919 -378 ct 
919 -347 l  1012 -347 l  1012 -303 l  919 -303 l  919 0 l  861 0 l  861 -303 l 
807 -303 l  807 -347 l  861 -347 l  861 -372 l  861 -410 870 -439 888 -456 ct 
906 -474 935 -483 974 -483 ct 1028 -483 l  p ef
1119 -447 m  1119 -347 l  1237 -347 l  1237 -303 l  1119 -303 l  1119 -114 l 
1119 -86 1123 -68 1131 -60 ct 1139 -52 1154 -48 1178 -48 ct 1237 -48 l  1237 0 l 
1178 0 l  1134 0 1104 -8 1087 -25 ct 1070 -41 1062 -71 1062 -114 ct 1062 -303 l 
1020 -303 l  1020 -347 l  1062 -347 l  1062 -447 l  1119 -447 l  p ef
1280 -348 m  1337 -348 l  1408 -76 l  1479 -348 l  1546 -348 l  1618 -76 l 
1689 -348 l  1746 -348 l  1655 0 l  1588 0 l  1513 -285 l  1438 0 l  1371 0 l 
1280 -348 l  p ef
1992 -175 m  1946 -175 1914 -170 1896 -159 ct 1878 -149 1869 -131 1869 -105 ct 
1869 -85 1876 -69 1889 -57 ct 1903 -45 1921 -39 1944 -39 ct 1975 -39 2001 -50 2020 -73 ct 
2039 -95 2048 -125 2048 -162 ct 2048 -175 l  1992 -175 l  p
2105 -198 m  2105 0 l  2048 0 l  2048 -53 l  2035 -32 2019 -16 2000 -6 ct 
1980 4 1957 9 1928 9 ct 1893 9 1865 -1 1844 -21 ct 1823 -41 1812 -68 1812 -101 ct 
1812 -140 1825 -170 1851 -190 ct 1878 -210 1917 -220 1968 -220 ct 2048 -220 l 
2048 -225 l  2048 -251 2040 -272 2023 -286 ct 2005 -300 1981 -308 1950 -308 ct 
1930 -308 1911 -305 1892 -300 ct 1873 -296 1855 -289 1838 -279 ct 1838 -332 l 
1858 -340 1879 -346 1898 -350 ct 1918 -354 1937 -356 1956 -356 ct 2006 -356 2043 -343 2068 -317 ct 
2093 -291 2105 -251 2105 -198 ct p ef
2424 -294 m  2418 -298 2411 -301 2403 -302 ct 2396 -304 2387 -305 2378 -305 ct 
2346 -305 2321 -295 2304 -274 ct 2287 -253 2278 -222 2278 -183 ct 2278 0 l  2221 0 l 
2221 -348 l  2278 -348 l  2278 -294 l  2290 -315 2306 -330 2325 -341 ct 2344 -351 2367 -356 2395 -356 ct 
2399 -356 2403 -356 2408 -355 ct 2413 -355 2418 -354 2424 -353 ct 2424 -294 l 
p ef
2770 -188 m  2770 -160 l  2508 -160 l  2510 -121 2522 -91 2543 -70 ct 2564 -50 2594 -39 2632 -39 ct 
2654 -39 2675 -42 2695 -47 ct 2716 -53 2736 -61 2757 -72 ct 2757 -18 l  2736 -9 2715 -2 2694 2 ct 
2672 7 2650 9 2628 9 ct 2573 9 2529 -7 2497 -39 ct 2464 -72 2448 -115 2448 -170 ct 
2448 -227 2463 -272 2494 -306 ct 2525 -339 2566 -356 2618 -356 ct 2665 -356 2702 -341 2729 -311 ct 
2756 -281 2770 -240 2770 -188 ct p
2713 -204 m  2712 -236 2704 -261 2687 -280 ct 2670 -298 2647 -308 2619 -308 ct 
2587 -308 2562 -299 2542 -281 ct 2523 -263 2512 -237 2509 -204 ct 2713 -204 l 
p ef
pom
pum
14526 11182 t
125 -412 m  125 -52 l  201 -52 l  264 -52 311 -66 341 -95 ct 371 -124 385 -170 385 -232 ct 
385 -294 371 -340 341 -369 ct 311 -398 264 -412 201 -412 ct 125 -412 l  p
62 -464 m  191 -464 l  281 -464 347 -445 389 -407 ct 430 -370 451 -312 451 -232 ct 
451 -152 430 -94 388 -56 ct 346 -19 280 0 191 0 ct 62 0 l  62 -464 l  p ef
848 -188 m  848 -160 l  586 -160 l  588 -121 600 -91 621 -70 ct 642 -50 672 -39 710 -39 ct 
732 -39 753 -42 773 -47 ct 794 -53 814 -61 835 -72 ct 835 -18 l  814 -9 793 -2 772 2 ct 
750 7 728 9 706 9 ct 651 9 607 -7 575 -39 ct 542 -72 526 -115 526 -170 ct 526 -227 541 -272 572 -306 ct 
603 -339 644 -356 696 -356 ct 743 -356 780 -341 807 -311 ct 834 -281 848 -240 848 -188 ct 
p
791 -204 m  790 -236 782 -261 765 -280 ct 748 -298 725 -308 697 -308 ct 665 -308 640 -299 620 -281 ct 
601 -263 590 -237 587 -204 ct 791 -204 l  p ef
900 -348 m  960 -348 l  1069 -56 l  1177 -348 l  1238 -348 l  1108 0 l 
1030 0 l  900 -348 l  p ef
1614 -188 m  1614 -160 l  1352 -160 l  1354 -121 1366 -91 1387 -70 ct 1408 -50 1438 -39 1476 -39 ct 
1498 -39 1519 -42 1539 -47 ct 1560 -53 1580 -61 1601 -72 ct 1601 -18 l  1580 -9 1559 -2 1538 2 ct 
1516 7 1494 9 1472 9 ct 1417 9 1373 -7 1341 -39 ct 1308 -72 1292 -115 1292 -170 ct 
1292 -227 1307 -272 1338 -306 ct 1369 -339 1410 -356 1462 -356 ct 1509 -356 1546 -341 1573 -311 ct 
1600 -281 1614 -240 1614 -188 ct p
1557 -204 m  1556 -236 1548 -261 1531 -280 ct 1514 -298 1491 -308 1463 -308 ct 
1431 -308 1406 -299 1386 -281 ct 1367 -263 1356 -237 1353 -204 ct 1557 -204 l 
p ef
1707 -483 m  1764 -483 l  1764 0 l  1707 0 l  1707 -483 l  p ef
2019 -308 m  1989 -308 1965 -296 1947 -272 ct 1929 -248 1920 -215 1920 -174 ct 
1920 -132 1929 -99 1947 -75 ct 1964 -51 1989 -39 2019 -39 ct 2050 -39 2074 -51 2092 -75 ct 
2109 -99 2118 -132 2118 -174 ct 2118 -215 2109 -247 2092 -271 ct 2074 -296 2050 -308 2019 -308 ct 
p
2019 -356 m  2069 -356 2108 -340 2136 -308 ct 2165 -275 2179 -231 2179 -174 ct 
2179 -117 2165 -72 2136 -40 ct 2108 -7 2069 9 2019 9 ct 1970 9 1931 -7 1902 -40 ct 
1874 -72 1860 -117 1860 -174 ct 1860 -231 1874 -275 1902 -308 ct 1931 -340 1970 -356 2019 -356 ct 
p ef
2329 -52 m  2329 132 l  2272 132 l  2272 -348 l  2329 -348 l  2329 -295 l 
2341 -316 2356 -331 2374 -341 ct 2393 -351 2415 -356 2440 -356 ct 2482 -356 2516 -339 2543 -306 ct 
2569 -272 2582 -228 2582 -174 ct 2582 -119 2569 -75 2543 -41 ct 2516 -8 2482 9 2440 9 ct 
2415 9 2393 4 2374 -6 ct 2356 -16 2341 -32 2329 -52 ct p
2523 -174 m  2523 -216 2515 -248 2497 -272 ct 2480 -296 2456 -308 2426 -308 ct 
2396 -308 2372 -296 2355 -272 ct 2338 -248 2329 -216 2329 -174 ct 2329 -132 2338 -99 2355 -75 ct 
2372 -51 2396 -39 2426 -39 ct 2456 -39 2480 -51 2497 -75 ct 2515 -99 2523 -132 2523 -174 ct 
p ef
2946 -281 m  2960 -307 2978 -325 2997 -338 ct 3017 -350 3041 -356 3067 -356 ct 
3104 -356 3132 -343 3151 -318 ct 3171 -293 3181 -257 3181 -210 ct 3181 0 l  3123 0 l 
3123 -208 l  3123 -241 3117 -266 3106 -282 ct 3094 -298 3076 -306 3052 -306 ct 
3022 -306 2999 -297 2982 -277 ct 2964 -257 2956 -230 2956 -196 ct 2956 0 l  2898 0 l 
2898 -208 l  2898 -241 2893 -266 2881 -282 ct 2869 -298 2851 -306 2826 -306 ct 
2797 -306 2774 -296 2757 -277 ct 2740 -257 2731 -230 2731 -196 ct 2731 0 l  2674 0 l 
2674 -348 l  2731 -348 l  2731 -294 l  2744 -315 2760 -331 2778 -341 ct 2796 -351 2818 -356 2843 -356 ct 
2868 -356 2889 -350 2907 -337 ct 2925 -324 2938 -305 2946 -281 ct p ef
3591 -188 m  3591 -160 l  3329 -160 l  3331 -121 3343 -91 3364 -70 ct 3385 -50 3415 -39 3453 -39 ct 
3475 -39 3496 -42 3516 -47 ct 3537 -53 3557 -61 3578 -72 ct 3578 -18 l  3557 -9 3536 -2 3515 2 ct 
3493 7 3471 9 3449 9 ct 3394 9 3350 -7 3318 -39 ct 3285 -72 3269 -115 3269 -170 ct 
3269 -227 3284 -272 3315 -306 ct 3346 -339 3387 -356 3439 -356 ct 3486 -356 3523 -341 3550 -311 ct 
3577 -281 3591 -240 3591 -188 ct p
3534 -204 m  3533 -236 3525 -261 3508 -280 ct 3491 -298 3468 -308 3440 -308 ct 
3408 -308 3383 -299 3363 -281 ct 3344 -263 3333 -237 3330 -204 ct 3534 -204 l 
p ef
3973 -210 m  3973 0 l  3915 0 l  3915 -208 l  3915 -241 3909 -265 3896 -282 ct 
3883 -298 3864 -306 3839 -306 ct 3808 -306 3783 -297 3766 -277 ct 3748 -257 3739 -230 3739 -196 ct 
3739 0 l  3682 0 l  3682 -348 l  3739 -348 l  3739 -294 l  3753 -315 3769 -330 3787 -340 ct 
3806 -351 3827 -356 3851 -356 ct 3891 -356 3921 -344 3942 -319 ct 3962 -294 3973 -258 3973 -210 ct 
p ef
4141 -447 m  4141 -347 l  4259 -347 l  4259 -303 l  4141 -303 l  4141 -114 l 
4141 -86 4145 -68 4153 -60 ct 4161 -52 4176 -48 4200 -48 ct 4259 -48 l  4259 0 l 
4200 0 l  4156 0 4126 -8 4109 -25 ct 4092 -41 4084 -71 4084 -114 ct 4084 -303 l 
4042 -303 l  4042 -347 l  4084 -347 l  4084 -447 l  4141 -447 l  p ef
pom
0.898 c 4232 11460 m  19149 11460 l  19149 12651 l  4232 12651 l  4232 11460 l 
p ef
pum
8500 12276 t
0.000 c 62 -463 m  328 -463 l  328 -410 l  125 -410 l  125 -274 l  309 -274 l 
309 -221 l  125 -221 l  125 1 l  62 1 l  62 -463 l  p ef
384 -137 m  384 -348 l  441 -348 l  441 -139 l  441 -106 447 -82 460 -65 ct 
473 -49 492 -41 518 -41 ct 549 -41 573 -50 591 -70 ct 609 -90 618 -117 618 -151 ct 
618 -348 l  675 -348 l  675 0 l  618 0 l  618 -53 l  604 -32 588 -17 570 -6 ct 
551 4 530 9 506 9 ct 466 9 436 -3 415 -28 ct 394 -53 384 -89 384 -137 ct p
p ef
993 -294 m  987 -298 980 -301 972 -302 ct 965 -304 956 -305 947 -305 ct 915 -305 890 -295 873 -274 ct 
856 -253 847 -222 847 -183 ct 847 0 l  790 0 l  790 -348 l  847 -348 l  847 -294 l 
859 -315 875 -330 894 -341 ct 913 -351 936 -356 964 -356 ct 968 -356 972 -356 977 -355 ct 
982 -355 987 -354 993 -353 ct 993 -294 l  p ef
1111 -447 m  1111 -347 l  1229 -347 l  1229 -303 l  1111 -303 l  1111 -114 l 
1111 -86 1115 -68 1123 -60 ct 1131 -52 1146 -48 1170 -48 ct 1229 -48 l  1229 0 l 
1170 0 l  1126 0 1096 -8 1079 -25 ct 1062 -41 1054 -71 1054 -114 ct 1054 -303 l 
1012 -303 l  1012 -347 l  1054 -347 l  1054 -447 l  1111 -447 l  p ef
1594 -210 m  1594 0 l  1536 0 l  1536 -208 l  1536 -241 1530 -265 1517 -282 ct 
1504 -298 1485 -306 1460 -306 ct 1429 -306 1404 -297 1387 -277 ct 1369 -257 1360 -230 1360 -196 ct 
1360 0 l  1303 0 l  1303 -483 l  1360 -483 l  1360 -294 l  1374 -315 1390 -330 1408 -340 ct 
1427 -351 1448 -356 1472 -356 ct 1512 -356 1542 -344 1563 -319 ct 1583 -294 1594 -258 1594 -210 ct 
p ef
2004 -188 m  2004 -160 l  1742 -160 l  1744 -121 1756 -91 1777 -70 ct 1798 -50 1828 -39 1866 -39 ct 
1888 -39 1909 -42 1929 -47 ct 1950 -53 1970 -61 1991 -72 ct 1991 -18 l  1970 -9 1949 -2 1928 2 ct 
1906 7 1884 9 1862 9 ct 1807 9 1763 -7 1731 -39 ct 1698 -72 1682 -115 1682 -170 ct 
1682 -227 1697 -272 1728 -306 ct 1759 -339 1800 -356 1852 -356 ct 1899 -356 1936 -341 1963 -311 ct 
1990 -281 2004 -240 2004 -188 ct p
1947 -204 m  1946 -236 1938 -261 1921 -280 ct 1904 -298 1881 -308 1853 -308 ct 
1821 -308 1796 -299 1776 -281 ct 1757 -263 1746 -237 1743 -204 ct 1947 -204 l 
p ef
2297 -294 m  2291 -298 2284 -301 2276 -302 ct 2269 -304 2260 -305 2251 -305 ct 
2219 -305 2194 -295 2177 -274 ct 2160 -253 2151 -222 2151 -183 ct 2151 0 l  2094 0 l 
2094 -348 l  2151 -348 l  2151 -294 l  2163 -315 2179 -330 2198 -341 ct 2217 -351 2240 -356 2268 -356 ct 
2272 -356 2276 -356 2281 -355 ct 2286 -355 2291 -354 2297 -353 ct 2297 -294 l 
p ef
2719 -402 m  2634 -171 l  2804 -171 l  2719 -402 l  p
2684 -464 m  2755 -464 l  2931 0 l  2866 0 l  2824 -119 l  2615 -119 l 
2573 0 l  2507 0 l  2684 -464 l  p ef
3053 -52 m  3053 132 l  2996 132 l  2996 -348 l  3053 -348 l  3053 -295 l 
3065 -316 3080 -331 3098 -341 ct 3117 -351 3139 -356 3164 -356 ct 3206 -356 3240 -339 3267 -306 ct 
3293 -272 3306 -228 3306 -174 ct 3306 -119 3293 -75 3267 -41 ct 3240 -8 3206 9 3164 9 ct 
3139 9 3117 4 3098 -6 ct 3080 -16 3065 -32 3053 -52 ct p
3247 -174 m  3247 -216 3239 -248 3221 -272 ct 3204 -296 3180 -308 3150 -308 ct 
3120 -308 3096 -296 3079 -272 ct 3062 -248 3053 -216 3053 -174 ct 3053 -132 3062 -99 3079 -75 ct 
3096 -51 3120 -39 3150 -39 ct 3180 -39 3204 -51 3221 -75 ct 3239 -99 3247 -132 3247 -174 ct 
p ef
3455 -52 m  3455 132 l  3398 132 l  3398 -348 l  3455 -348 l  3455 -295 l 
3467 -316 3482 -331 3500 -341 ct 3519 -351 3541 -356 3566 -356 ct 3608 -356 3642 -339 3669 -306 ct 
3695 -272 3708 -228 3708 -174 ct 3708 -119 3695 -75 3669 -41 ct 3642 -8 3608 9 3566 9 ct 
3541 9 3519 4 3500 -6 ct 3482 -16 3467 -32 3455 -52 ct p
3649 -174 m  3649 -216 3641 -248 3623 -272 ct 3606 -296 3582 -308 3552 -308 ct 
3522 -308 3498 -296 3481 -272 ct 3464 -248 3455 -216 3455 -174 ct 3455 -132 3464 -99 3481 -75 ct 
3498 -51 3522 -39 3552 -39 ct 3582 -39 3606 -51 3623 -75 ct 3641 -99 3649 -132 3649 -174 ct 
p ef
3802 -483 m  3859 -483 l  3859 0 l  3802 0 l  3802 -483 l  p ef
3979 -348 m  4036 -348 l  4036 0 l  3979 0 l  3979 -348 l  p
3979 -483 m  4036 -483 l  4036 -411 l  3979 -411 l  3979 -483 l  p ef
4407 -334 m  4407 -281 l  4391 -290 4374 -296 4358 -301 ct 4342 -305 4326 -308 4309 -308 ct 
4272 -308 4243 -296 4223 -272 ct 4202 -249 4192 -216 4192 -174 ct 4192 -131 4202 -98 4223 -75 ct 
4243 -51 4272 -39 4309 -39 ct 4326 -39 4342 -42 4358 -46 ct 4374 -51 4391 -57 4407 -66 ct 
4407 -13 l  4391 -6 4374 0 4357 3 ct 4340 7 4322 9 4303 9 ct 4251 9 4209 -7 4178 -40 ct 
4147 -73 4132 -118 4132 -174 ct 4132 -230 4148 -275 4179 -307 ct 4210 -340 4252 -356 4307 -356 ct 
4324 -356 4341 -354 4358 -351 ct 4375 -347 4391 -342 4407 -334 ct p ef
4662 -175 m  4616 -175 4584 -170 4566 -159 ct 4548 -149 4539 -131 4539 -105 ct 
4539 -85 4546 -69 4559 -57 ct 4573 -45 4591 -39 4614 -39 ct 4645 -39 4671 -50 4690 -73 ct 
4709 -95 4718 -125 4718 -162 ct 4718 -175 l  4662 -175 l  p
4775 -198 m  4775 0 l  4718 0 l  4718 -53 l  4705 -32 4689 -16 4670 -6 ct 
4650 4 4627 9 4598 9 ct 4563 9 4535 -1 4514 -21 ct 4493 -41 4482 -68 4482 -101 ct 
4482 -140 4495 -170 4521 -190 ct 4548 -210 4587 -220 4638 -220 ct 4718 -220 l 
4718 -225 l  4718 -251 4710 -272 4693 -286 ct 4675 -300 4651 -308 4620 -308 ct 
4600 -308 4581 -305 4562 -300 ct 4543 -296 4525 -289 4508 -279 ct 4508 -332 l 
4528 -340 4549 -346 4568 -350 ct 4588 -354 4607 -356 4626 -356 ct 4676 -356 4713 -343 4738 -317 ct 
4763 -291 4775 -251 4775 -198 ct p ef
4949 -447 m  4949 -347 l  5067 -347 l  5067 -303 l  4949 -303 l  4949 -114 l 
4949 -86 4953 -68 4961 -60 ct 4969 -52 4984 -48 5008 -48 ct 5067 -48 l  5067 0 l 
5008 0 l  4964 0 4934 -8 4917 -25 ct 4900 -41 4892 -71 4892 -114 ct 4892 -303 l 
4850 -303 l  4850 -347 l  4892 -347 l  4892 -447 l  4949 -447 l  p ef
5143 -348 m  5200 -348 l  5200 0 l  5143 0 l  5143 -348 l  p
5143 -483 m  5200 -483 l  5200 -411 l  5143 -411 l  5143 -483 l  p ef
5455 -308 m  5425 -308 5401 -296 5383 -272 ct 5365 -248 5356 -215 5356 -174 ct 
5356 -132 5365 -99 5383 -75 ct 5400 -51 5425 -39 5455 -39 ct 5486 -39 5510 -51 5528 -75 ct 
5545 -99 5554 -132 5554 -174 ct 5554 -215 5545 -247 5528 -271 ct 5510 -296 5486 -308 5455 -308 ct 
p
5455 -356 m  5505 -356 5544 -340 5572 -308 ct 5601 -275 5615 -231 5615 -174 ct 
5615 -117 5601 -72 5572 -40 ct 5544 -7 5505 9 5455 9 ct 5406 9 5367 -7 5338 -40 ct 
5310 -72 5296 -117 5296 -174 ct 5296 -231 5310 -275 5338 -308 ct 5367 -340 5406 -356 5455 -356 ct 
p ef
6000 -210 m  6000 0 l  5942 0 l  5942 -208 l  5942 -241 5936 -265 5923 -282 ct 
5910 -298 5891 -306 5866 -306 ct 5835 -306 5810 -297 5793 -277 ct 5775 -257 5766 -230 5766 -196 ct 
5766 0 l  5709 0 l  5709 -348 l  5766 -348 l  5766 -294 l  5780 -315 5796 -330 5814 -340 ct 
5833 -351 5854 -356 5878 -356 ct 5918 -356 5948 -344 5969 -319 ct 5989 -294 6000 -258 6000 -210 ct 
p ef
6334 -337 m  6334 -283 l  6318 -292 6301 -298 6284 -302 ct 6267 -306 6249 -308 6230 -308 ct 
6202 -308 6180 -304 6166 -295 ct 6152 -286 6145 -273 6145 -256 ct 6145 -243 6150 -232 6160 -225 ct 
6170 -217 6191 -210 6221 -203 ct 6241 -199 l  6281 -190 6310 -178 6327 -162 ct 
6344 -146 6353 -124 6353 -96 ct 6353 -64 6340 -38 6315 -19 ct 6289 0 6254 9 6209 9 ct 
6191 9 6171 7 6151 4 ct 6131 0 6110 -5 6087 -13 ct 6087 -72 l  6109 -61 6129 -53 6150 -47 ct 
6170 -42 6190 -39 6211 -39 ct 6237 -39 6258 -43 6273 -53 ct 6287 -62 6294 -75 6294 -92 ct 
6294 -107 6289 -119 6279 -127 ct 6268 -136 6245 -144 6210 -151 ct 6190 -156 l 
6155 -163 6129 -175 6113 -190 ct 6098 -206 6090 -227 6090 -254 ct 6090 -286 6101 -312 6125 -329 ct 
6148 -347 6181 -356 6223 -356 ct 6244 -356 6264 -354 6283 -351 ct 6301 -348 6319 -344 6334 -337 ct 
p ef
pom
1 lj 4232 3881 m  4232 4878 l  ps
4232 3881 m  9205 3881 l  ps
0.996 c 9205 3881 m  9205 4878 l  ps
0.000 c 9205 3881 m  14177 3881 l  ps
0.996 c 14177 3881 m  14177 4878 l  ps
19149 3881 m  19149 4878 l  ps
0.000 c 14177 3881 m  19149 3881 l  ps
4232 4878 m  4232 7344 l  ps
0.996 c 4232 4878 m  9205 4878 l  ps
9205 4878 m  9205 7344 l  ps
9205 4878 m  14177 4878 l  ps
14177 4878 m  14177 7344 l  ps
19149 4878 m  19149 7344 l  ps
14177 4878 m  19149 4878 l  ps
0.000 c 4232 7344 m  4232 8535 l  ps
0.996 c 4232 7344 m  14177 7344 l  ps
14177 7344 m  14177 8535 l  ps
19149 7344 m  19149 8535 l  ps
14177 7344 m  19149 7344 l  ps
0.000 c 4232 8535 m  4232 9726 l  ps
0.996 c 4232 8535 m  9205 8535 l  ps
9205 8535 m  9205 9726 l  ps
19149 8535 m  19149 9726 l  ps
9205 8535 m  19149 8535 l  ps
0.000 c 4232 9726 m  4232 11461 l  ps
0.996 c 4232 9726 m  9205 9726 l  ps
9205 9726 m  9205 11461 l  ps
9205 9726 m  14177 9726 l  ps
14177 9726 m  14177 11461 l  ps
19149 9726 m  19149 11461 l  ps
14177 9726 m  19149 9726 l  ps
0.000 c 4232 11461 m  4232 12652 l  ps
4232 12652 m  19149 12652 l  ps
0.996 c 19149 11461 m  19149 12652 l  ps
4232 11461 m  19149 11461 l  ps
76 lw 0.000 c 11722 12697 m  4260 12697 l  4275 3879 l  19200 3879 l  19185 12697 l 
11722 12697 l  pc

0 8895 t 
pom
count op_count sub {pop} repeat countdictstack dict_count sub {end} repeat b4_inc_state restore
%%PageTrailer
%%Trailer
%%EOF
